even_divide3_vcd.vcd
$date
     Jul 19, 2022       17:31:12
$end

$version
 SystemC 2.3.3-Accellera --- Mar 15 2022 17:17:50
$end

$timescale
     1 ps
$end

$scope module SystemC $end
$var wire    2  aaaaa  cnt [1:0]  $end
$var wire    1  aaaab  clk1       $end
$var wire    1  aaaac  clk2       $end
$var wire    1  aaaad  clk3       $end
$var wire    1  aaaae  rst       $end
$var wire    1  aaaaf  clk       $end
$upscope $end
$enddefinitions  $end

$comment
All initial values are dumped below at time 0 sec = 0 timescale units.
$end

$dumpvars
b0 aaaaa
0aaaab
1aaaac
0aaaad
1aaaae
0aaaaf
$end

#5000
b1 aaaaa
1aaaaf

#10000
0aaaaf

#15000
b10 aaaaa
1aaaaf

#20000
0aaaac
0aaaaf

#25000
b0 aaaaa
1aaaab
1aaaaf

#30000
1aaaac
1aaaad
0aaaaf

#35000
b1 aaaaa
1aaaaf

#40000
0aaaaf

#45000
b10 aaaaa
0aaaab
0aaaad
1aaaaf

#50000
0aaaac
0aaaaf

#55000
b0 aaaaa
1aaaab
1aaaaf

#60000
1aaaac
1aaaad
0aaaaf

#65000
b1 aaaaa
1aaaaf

#70000
0aaaaf

#75000
b10 aaaaa
0aaaab
0aaaad
1aaaaf

#80000
0aaaac
0aaaaf

#85000
b0 aaaaa
1aaaab
1aaaaf

#90000
1aaaac
1aaaad
0aaaaf

#95000
b1 aaaaa
1aaaaf

#100000
0aaaaf

#105000
b10 aaaaa
0aaaab
0aaaad
1aaaaf

#110000
0aaaac
0aaaaf

#115000
b0 aaaaa
1aaaab
1aaaaf

#120000
1aaaac
1aaaad
0aaaaf

#125000
b1 aaaaa
1aaaaf

#130000
0aaaaf

#135000
b10 aaaaa
0aaaab
0aaaad
1aaaaf

#140000
0aaaac
0aaaaf

#145000
b0 aaaaa
1aaaab
1aaaaf

#150000
1aaaac
1aaaad
0aaaaf

#155000
b1 aaaaa
1aaaaf

#160000
0aaaaf

#165000
b10 aaaaa
0aaaab
0aaaad
1aaaaf

#170000
0aaaac
0aaaaf

#175000
b0 aaaaa
1aaaab
1aaaaf

#180000
1aaaac
1aaaad
0aaaaf

#185000
b1 aaaaa
1aaaaf

#190000
0aaaaf

#195000
b10 aaaaa
0aaaab
0aaaad
1aaaaf

#200000
0aaaac
0aaaaf

#205000
b0 aaaaa
1aaaab
1aaaaf

#210000
1aaaac
1aaaad
0aaaaf

#215000
b1 aaaaa
1aaaaf

#220000
0aaaaf

#225000
b10 aaaaa
0aaaab
0aaaad
1aaaaf

#230000
0aaaac
0aaaaf

#235000
b0 aaaaa
1aaaab
1aaaaf

#240000
1aaaac
1aaaad
0aaaaf

#245000
b1 aaaaa
1aaaaf

#250000
0aaaaf

#255000
b10 aaaaa
0aaaab
0aaaad
1aaaaf

#260000
0aaaac
0aaaaf

#265000
b0 aaaaa
1aaaab
1aaaaf

#270000
1aaaac
1aaaad
0aaaaf

#275000
b1 aaaaa
1aaaaf

#280000
0aaaaf

#285000
b10 aaaaa
0aaaab
0aaaad
1aaaaf

#290000
0aaaac
0aaaaf

#295000
b0 aaaaa
1aaaab
1aaaaf

#300000
1aaaac
1aaaad
0aaaaf

#305000
b1 aaaaa
1aaaaf

#310000
0aaaaf

#315000
b10 aaaaa
0aaaab
0aaaad
1aaaaf

#320000
0aaaac
0aaaaf

#325000
b0 aaaaa
1aaaab
1aaaaf

#330000
1aaaac
1aaaad
0aaaaf

#335000
b1 aaaaa
1aaaaf

#340000
0aaaaf

#345000
b10 aaaaa
0aaaab
0aaaad
1aaaaf

#350000
0aaaac
0aaaaf

#355000
b0 aaaaa
1aaaab
1aaaaf

#360000
1aaaac
1aaaad
0aaaaf

#365000
b1 aaaaa
1aaaaf

#370000
0aaaaf

#375000
b10 aaaaa
0aaaab
0aaaad
1aaaaf

#380000
0aaaac
0aaaaf

#385000
b0 aaaaa
1aaaab
1aaaaf

#390000
1aaaac
1aaaad
0aaaaf

#395000
b1 aaaaa
1aaaaf

#400000
0aaaaf

#405000
b10 aaaaa
0aaaab
0aaaad
1aaaaf

#410000
0aaaac
0aaaaf

#415000
b0 aaaaa
1aaaab
1aaaaf

#420000
1aaaac
1aaaad
0aaaaf

#425000
b1 aaaaa
1aaaaf

#430000
0aaaaf

#435000
b10 aaaaa
0aaaab
0aaaad
1aaaaf

#440000
0aaaac
0aaaaf

#445000
b0 aaaaa
1aaaab
1aaaaf

#450000
1aaaac
1aaaad
0aaaaf

#455000
b1 aaaaa
1aaaaf

#460000
0aaaaf

#465000
b10 aaaaa
0aaaab
0aaaad
1aaaaf

#470000
0aaaac
0aaaaf

#475000
b0 aaaaa
1aaaab
1aaaaf

#480000
1aaaac
1aaaad
0aaaaf

#485000
b1 aaaaa
1aaaaf

#490000
0aaaaf

#495000
b10 aaaaa
0aaaab
0aaaad
1aaaaf

#500000
0aaaac
0aaaaf

#505000
b0 aaaaa
1aaaab
1aaaaf

#510000
1aaaac
1aaaad
0aaaaf

#515000
b1 aaaaa
1aaaaf

#520000
0aaaaf

#525000
b10 aaaaa
0aaaab
0aaaad
1aaaaf

#530000
0aaaac
0aaaaf

#535000
b0 aaaaa
1aaaab
1aaaaf

#540000
1aaaac
1aaaad
0aaaaf

#545000
b1 aaaaa
1aaaaf

#550000
0aaaaf

#555000
b10 aaaaa
0aaaab
0aaaad
1aaaaf

#560000
0aaaac
0aaaaf

#565000
b0 aaaaa
1aaaab
1aaaaf

#570000
1aaaac
1aaaad
0aaaaf

#575000
b1 aaaaa
1aaaaf

#580000
0aaaaf

#585000
b10 aaaaa
0aaaab
0aaaad
1aaaaf

#590000
0aaaac
0aaaaf

#595000
b0 aaaaa
1aaaab
1aaaaf

#600000
1aaaac
1aaaad
0aaaaf

#605000
b1 aaaaa
1aaaaf

#610000
0aaaaf

#615000
b10 aaaaa
0aaaab
0aaaad
1aaaaf

#620000
0aaaac
0aaaaf

#625000
b0 aaaaa
1aaaab
1aaaaf

#630000
1aaaac
1aaaad
0aaaaf

#635000
b1 aaaaa
1aaaaf

#640000
0aaaaf

#645000
b10 aaaaa
0aaaab
0aaaad
1aaaaf

#650000
0aaaac
0aaaaf

#655000
b0 aaaaa
1aaaab
1aaaaf

#660000
1aaaac
1aaaad
0aaaaf

#665000
b1 aaaaa
1aaaaf

#670000
0aaaaf

#675000
b10 aaaaa
0aaaab
0aaaad
1aaaaf

#680000
0aaaac
0aaaaf

#685000
b0 aaaaa
1aaaab
1aaaaf

#690000
1aaaac
1aaaad
0aaaaf

#695000
b1 aaaaa
1aaaaf

#700000
0aaaaf

#705000
b10 aaaaa
0aaaab
0aaaad
1aaaaf

#710000
0aaaac
0aaaaf

#715000
b0 aaaaa
1aaaab
1aaaaf

#720000
1aaaac
1aaaad
0aaaaf

#725000
b1 aaaaa
1aaaaf

#730000
0aaaaf

#735000
b10 aaaaa
0aaaab
0aaaad
1aaaaf

#740000
0aaaac
0aaaaf

#745000
b0 aaaaa
1aaaab
1aaaaf

#750000
1aaaac
1aaaad
0aaaaf

#755000
b1 aaaaa
1aaaaf

#760000
0aaaaf

#765000
b10 aaaaa
0aaaab
0aaaad
1aaaaf

#770000
0aaaac
0aaaaf

#775000
b0 aaaaa
1aaaab
1aaaaf

#780000
1aaaac
1aaaad
0aaaaf

#785000
b1 aaaaa
1aaaaf

#790000
0aaaaf

#795000
b10 aaaaa
0aaaab
0aaaad
1aaaaf

#800000
0aaaac
0aaaaf

#805000
b0 aaaaa
1aaaab
1aaaaf

#810000
1aaaac
1aaaad
0aaaaf

#815000
b1 aaaaa
1aaaaf

#820000
0aaaaf

#825000
b10 aaaaa
0aaaab
0aaaad
1aaaaf

#830000
0aaaac
0aaaaf

#835000
b0 aaaaa
1aaaab
1aaaaf

#840000
1aaaac
1aaaad
0aaaaf

#845000
b1 aaaaa
1aaaaf

#850000
0aaaaf

#855000
b10 aaaaa
0aaaab
0aaaad
1aaaaf

#860000
0aaaac
0aaaaf

#865000
b0 aaaaa
1aaaab
1aaaaf

#870000
1aaaac
1aaaad
0aaaaf

#875000
b1 aaaaa
1aaaaf

#880000
0aaaaf

#885000
b10 aaaaa
0aaaab
0aaaad
1aaaaf

#890000
0aaaac
0aaaaf

#895000
b0 aaaaa
1aaaab
1aaaaf

#900000
1aaaac
1aaaad
0aaaaf

#905000
b1 aaaaa
1aaaaf

#910000
0aaaaf

#915000
b10 aaaaa
0aaaab
0aaaad
1aaaaf

#920000
0aaaac
0aaaaf

#925000
b0 aaaaa
1aaaab
1aaaaf

#930000
1aaaac
1aaaad
0aaaaf

#935000
b1 aaaaa
1aaaaf

#940000
0aaaaf

#945000
b10 aaaaa
0aaaab
0aaaad
1aaaaf

#950000
0aaaac
0aaaaf

#955000
b0 aaaaa
1aaaab
1aaaaf

#960000
1aaaac
1aaaad
0aaaaf

#965000
b1 aaaaa
1aaaaf

#970000
0aaaaf

#975000
b10 aaaaa
0aaaab
0aaaad
1aaaaf

#980000
0aaaac
0aaaaf

#985000
b0 aaaaa
1aaaab
1aaaaf

#990000
1aaaac
1aaaad
0aaaaf

#995000
b1 aaaaa
1aaaaf

#1000000
0aaaaf

#1005000
b10 aaaaa
0aaaab
0aaaad
1aaaaf

#1010000
0aaaac
0aaaaf

#1015000
b0 aaaaa
1aaaab
1aaaaf

#1020000
1aaaac
1aaaad
0aaaaf

#1025000
b1 aaaaa
1aaaaf

#1030000
0aaaaf

#1035000
b10 aaaaa
0aaaab
0aaaad
1aaaaf

#1040000
0aaaac
0aaaaf

#1045000
b0 aaaaa
1aaaab
1aaaaf

#1050000
1aaaac
1aaaad
0aaaaf

#1055000
b1 aaaaa
1aaaaf

#1060000
0aaaaf

#1065000
b10 aaaaa
0aaaab
0aaaad
1aaaaf

#1070000
0aaaac
0aaaaf

#1075000
b0 aaaaa
1aaaab
1aaaaf

#1080000
1aaaac
1aaaad
0aaaaf

#1085000
b1 aaaaa
1aaaaf

#1090000
0aaaaf

#1095000
b10 aaaaa
0aaaab
0aaaad
1aaaaf

#1100000
0aaaac
0aaaaf

#1105000
b0 aaaaa
1aaaab
1aaaaf

#1110000
1aaaac
1aaaad
0aaaaf

#1115000
b1 aaaaa
1aaaaf

#1120000
0aaaaf

#1125000
b10 aaaaa
0aaaab
0aaaad
1aaaaf

#1130000
0aaaac
0aaaaf

#1135000
b0 aaaaa
1aaaab
1aaaaf

#1140000
1aaaac
1aaaad
0aaaaf

#1145000
b1 aaaaa
1aaaaf

#1150000
0aaaaf

#1155000
b10 aaaaa
0aaaab
0aaaad
1aaaaf

#1160000
0aaaac
0aaaaf

#1165000
b0 aaaaa
1aaaab
1aaaaf

#1170000
1aaaac
1aaaad
0aaaaf

#1175000
b1 aaaaa
1aaaaf

#1180000
0aaaaf

#1185000
b10 aaaaa
0aaaab
0aaaad
1aaaaf

#1190000
0aaaac
0aaaaf

#1195000
b0 aaaaa
1aaaab
1aaaaf

#1200000
1aaaac
1aaaad
0aaaaf

#1205000
b1 aaaaa
1aaaaf

#1210000
0aaaaf

#1215000
b10 aaaaa
0aaaab
0aaaad
1aaaaf

#1220000
0aaaac
0aaaaf

#1225000
b0 aaaaa
1aaaab
1aaaaf

#1230000
1aaaac
1aaaad
0aaaaf

#1235000
b1 aaaaa
1aaaaf

#1240000
0aaaaf

#1245000
b10 aaaaa
0aaaab
0aaaad
1aaaaf

#1250000
0aaaac
0aaaaf

#1255000
b0 aaaaa
1aaaab
1aaaaf

#1260000
1aaaac
1aaaad
0aaaaf

#1265000
b1 aaaaa
1aaaaf

#1270000
0aaaaf

#1275000
b10 aaaaa
0aaaab
0aaaad
1aaaaf

#1280000
0aaaac
0aaaaf

#1285000
b0 aaaaa
1aaaab
1aaaaf

#1290000
1aaaac
1aaaad
0aaaaf

#1295000
b1 aaaaa
1aaaaf

#1300000
0aaaaf

#1305000
b10 aaaaa
0aaaab
0aaaad
1aaaaf

#1310000
0aaaac
0aaaaf

#1315000
b0 aaaaa
1aaaab
1aaaaf

#1320000
1aaaac
1aaaad
0aaaaf

#1325000
b1 aaaaa
1aaaaf

#1330000
0aaaaf

#1335000
b10 aaaaa
0aaaab
0aaaad
1aaaaf

#1340000
0aaaac
0aaaaf

#1345000
b0 aaaaa
1aaaab
1aaaaf

#1350000
1aaaac
1aaaad
0aaaaf

#1355000
b1 aaaaa
1aaaaf

#1360000
0aaaaf

#1365000
b10 aaaaa
0aaaab
0aaaad
1aaaaf

#1370000
0aaaac
0aaaaf

#1375000
b0 aaaaa
1aaaab
1aaaaf

#1380000
1aaaac
1aaaad
0aaaaf

#1385000
b1 aaaaa
1aaaaf

#1390000
0aaaaf

#1395000
b10 aaaaa
0aaaab
0aaaad
1aaaaf

#1400000
0aaaac
0aaaaf

#1405000
b0 aaaaa
1aaaab
1aaaaf

#1410000
1aaaac
1aaaad
0aaaaf

#1415000
b1 aaaaa
1aaaaf

#1420000
0aaaaf

#1425000
b10 aaaaa
0aaaab
0aaaad
1aaaaf

#1430000
0aaaac
0aaaaf

#1435000
b0 aaaaa
1aaaab
1aaaaf

#1440000
1aaaac
1aaaad
0aaaaf

#1445000
b1 aaaaa
1aaaaf

#1450000
0aaaaf

#1455000
b10 aaaaa
0aaaab
0aaaad
1aaaaf

#1460000
0aaaac
0aaaaf

#1465000
b0 aaaaa
1aaaab
1aaaaf

#1470000
1aaaac
1aaaad
0aaaaf

#1475000
b1 aaaaa
1aaaaf

#1480000
0aaaaf

#1485000
b10 aaaaa
0aaaab
0aaaad
1aaaaf

#1490000
0aaaac
0aaaaf

#1495000
b0 aaaaa
1aaaab
1aaaaf

#1500000
1aaaac
1aaaad
0aaaaf

#1505000
b1 aaaaa
1aaaaf

#1510000
0aaaaf

#1515000
b10 aaaaa
0aaaab
0aaaad
1aaaaf

#1520000
0aaaac
0aaaaf

#1525000
b0 aaaaa
1aaaab
1aaaaf

#1530000
1aaaac
1aaaad
0aaaaf

#1535000
b1 aaaaa
1aaaaf

#1540000
0aaaaf

#1545000
b10 aaaaa
0aaaab
0aaaad
1aaaaf

#1550000
0aaaac
0aaaaf

#1555000
b0 aaaaa
1aaaab
1aaaaf

#1560000
1aaaac
1aaaad
0aaaaf

#1565000
b1 aaaaa
1aaaaf

#1570000
0aaaaf

#1575000
b10 aaaaa
0aaaab
0aaaad
1aaaaf

#1580000
0aaaac
0aaaaf

#1585000
b0 aaaaa
1aaaab
1aaaaf

#1590000
1aaaac
1aaaad
0aaaaf

#1595000
b1 aaaaa
1aaaaf

#1600000
0aaaaf

#1605000
b10 aaaaa
0aaaab
0aaaad
1aaaaf

#1610000
0aaaac
0aaaaf

#1615000
b0 aaaaa
1aaaab
1aaaaf

#1620000
1aaaac
1aaaad
0aaaaf

#1625000
b1 aaaaa
1aaaaf

#1630000
0aaaaf

#1635000
b10 aaaaa
0aaaab
0aaaad
1aaaaf

#1640000
0aaaac
0aaaaf

#1645000
b0 aaaaa
1aaaab
1aaaaf

#1650000
1aaaac
1aaaad
0aaaaf

#1655000
b1 aaaaa
1aaaaf

#1660000
0aaaaf

#1665000
b10 aaaaa
0aaaab
0aaaad
1aaaaf

#1670000
0aaaac
0aaaaf

#1675000
b0 aaaaa
1aaaab
1aaaaf

#1680000
1aaaac
1aaaad
0aaaaf

#1685000
b1 aaaaa
1aaaaf

#1690000
0aaaaf

#1695000
b10 aaaaa
0aaaab
0aaaad
1aaaaf

#1700000
0aaaac
0aaaaf

#1705000
b0 aaaaa
1aaaab
1aaaaf

#1710000
1aaaac
1aaaad
0aaaaf

#1715000
b1 aaaaa
1aaaaf

#1720000
0aaaaf

#1725000
b10 aaaaa
0aaaab
0aaaad
1aaaaf

#1730000
0aaaac
0aaaaf

#1735000
b0 aaaaa
1aaaab
1aaaaf

#1740000
1aaaac
1aaaad
0aaaaf

#1745000
b1 aaaaa
1aaaaf

#1750000
0aaaaf

#1755000
b10 aaaaa
0aaaab
0aaaad
1aaaaf

#1760000
0aaaac
0aaaaf

#1765000
b0 aaaaa
1aaaab
1aaaaf

#1770000
1aaaac
1aaaad
0aaaaf

#1775000
b1 aaaaa
1aaaaf

#1780000
0aaaaf

#1785000
b10 aaaaa
0aaaab
0aaaad
1aaaaf

#1790000
0aaaac
0aaaaf

#1795000
b0 aaaaa
1aaaab
1aaaaf

#1800000
1aaaac
1aaaad
0aaaaf

#1805000
b1 aaaaa
1aaaaf

#1810000
0aaaaf

#1815000
b10 aaaaa
0aaaab
0aaaad
1aaaaf

#1820000
0aaaac
0aaaaf

#1825000
b0 aaaaa
1aaaab
1aaaaf

#1830000
1aaaac
1aaaad
0aaaaf

#1835000
b1 aaaaa
1aaaaf

#1840000
0aaaaf

#1845000
b10 aaaaa
0aaaab
0aaaad
1aaaaf

#1850000
0aaaac
0aaaaf

#1855000
b0 aaaaa
1aaaab
1aaaaf

#1860000
1aaaac
1aaaad
0aaaaf

#1865000
b1 aaaaa
1aaaaf

#1870000
0aaaaf

#1875000
b10 aaaaa
0aaaab
0aaaad
1aaaaf

#1880000
0aaaac
0aaaaf

#1885000
b0 aaaaa
1aaaab
1aaaaf

#1890000
1aaaac
1aaaad
0aaaaf

#1895000
b1 aaaaa
1aaaaf

#1900000
0aaaaf

#1905000
b10 aaaaa
0aaaab
0aaaad
1aaaaf

#1910000
0aaaac
0aaaaf

#1915000
b0 aaaaa
1aaaab
1aaaaf

#1920000
1aaaac
1aaaad
0aaaaf

#1925000
b1 aaaaa
1aaaaf

#1930000
0aaaaf

#1935000
b10 aaaaa
0aaaab
0aaaad
1aaaaf

#1940000
0aaaac
0aaaaf

#1945000
b0 aaaaa
1aaaab
1aaaaf

#1950000
1aaaac
1aaaad
0aaaaf

#1955000
b1 aaaaa
1aaaaf

#1960000
0aaaaf

#1965000
b10 aaaaa
0aaaab
0aaaad
1aaaaf

#1970000
0aaaac
0aaaaf

#1975000
b0 aaaaa
1aaaab
1aaaaf

#1980000
1aaaac
1aaaad
0aaaaf

#1985000
b1 aaaaa
1aaaaf

#1990000
0aaaaf

#1995000
b10 aaaaa
0aaaab
0aaaad
1aaaaf

#2000000
0aaaac
0aaaaf

#2005000
b0 aaaaa
1aaaab
1aaaaf

#2010000
1aaaac
1aaaad
0aaaaf

#2015000
b1 aaaaa
1aaaaf

#2020000
0aaaaf

#2025000
b10 aaaaa
0aaaab
0aaaad
1aaaaf

#2030000
0aaaac
0aaaaf

#2035000
b0 aaaaa
1aaaab
1aaaaf

#2040000
1aaaac
1aaaad
0aaaaf

#2045000
b1 aaaaa
1aaaaf

#2050000
0aaaaf

#2055000
b10 aaaaa
0aaaab
0aaaad
1aaaaf

#2060000
0aaaac
0aaaaf

#2065000
b0 aaaaa
1aaaab
1aaaaf

#2070000
1aaaac
1aaaad
0aaaaf

#2075000
b1 aaaaa
1aaaaf

#2080000
0aaaaf

#2085000
b10 aaaaa
0aaaab
0aaaad
1aaaaf

#2090000
0aaaac
0aaaaf

#2095000
b0 aaaaa
1aaaab
1aaaaf

#2100000
1aaaac
1aaaad
0aaaaf

#2105000
b1 aaaaa
1aaaaf

#2110000
0aaaaf

#2115000
b10 aaaaa
0aaaab
0aaaad
1aaaaf

#2120000
0aaaac
0aaaaf

#2125000
b0 aaaaa
1aaaab
1aaaaf

#2130000
1aaaac
1aaaad
0aaaaf

#2135000
b1 aaaaa
1aaaaf

#2140000
0aaaaf

#2145000
b10 aaaaa
0aaaab
0aaaad
1aaaaf

#2150000
0aaaac
0aaaaf

#2155000
b0 aaaaa
1aaaab
1aaaaf

#2160000
1aaaac
1aaaad
0aaaaf

#2165000
b1 aaaaa
1aaaaf

#2170000
0aaaaf

#2175000
b10 aaaaa
0aaaab
0aaaad
1aaaaf

#2180000
0aaaac
0aaaaf

#2185000
b0 aaaaa
1aaaab
1aaaaf

#2190000
1aaaac
1aaaad
0aaaaf

#2195000
b1 aaaaa
1aaaaf

#2200000
0aaaaf

#2205000
b10 aaaaa
0aaaab
0aaaad
1aaaaf

#2210000
0aaaac
0aaaaf

#2215000
b0 aaaaa
1aaaab
1aaaaf

#2220000
1aaaac
1aaaad
0aaaaf

#2225000
b1 aaaaa
1aaaaf

#2230000
0aaaaf

#2235000
b10 aaaaa
0aaaab
0aaaad
1aaaaf

#2240000
0aaaac
0aaaaf

#2245000
b0 aaaaa
1aaaab
1aaaaf

#2250000
1aaaac
1aaaad
0aaaaf

#2255000
b1 aaaaa
1aaaaf

#2260000
0aaaaf

#2265000
b10 aaaaa
0aaaab
0aaaad
1aaaaf

#2270000
0aaaac
0aaaaf

#2275000
b0 aaaaa
1aaaab
1aaaaf

#2280000
1aaaac
1aaaad
0aaaaf

#2285000
b1 aaaaa
1aaaaf

#2290000
0aaaaf

#2295000
b10 aaaaa
0aaaab
0aaaad
1aaaaf

#2300000
0aaaac
0aaaaf

#2305000
b0 aaaaa
1aaaab
1aaaaf

#2310000
1aaaac
1aaaad
0aaaaf

#2315000
b1 aaaaa
1aaaaf

#2320000
0aaaaf

#2325000
b10 aaaaa
0aaaab
0aaaad
1aaaaf

#2330000
0aaaac
0aaaaf

#2335000
b0 aaaaa
1aaaab
1aaaaf

#2340000
1aaaac
1aaaad
0aaaaf

#2345000
b1 aaaaa
1aaaaf

#2350000
0aaaaf

#2355000
b10 aaaaa
0aaaab
0aaaad
1aaaaf

#2360000
0aaaac
0aaaaf

#2365000
b0 aaaaa
1aaaab
1aaaaf

#2370000
1aaaac
1aaaad
0aaaaf

#2375000
b1 aaaaa
1aaaaf

#2380000
0aaaaf

#2385000
b10 aaaaa
0aaaab
0aaaad
1aaaaf

#2390000
0aaaac
0aaaaf

#2395000
b0 aaaaa
1aaaab
1aaaaf

#2400000
1aaaac
1aaaad
0aaaaf

#2405000
b1 aaaaa
1aaaaf

#2410000
0aaaaf

#2415000
b10 aaaaa
0aaaab
0aaaad
1aaaaf

#2420000
0aaaac
0aaaaf

#2425000
b0 aaaaa
1aaaab
1aaaaf

#2430000
1aaaac
1aaaad
0aaaaf

#2435000
b1 aaaaa
1aaaaf

#2440000
0aaaaf

#2445000
b10 aaaaa
0aaaab
0aaaad
1aaaaf

#2450000
0aaaac
0aaaaf

#2455000
b0 aaaaa
1aaaab
1aaaaf

#2460000
1aaaac
1aaaad
0aaaaf

#2465000
b1 aaaaa
1aaaaf

#2470000
0aaaaf

#2475000
b10 aaaaa
0aaaab
0aaaad
1aaaaf

#2480000
0aaaac
0aaaaf

#2485000
b0 aaaaa
1aaaab
1aaaaf

#2490000
1aaaac
1aaaad
0aaaaf

#2495000
b1 aaaaa
1aaaaf

#2500000
0aaaaf

#2505000
b10 aaaaa
0aaaab
0aaaad
1aaaaf

#2510000
0aaaac
0aaaaf

#2515000
b0 aaaaa
1aaaab
1aaaaf

#2520000
1aaaac
1aaaad
0aaaaf

#2525000
b1 aaaaa
1aaaaf

#2530000
0aaaaf

#2535000
b10 aaaaa
0aaaab
0aaaad
1aaaaf

#2540000
0aaaac
0aaaaf

#2545000
b0 aaaaa
1aaaab
1aaaaf

#2550000
1aaaac
1aaaad
0aaaaf

#2555000
b1 aaaaa
1aaaaf

#2560000
0aaaaf

#2565000
b10 aaaaa
0aaaab
0aaaad
1aaaaf

#2570000
0aaaac
0aaaaf

#2575000
b0 aaaaa
1aaaab
1aaaaf

#2580000
1aaaac
1aaaad
0aaaaf

#2585000
b1 aaaaa
1aaaaf

#2590000
0aaaaf

#2595000
b10 aaaaa
0aaaab
0aaaad
1aaaaf

#2600000
0aaaac
0aaaaf

#2605000
b0 aaaaa
1aaaab
1aaaaf

#2610000
1aaaac
1aaaad
0aaaaf

#2615000
b1 aaaaa
1aaaaf

#2620000
0aaaaf

#2625000
b10 aaaaa
0aaaab
0aaaad
1aaaaf

#2630000
0aaaac
0aaaaf

#2635000
b0 aaaaa
1aaaab
1aaaaf

#2640000
1aaaac
1aaaad
0aaaaf

#2645000
b1 aaaaa
1aaaaf

#2650000
0aaaaf

#2655000
b10 aaaaa
0aaaab
0aaaad
1aaaaf

#2660000
0aaaac
0aaaaf

#2665000
b0 aaaaa
1aaaab
1aaaaf

#2670000
1aaaac
1aaaad
0aaaaf

#2675000
b1 aaaaa
1aaaaf

#2680000
0aaaaf

#2685000
b10 aaaaa
0aaaab
0aaaad
1aaaaf

#2690000
0aaaac
0aaaaf

#2695000
b0 aaaaa
1aaaab
1aaaaf

#2700000
1aaaac
1aaaad
0aaaaf

#2705000
b1 aaaaa
1aaaaf

#2710000
0aaaaf

#2715000
b10 aaaaa
0aaaab
0aaaad
1aaaaf

#2720000
0aaaac
0aaaaf

#2725000
b0 aaaaa
1aaaab
1aaaaf

#2730000
1aaaac
1aaaad
0aaaaf

#2735000
b1 aaaaa
1aaaaf

#2740000
0aaaaf

#2745000
b10 aaaaa
0aaaab
0aaaad
1aaaaf

#2750000
0aaaac
0aaaaf

#2755000
b0 aaaaa
1aaaab
1aaaaf

#2760000
1aaaac
1aaaad
0aaaaf

#2765000
b1 aaaaa
1aaaaf

#2770000
0aaaaf

#2775000
b10 aaaaa
0aaaab
0aaaad
1aaaaf

#2780000
0aaaac
0aaaaf

#2785000
b0 aaaaa
1aaaab
1aaaaf

#2790000
1aaaac
1aaaad
0aaaaf

#2795000
b1 aaaaa
1aaaaf

#2800000
0aaaaf

#2805000
b10 aaaaa
0aaaab
0aaaad
1aaaaf

#2810000
0aaaac
0aaaaf

#2815000
b0 aaaaa
1aaaab
1aaaaf

#2820000
1aaaac
1aaaad
0aaaaf

#2825000
b1 aaaaa
1aaaaf

#2830000
0aaaaf

#2835000
b10 aaaaa
0aaaab
0aaaad
1aaaaf

#2840000
0aaaac
0aaaaf

#2845000
b0 aaaaa
1aaaab
1aaaaf

#2850000
1aaaac
1aaaad
0aaaaf

#2855000
b1 aaaaa
1aaaaf

#2860000
0aaaaf

#2865000
b10 aaaaa
0aaaab
0aaaad
1aaaaf

#2870000
0aaaac
0aaaaf

#2875000
b0 aaaaa
1aaaab
1aaaaf

#2880000
1aaaac
1aaaad
0aaaaf

#2885000
b1 aaaaa
1aaaaf

#2890000
0aaaaf

#2895000
b10 aaaaa
0aaaab
0aaaad
1aaaaf

#2900000
0aaaac
0aaaaf

#2905000
b0 aaaaa
1aaaab
1aaaaf

#2910000
1aaaac
1aaaad
0aaaaf

#2915000
b1 aaaaa
1aaaaf

#2920000
0aaaaf

#2925000
b10 aaaaa
0aaaab
0aaaad
1aaaaf

#2930000
0aaaac
0aaaaf

#2935000
b0 aaaaa
1aaaab
1aaaaf

#2940000
1aaaac
1aaaad
0aaaaf

#2945000
b1 aaaaa
1aaaaf

#2950000
0aaaaf

#2955000
b10 aaaaa
0aaaab
0aaaad
1aaaaf

#2960000
0aaaac
0aaaaf

#2965000
b0 aaaaa
1aaaab
1aaaaf

#2970000
1aaaac
1aaaad
0aaaaf

#2975000
b1 aaaaa
1aaaaf

#2980000
0aaaaf

#2985000
b10 aaaaa
0aaaab
0aaaad
1aaaaf

#2990000
0aaaac
0aaaaf

#2995000
b0 aaaaa
1aaaab
1aaaaf

#3000000
1aaaac
1aaaad
0aaaaf

#3005000
b1 aaaaa
1aaaaf

#3010000
0aaaaf

#3015000
b10 aaaaa
0aaaab
0aaaad
1aaaaf

#3020000
0aaaac
0aaaaf

#3025000
b0 aaaaa
1aaaab
1aaaaf

#3030000
1aaaac
1aaaad
0aaaaf

#3035000
b1 aaaaa
1aaaaf

#3040000
0aaaaf

#3045000
b10 aaaaa
0aaaab
0aaaad
1aaaaf

#3050000
0aaaac
0aaaaf

#3055000
b0 aaaaa
1aaaab
1aaaaf

#3060000
1aaaac
1aaaad
0aaaaf

#3065000
b1 aaaaa
1aaaaf

#3070000
0aaaaf

#3075000
b10 aaaaa
0aaaab
0aaaad
1aaaaf

#3080000
0aaaac
0aaaaf

#3085000
b0 aaaaa
1aaaab
1aaaaf

#3090000
1aaaac
1aaaad
0aaaaf

#3095000
b1 aaaaa
1aaaaf

#3100000
0aaaaf

#3105000
b10 aaaaa
0aaaab
0aaaad
1aaaaf

#3110000
0aaaac
0aaaaf

#3115000
b0 aaaaa
1aaaab
1aaaaf

#3120000
1aaaac
1aaaad
0aaaaf

#3125000
b1 aaaaa
1aaaaf

#3130000
0aaaaf

#3135000
b10 aaaaa
0aaaab
0aaaad
1aaaaf

#3140000
0aaaac
0aaaaf

#3145000
b0 aaaaa
1aaaab
1aaaaf

#3150000
1aaaac
1aaaad
0aaaaf

#3155000
b1 aaaaa
1aaaaf

#3160000
0aaaaf

#3165000
b10 aaaaa
0aaaab
0aaaad
1aaaaf

#3170000
0aaaac
0aaaaf

#3175000
b0 aaaaa
1aaaab
1aaaaf

#3180000
1aaaac
1aaaad
0aaaaf

#3185000
b1 aaaaa
1aaaaf

#3190000
0aaaaf

#3195000
b10 aaaaa
0aaaab
0aaaad
1aaaaf

#3200000
0aaaac
0aaaaf

#3205000
b0 aaaaa
1aaaab
1aaaaf

#3210000
1aaaac
1aaaad
0aaaaf

#3215000
b1 aaaaa
1aaaaf

#3220000
0aaaaf

#3225000
b10 aaaaa
0aaaab
0aaaad
1aaaaf

#3230000
0aaaac
0aaaaf

#3235000
b0 aaaaa
1aaaab
1aaaaf

#3240000
1aaaac
1aaaad
0aaaaf

#3245000
b1 aaaaa
1aaaaf

#3250000
0aaaaf

#3255000
b10 aaaaa
0aaaab
0aaaad
1aaaaf

#3260000
0aaaac
0aaaaf

#3265000
b0 aaaaa
1aaaab
1aaaaf

#3270000
1aaaac
1aaaad
0aaaaf

#3275000
b1 aaaaa
1aaaaf

#3280000
0aaaaf

#3285000
b10 aaaaa
0aaaab
0aaaad
1aaaaf

#3290000
0aaaac
0aaaaf

#3295000
b0 aaaaa
1aaaab
1aaaaf

#3300000
1aaaac
1aaaad
0aaaaf

#3305000
b1 aaaaa
1aaaaf

#3310000
0aaaaf

