full.vcd
$date
     Mar 21, 2022       21:16:32
$end

$version
 SystemC 2.3.3-Accellera --- Mar 15 2022 17:17:50
$end

$timescale
     1 ps
$end

$scope module SystemC $end
$var wire    1  aaaaa  a       $end
$var wire    1  aaaab  b       $end
$var wire    1  aaaac  ci       $end
$var wire    1  aaaad  co       $end
$var wire    1  aaaae  s       $end
$upscope $end
$enddefinitions  $end

$comment
All initial values are dumped below at time 0 sec = 0 timescale units.
$end

$dumpvars
0aaaaa
0aaaab
0aaaac
0aaaad
0aaaae
$end

#10000
1aaaab

#20000
1aaaaa
0aaaab
1aaaae

#30000
1aaaab
1aaaad
0aaaae

#40000
0aaaaa
0aaaab
1aaaac
0aaaad
1aaaae

#50000
1aaaab
1aaaad

#60000
1aaaaa
0aaaab
0aaaae

#70000
1aaaab
1aaaae

#80000
0aaaaa
0aaaab
0aaaac
0aaaad
0aaaae

#90000
1aaaab

#100000
1aaaaa
0aaaab
1aaaae

#110000
1aaaab
1aaaad
0aaaae

#120000
0aaaaa
0aaaab
1aaaac
0aaaad
1aaaae

#130000
1aaaab
1aaaad

#140000
1aaaaa
0aaaab
0aaaae

#150000
1aaaab
1aaaae

#160000
0aaaaa
0aaaab
0aaaac
0aaaad
0aaaae

#170000
1aaaab

#180000
1aaaaa
0aaaab
1aaaae

#190000
1aaaab
1aaaad
0aaaae

#200000
0aaaaa
0aaaab
1aaaac
0aaaad
1aaaae

#210000
1aaaab
1aaaad

#220000
1aaaaa
0aaaab
0aaaae

#230000
1aaaab
1aaaae

#240000
0aaaaa
0aaaab
0aaaac
0aaaad
0aaaae

#250000
1aaaab

#260000
1aaaaa
0aaaab
1aaaae

#270000
1aaaab
1aaaad
0aaaae

#280000
0aaaaa
0aaaab
1aaaac
0aaaad
1aaaae

#290000
1aaaab
1aaaad

#300000
1aaaaa
0aaaab
0aaaae

#310000
1aaaab
1aaaae

#320000
0aaaaa
0aaaab
0aaaac
0aaaad
0aaaae

#330000
1aaaab

#340000
1aaaaa
0aaaab
1aaaae

#350000
1aaaab
1aaaad
0aaaae

#360000
0aaaaa
0aaaab
1aaaac
0aaaad
1aaaae

#370000
1aaaab
1aaaad

#380000
1aaaaa
0aaaab
0aaaae

#390000
1aaaab
1aaaae

#400000
0aaaaa
0aaaab
0aaaac
0aaaad
0aaaae

#410000
1aaaab

#420000
1aaaaa
0aaaab
1aaaae

#430000
1aaaab
1aaaad
0aaaae

#440000
0aaaaa
0aaaab
1aaaac
0aaaad
1aaaae

#450000
1aaaab
1aaaad

#460000
1aaaaa
0aaaab
0aaaae

#470000
1aaaab
1aaaae

#480000
0aaaaa
0aaaab
0aaaac
0aaaad
0aaaae

#490000
1aaaab

#500000
1aaaaa
0aaaab
1aaaae

#510000
1aaaab
1aaaad
0aaaae

#520000
0aaaaa
0aaaab
1aaaac
0aaaad
1aaaae

#530000
1aaaab
1aaaad

#540000
1aaaaa
0aaaab
0aaaae

#550000
1aaaab
1aaaae

#560000
0aaaaa
0aaaab
0aaaac
0aaaad
0aaaae

#570000
1aaaab

#580000
1aaaaa
0aaaab
1aaaae

#590000
1aaaab
1aaaad
0aaaae

#600000
0aaaaa
0aaaab
1aaaac
0aaaad
1aaaae

#610000
1aaaab
1aaaad

#620000
1aaaaa
0aaaab
0aaaae

#630000
1aaaab
1aaaae

#640000
0aaaaa
0aaaab
0aaaac
0aaaad
0aaaae

#650000
1aaaab

#660000
1aaaaa
0aaaab
1aaaae

#670000
1aaaab
1aaaad
0aaaae

#680000
0aaaaa
0aaaab
1aaaac
0aaaad
1aaaae

#690000
1aaaab
1aaaad

#700000
1aaaaa
0aaaab
0aaaae

#710000
1aaaab
1aaaae

#720000
0aaaaa
0aaaab
0aaaac
0aaaad
0aaaae

#730000
1aaaab

#740000
1aaaaa
0aaaab
1aaaae

#750000
1aaaab
1aaaad
0aaaae

#760000
0aaaaa
0aaaab
1aaaac
0aaaad
1aaaae

#770000
1aaaab
1aaaad

#780000
1aaaaa
0aaaab
0aaaae

#790000
1aaaab
1aaaae

#800000
0aaaaa
0aaaab
0aaaac
0aaaad
0aaaae

#810000
1aaaab

#820000
1aaaaa
0aaaab
1aaaae

#830000
1aaaab
1aaaad
0aaaae

#840000
0aaaaa
0aaaab
1aaaac
0aaaad
1aaaae

#850000
1aaaab
1aaaad

#860000
1aaaaa
0aaaab
0aaaae

#870000
1aaaab
1aaaae

#880000
0aaaaa
0aaaab
0aaaac
0aaaad
0aaaae

#890000
1aaaab

#900000
1aaaaa
0aaaab
1aaaae

#910000
1aaaab
1aaaad
0aaaae

#920000
0aaaaa
0aaaab
1aaaac
0aaaad
1aaaae

#930000
1aaaab
1aaaad

#940000
1aaaaa
0aaaab
0aaaae

#950000
1aaaab
1aaaae

#960000
0aaaaa
0aaaab
0aaaac
0aaaad
0aaaae

#970000
1aaaab

#980000
1aaaaa
0aaaab
1aaaae

#990000
1aaaab
1aaaad
0aaaae

#1000000
0aaaaa
0aaaab
1aaaac
0aaaad
1aaaae

#1010000
1aaaab
1aaaad

#1020000
1aaaaa
0aaaab
0aaaae

#1030000
1aaaab
1aaaae

#1040000
0aaaaa
0aaaab
0aaaac
0aaaad
0aaaae

#1050000
1aaaab

#1060000
1aaaaa
0aaaab
1aaaae

#1070000
1aaaab
1aaaad
0aaaae

#1080000
0aaaaa
0aaaab
1aaaac
0aaaad
1aaaae

#1090000
1aaaab
1aaaad

#1100000
1aaaaa
0aaaab
0aaaae

#1110000
1aaaab
1aaaae

#1120000
0aaaaa
0aaaab
0aaaac
0aaaad
0aaaae

#1130000
1aaaab

#1140000
1aaaaa
0aaaab
1aaaae

#1150000
1aaaab
1aaaad
0aaaae

#1160000
0aaaaa
0aaaab
1aaaac
0aaaad
1aaaae

#1170000
1aaaab
1aaaad

#1180000
1aaaaa
0aaaab
0aaaae

#1190000
1aaaab
1aaaae

#1200000
0aaaaa
0aaaab
0aaaac
0aaaad
0aaaae

#1210000
1aaaab

#1220000
1aaaaa
0aaaab
1aaaae

#1230000
1aaaab
1aaaad
0aaaae

#1240000
0aaaaa
0aaaab
1aaaac
0aaaad
1aaaae

#1250000
1aaaab
1aaaad

#1260000
1aaaaa
0aaaab
0aaaae

#1270000
1aaaab
1aaaae

#1280000
0aaaaa
0aaaab
0aaaac
0aaaad
0aaaae

#1290000
1aaaab

#1300000
1aaaaa
0aaaab
1aaaae

#1310000
1aaaab
1aaaad
0aaaae

#1320000
0aaaaa
0aaaab
1aaaac
0aaaad
1aaaae

#1330000
1aaaab
1aaaad

#1340000
1aaaaa
0aaaab
0aaaae

#1350000
1aaaab
1aaaae

#1360000
0aaaaa
0aaaab
0aaaac
0aaaad
0aaaae

#1370000
1aaaab

#1380000
1aaaaa
0aaaab
1aaaae

#1390000
1aaaab
1aaaad
0aaaae

#1400000
0aaaaa
0aaaab
1aaaac
0aaaad
1aaaae

#1410000
1aaaab
1aaaad

#1420000
1aaaaa
0aaaab
0aaaae

#1430000
1aaaab
1aaaae

#1440000
0aaaaa
0aaaab
0aaaac
0aaaad
0aaaae

#1450000
1aaaab

#1460000
1aaaaa
0aaaab
1aaaae

#1470000
1aaaab
1aaaad
0aaaae

#1480000
0aaaaa
0aaaab
1aaaac
0aaaad
1aaaae

#1490000
1aaaab
1aaaad

#1500000
1aaaaa
0aaaab
0aaaae

#1510000
1aaaab
1aaaae

#1520000
0aaaaa
0aaaab
0aaaac
0aaaad
0aaaae

#1530000
1aaaab

#1540000
1aaaaa
0aaaab
1aaaae

#1550000
1aaaab
1aaaad
0aaaae

#1560000
0aaaaa
0aaaab
1aaaac
0aaaad
1aaaae

#1570000
1aaaab
1aaaad

#1580000
1aaaaa
0aaaab
0aaaae

#1590000
1aaaab
1aaaae

#1600000
0aaaaa
0aaaab
0aaaac
0aaaad
0aaaae

#1610000
1aaaab

#1620000
1aaaaa
0aaaab
1aaaae

#1630000
1aaaab
1aaaad
0aaaae

#1640000
0aaaaa
0aaaab
1aaaac
0aaaad
1aaaae

#1650000
1aaaab
1aaaad

#1660000
1aaaaa
0aaaab
0aaaae

#1670000
1aaaab
1aaaae

#1680000
0aaaaa
0aaaab
0aaaac
0aaaad
0aaaae

#1690000
1aaaab

#1700000
1aaaaa
0aaaab
1aaaae

#1710000
1aaaab
1aaaad
0aaaae

#1720000
0aaaaa
0aaaab
1aaaac
0aaaad
1aaaae

#1730000
1aaaab
1aaaad

#1740000
1aaaaa
0aaaab
0aaaae

#1750000
1aaaab
1aaaae

#1760000
0aaaaa
0aaaab
0aaaac
0aaaad
0aaaae

#1770000
1aaaab

#1780000
1aaaaa
0aaaab
1aaaae

#1790000
1aaaab
1aaaad
0aaaae

#1800000
0aaaaa
0aaaab
1aaaac
0aaaad
1aaaae

#1810000
1aaaab
1aaaad

#1820000
1aaaaa
0aaaab
0aaaae

#1830000
1aaaab
1aaaae

#1840000
0aaaaa
0aaaab
0aaaac
0aaaad
0aaaae

#1850000
1aaaab

#1860000
1aaaaa
0aaaab
1aaaae

#1870000
1aaaab
1aaaad
0aaaae

#1880000
0aaaaa
0aaaab
1aaaac
0aaaad
1aaaae

#1890000
1aaaab
1aaaad

#1900000
1aaaaa
0aaaab
0aaaae

#1910000
1aaaab
1aaaae

#1920000
0aaaaa
0aaaab
0aaaac
0aaaad
0aaaae

#1930000
1aaaab

#1940000
1aaaaa
0aaaab
1aaaae

#1950000
1aaaab
1aaaad
0aaaae

#1960000
0aaaaa
0aaaab
1aaaac
0aaaad
1aaaae

#1970000
1aaaab
1aaaad

#1980000
1aaaaa
0aaaab
0aaaae

#1990000
1aaaab
1aaaae

#2000000
0aaaaa
0aaaab
0aaaac
0aaaad
0aaaae

#2010000
1aaaab

#2020000
1aaaaa
0aaaab
1aaaae

#2030000
1aaaab
1aaaad
0aaaae

#2040000
0aaaaa
0aaaab
1aaaac
0aaaad
1aaaae

#2050000
1aaaab
1aaaad

#2060000
1aaaaa
0aaaab
0aaaae

#2070000
1aaaab
1aaaae

#2080000
0aaaaa
0aaaab
0aaaac
0aaaad
0aaaae

#2090000
1aaaab

#2100000
1aaaaa
0aaaab
1aaaae

#2110000
1aaaab
1aaaad
0aaaae

#2120000
0aaaaa
0aaaab
1aaaac
0aaaad
1aaaae

#2130000
1aaaab
1aaaad

#2140000
1aaaaa
0aaaab
0aaaae

#2150000
1aaaab
1aaaae

#2160000
0aaaaa
0aaaab
0aaaac
0aaaad
0aaaae

#2170000
1aaaab

#2180000
1aaaaa
0aaaab
1aaaae

#2190000
1aaaab
1aaaad
0aaaae

#2200000
0aaaaa
0aaaab
1aaaac
0aaaad
1aaaae

#2210000
1aaaab
1aaaad

#2220000
1aaaaa
0aaaab
0aaaae

#2230000
1aaaab
1aaaae

#2240000
0aaaaa
0aaaab
0aaaac
0aaaad
0aaaae

#2250000
1aaaab

#2260000
1aaaaa
0aaaab
1aaaae

#2270000
1aaaab
1aaaad
0aaaae

#2280000
0aaaaa
0aaaab
1aaaac
0aaaad
1aaaae

#2290000
1aaaab
1aaaad

#2300000
1aaaaa
0aaaab
0aaaae

#2310000
1aaaab
1aaaae

#2320000
0aaaaa
0aaaab
0aaaac
0aaaad
0aaaae

#2330000
1aaaab

#2340000
1aaaaa
0aaaab
1aaaae

#2350000
1aaaab
1aaaad
0aaaae

#2360000
0aaaaa
0aaaab
1aaaac
0aaaad
1aaaae

#2370000
1aaaab
1aaaad

#2380000
1aaaaa
0aaaab
0aaaae

#2390000
1aaaab
1aaaae

#2400000
0aaaaa
0aaaab
0aaaac
0aaaad
0aaaae

#2410000
1aaaab

#2420000
1aaaaa
0aaaab
1aaaae

#2430000
1aaaab
1aaaad
0aaaae

#2440000
0aaaaa
0aaaab
1aaaac
0aaaad
1aaaae

#2450000
1aaaab
1aaaad

#2460000
1aaaaa
0aaaab
0aaaae

#2470000
1aaaab
1aaaae

#2480000
0aaaaa
0aaaab
0aaaac
0aaaad
0aaaae

#2490000
1aaaab

#2500000
1aaaaa
0aaaab
1aaaae

#2510000
1aaaab
1aaaad
0aaaae

#2520000
0aaaaa
0aaaab
1aaaac
0aaaad
1aaaae

#2530000
1aaaab
1aaaad

#2540000
1aaaaa
0aaaab
0aaaae

#2550000
1aaaab
1aaaae

#2560000
0aaaaa
0aaaab
0aaaac
0aaaad
0aaaae

#2570000
1aaaab

#2580000
1aaaaa
0aaaab
1aaaae

#2590000
1aaaab
1aaaad
0aaaae

#2600000
0aaaaa
0aaaab
1aaaac
0aaaad
1aaaae

#2610000
1aaaab
1aaaad

#2620000
1aaaaa
0aaaab
0aaaae

#2630000
1aaaab
1aaaae

#2640000
0aaaaa
0aaaab
0aaaac
0aaaad
0aaaae

#2650000
1aaaab

#2660000
1aaaaa
0aaaab
1aaaae

#2670000
1aaaab
1aaaad
0aaaae

#2680000
0aaaaa
0aaaab
1aaaac
0aaaad
1aaaae

#2690000
1aaaab
1aaaad

#2700000
1aaaaa
0aaaab
0aaaae

#2710000
1aaaab
1aaaae

#2720000
0aaaaa
0aaaab
0aaaac
0aaaad
0aaaae

#2730000
1aaaab

#2740000
1aaaaa
0aaaab
1aaaae

#2750000
1aaaab
1aaaad
0aaaae

#2760000
0aaaaa
0aaaab
1aaaac
0aaaad
1aaaae

#2770000
1aaaab
1aaaad

#2780000
1aaaaa
0aaaab
0aaaae

#2790000
1aaaab
1aaaae

#2800000
0aaaaa
0aaaab
0aaaac
0aaaad
0aaaae

#2810000
1aaaab

#2820000
1aaaaa
0aaaab
1aaaae

#2830000
1aaaab
1aaaad
0aaaae

#2840000
0aaaaa
0aaaab
1aaaac
0aaaad
1aaaae

#2850000
1aaaab
1aaaad

#2860000
1aaaaa
0aaaab
0aaaae

#2870000
1aaaab
1aaaae

#2880000
0aaaaa
0aaaab
0aaaac
0aaaad
0aaaae

#2890000
1aaaab

#2900000
1aaaaa
0aaaab
1aaaae

#2910000
1aaaab
1aaaad
0aaaae

#2920000
0aaaaa
0aaaab
1aaaac
0aaaad
1aaaae

#2930000
1aaaab
1aaaad

#2940000
1aaaaa
0aaaab
0aaaae

#2950000
1aaaab
1aaaae

#2960000
0aaaaa
0aaaab
0aaaac
0aaaad
0aaaae

#2970000
1aaaab

#2980000
1aaaaa
0aaaab
1aaaae

#2990000
1aaaab
1aaaad
0aaaae

#3000000
0aaaaa
0aaaab
1aaaac
0aaaad
1aaaae

#3010000
1aaaab
1aaaad

#3020000
1aaaaa
0aaaab
0aaaae

#3030000
1aaaab
1aaaae

#3040000
0aaaaa
0aaaab
0aaaac
0aaaad
0aaaae

#3050000
1aaaab

#3060000
1aaaaa
0aaaab
1aaaae

#3070000
1aaaab
1aaaad
0aaaae

#3080000
0aaaaa
0aaaab
1aaaac
0aaaad
1aaaae

#3090000
1aaaab
1aaaad

#3100000
1aaaaa
0aaaab
0aaaae

#3110000
1aaaab
1aaaae

#3120000
0aaaaa
0aaaab
0aaaac
0aaaad
0aaaae

#3130000
1aaaab

#3140000
1aaaaa
0aaaab
1aaaae

#3150000
1aaaab
1aaaad
0aaaae

#3160000
0aaaaa
0aaaab
1aaaac
0aaaad
1aaaae

#3170000
1aaaab
1aaaad

#3180000
1aaaaa
0aaaab
0aaaae

#3190000
1aaaab
1aaaae

#3200000
0aaaaa
0aaaab
0aaaac
0aaaad
0aaaae

#3210000
1aaaab

#3220000
1aaaaa
0aaaab
1aaaae

#3230000
1aaaab
1aaaad
0aaaae

#3240000
0aaaaa
0aaaab
1aaaac
0aaaad
1aaaae

#3250000
1aaaab
1aaaad

#3260000
1aaaaa
0aaaab
0aaaae

#3270000
1aaaab
1aaaae

#3280000
0aaaaa
0aaaab
0aaaac
0aaaad
0aaaae

#3290000
1aaaab

#3300000
1aaaaa
0aaaab
1aaaae

#3310000
1aaaab
1aaaad
0aaaae

#3320000
0aaaaa
0aaaab
1aaaac
0aaaad
1aaaae

#3330000
1aaaab
1aaaad

#3340000
1aaaaa
0aaaab
0aaaae

#3350000
1aaaab
1aaaae

#3360000
0aaaaa
0aaaab
0aaaac
0aaaad
0aaaae

#3370000
1aaaab

#3380000
1aaaaa
0aaaab
1aaaae

#3390000
1aaaab
1aaaad
0aaaae

#3400000
0aaaaa
0aaaab
1aaaac
0aaaad
1aaaae

#3410000
1aaaab
1aaaad

#3420000
1aaaaa
0aaaab
0aaaae

#3430000
1aaaab
1aaaae

#3440000
0aaaaa
0aaaab
0aaaac
0aaaad
0aaaae

#3450000
1aaaab

#3460000
1aaaaa
0aaaab
1aaaae

#3470000
1aaaab
1aaaad
0aaaae

#3480000
0aaaaa
0aaaab
1aaaac
0aaaad
1aaaae

#3490000
1aaaab
1aaaad

#3500000
1aaaaa
0aaaab
0aaaae

#3510000
1aaaab
1aaaae

#3520000
0aaaaa
0aaaab
0aaaac
0aaaad
0aaaae

#3530000
1aaaab

#3540000
1aaaaa
0aaaab
1aaaae

#3550000
1aaaab
1aaaad
0aaaae

#3560000
0aaaaa
0aaaab
1aaaac
0aaaad
1aaaae

#3570000
1aaaab
1aaaad

#3580000
1aaaaa
0aaaab
0aaaae

#3590000
1aaaab
1aaaae

#3600000
0aaaaa
0aaaab
0aaaac
0aaaad
0aaaae

#3610000
1aaaab

#3620000
1aaaaa
0aaaab
1aaaae

#3630000
1aaaab
1aaaad
0aaaae

#3640000
0aaaaa
0aaaab
1aaaac
0aaaad
1aaaae

#3650000
1aaaab
1aaaad

#3660000
1aaaaa
0aaaab
0aaaae

#3670000
1aaaab
1aaaae

#3680000
0aaaaa
0aaaab
0aaaac
0aaaad
0aaaae

#3690000
1aaaab

#3700000
1aaaaa
0aaaab
1aaaae

#3710000
1aaaab
1aaaad
0aaaae

#3720000
0aaaaa
0aaaab
1aaaac
0aaaad
1aaaae

#3730000
1aaaab
1aaaad

#3740000
1aaaaa
0aaaab
0aaaae

#3750000
1aaaab
1aaaae

#3760000
0aaaaa
0aaaab
0aaaac
0aaaad
0aaaae

#3770000
1aaaab

#3780000
1aaaaa
0aaaab
1aaaae

#3790000
1aaaab
1aaaad
0aaaae

#3800000
0aaaaa
0aaaab
1aaaac
0aaaad
1aaaae

#3810000
1aaaab
1aaaad

#3820000
1aaaaa
0aaaab
0aaaae

#3830000
1aaaab
1aaaae

#3840000
0aaaaa
0aaaab
0aaaac
0aaaad
0aaaae

#3850000
1aaaab

#3860000
1aaaaa
0aaaab
1aaaae

#3870000
1aaaab
1aaaad
0aaaae

#3880000
0aaaaa
0aaaab
1aaaac
0aaaad
1aaaae

#3890000
1aaaab
1aaaad

#3900000
1aaaaa
0aaaab
0aaaae

#3910000
1aaaab
1aaaae

#3920000
0aaaaa
0aaaab
0aaaac
0aaaad
0aaaae

#3930000
1aaaab

#3940000
1aaaaa
0aaaab
1aaaae

#3950000
1aaaab
1aaaad
0aaaae

#3960000
0aaaaa
0aaaab
1aaaac
0aaaad
1aaaae

#3970000
1aaaab
1aaaad

#3980000
1aaaaa
0aaaab
0aaaae

#3990000
1aaaab
1aaaae

#4000000
0aaaaa
0aaaab
0aaaac
0aaaad
0aaaae

#4010000
1aaaab

#4020000
1aaaaa
0aaaab
1aaaae

#4030000
1aaaab
1aaaad
0aaaae

#4040000
0aaaaa
0aaaab
1aaaac
0aaaad
1aaaae

#4050000
1aaaab
1aaaad

#4060000
1aaaaa
0aaaab
0aaaae

#4070000
1aaaab
1aaaae

#4080000
0aaaaa
0aaaab
0aaaac
0aaaad
0aaaae

#4090000
1aaaab

#4100000
1aaaaa
0aaaab
1aaaae

#4110000
1aaaab
1aaaad
0aaaae

#4120000
0aaaaa
0aaaab
1aaaac
0aaaad
1aaaae

#4130000
1aaaab
1aaaad

#4140000
1aaaaa
0aaaab
0aaaae

#4150000
1aaaab
1aaaae

#4160000
0aaaaa
0aaaab
0aaaac
0aaaad
0aaaae

#4170000
1aaaab

#4180000
1aaaaa
0aaaab
1aaaae

#4190000
1aaaab
1aaaad
0aaaae

#4200000
0aaaaa
0aaaab
1aaaac
0aaaad
1aaaae

#4210000
1aaaab
1aaaad

#4220000
1aaaaa
0aaaab
0aaaae

#4230000
1aaaab
1aaaae

#4240000
0aaaaa
0aaaab
0aaaac
0aaaad
0aaaae

#4250000
1aaaab

#4260000
1aaaaa
0aaaab
1aaaae

#4270000
1aaaab
1aaaad
0aaaae

#4280000
0aaaaa
0aaaab
1aaaac
0aaaad
1aaaae

#4290000
1aaaab
1aaaad

#4300000
1aaaaa
0aaaab
0aaaae

#4310000
1aaaab
1aaaae

#4320000
0aaaaa
0aaaab
0aaaac
0aaaad
0aaaae

#4330000
1aaaab

#4340000
1aaaaa
0aaaab
1aaaae

#4350000
1aaaab
1aaaad
0aaaae

#4360000
0aaaaa
0aaaab
1aaaac
0aaaad
1aaaae

#4370000
1aaaab
1aaaad

#4380000
1aaaaa
0aaaab
0aaaae

#4390000
1aaaab
1aaaae

#4400000
0aaaaa
0aaaab
0aaaac
0aaaad
0aaaae

#4410000
1aaaab

#4420000
1aaaaa
0aaaab
1aaaae

#4430000
1aaaab
1aaaad
0aaaae

#4440000
0aaaaa
0aaaab
1aaaac
0aaaad
1aaaae

#4450000
1aaaab
1aaaad

#4460000
1aaaaa
0aaaab
0aaaae

#4470000
1aaaab
1aaaae

#4480000
0aaaaa
0aaaab
0aaaac
0aaaad
0aaaae

#4490000
1aaaab

#4500000
1aaaaa
0aaaab
1aaaae

#4510000
1aaaab
1aaaad
0aaaae

#4520000
0aaaaa
0aaaab
1aaaac
0aaaad
1aaaae

#4530000
1aaaab
1aaaad

#4540000
1aaaaa
0aaaab
0aaaae

#4550000
1aaaab
1aaaae

#4560000
0aaaaa
0aaaab
0aaaac
0aaaad
0aaaae

#4570000
1aaaab

#4580000
1aaaaa
0aaaab
1aaaae

#4590000
1aaaab
1aaaad
0aaaae

#4600000
0aaaaa
0aaaab
1aaaac
0aaaad
1aaaae

#4610000
1aaaab
1aaaad

#4620000
1aaaaa
0aaaab
0aaaae

#4630000
1aaaab
1aaaae

#4640000
0aaaaa
0aaaab
0aaaac
0aaaad
0aaaae

#4650000
1aaaab

#4660000
1aaaaa
0aaaab
1aaaae

#4670000
1aaaab
1aaaad
0aaaae

#4680000
0aaaaa
0aaaab
1aaaac
0aaaad
1aaaae

#4690000
1aaaab
1aaaad

#4700000
1aaaaa
0aaaab
0aaaae

#4710000
1aaaab
1aaaae

#4720000
0aaaaa
0aaaab
0aaaac
0aaaad
0aaaae

#4730000
1aaaab

#4740000
1aaaaa
0aaaab
1aaaae

#4750000
1aaaab
1aaaad
0aaaae

#4760000
0aaaaa
0aaaab
1aaaac
0aaaad
1aaaae

#4770000
1aaaab
1aaaad

#4780000
1aaaaa
0aaaab
0aaaae

#4790000
1aaaab
1aaaae

#4800000
0aaaaa
0aaaab
0aaaac
0aaaad
0aaaae

#4810000
1aaaab

#4820000
1aaaaa
0aaaab
1aaaae

#4830000
1aaaab
1aaaad
0aaaae

#4840000
0aaaaa
0aaaab
1aaaac
0aaaad
1aaaae

#4850000
1aaaab
1aaaad

#4860000
1aaaaa
0aaaab
0aaaae

#4870000
1aaaab
1aaaae

#4880000
0aaaaa
0aaaab
0aaaac
0aaaad
0aaaae

#4890000
1aaaab

#4900000
1aaaaa
0aaaab
1aaaae

#4910000
1aaaab
1aaaad
0aaaae

#4920000
0aaaaa
0aaaab
1aaaac
0aaaad
1aaaae

#4930000
1aaaab
1aaaad

#4940000
1aaaaa
0aaaab
0aaaae

#4950000
1aaaab
1aaaae

#4960000
0aaaaa
0aaaab
0aaaac
0aaaad
0aaaae

#4970000
1aaaab

#4980000
1aaaaa
0aaaab
1aaaae

#4990000
1aaaab
1aaaad
0aaaae

#5000000
0aaaaa
0aaaab
1aaaac
0aaaad
1aaaae

#5010000
1aaaab
1aaaad

#5020000
1aaaaa
0aaaab
0aaaae

#5030000
1aaaab
1aaaae

#5040000
0aaaaa
0aaaab
0aaaac
0aaaad
0aaaae

#5050000
1aaaab

#5060000
1aaaaa
0aaaab
1aaaae

#5070000
1aaaab
1aaaad
0aaaae

#5080000
0aaaaa
0aaaab
1aaaac
0aaaad
1aaaae

#5090000
1aaaab
1aaaad

#5100000
1aaaaa
0aaaab
0aaaae

#5110000
1aaaab
1aaaae

#5120000
0aaaaa
0aaaab
0aaaac
0aaaad
0aaaae

#5130000
1aaaab

#5140000
1aaaaa
0aaaab
1aaaae

#5150000
1aaaab
1aaaad
0aaaae

#5160000
0aaaaa
0aaaab
1aaaac
0aaaad
1aaaae

#5170000
1aaaab
1aaaad

#5180000
1aaaaa
0aaaab
0aaaae

#5190000
1aaaab
1aaaae

#5200000
0aaaaa
0aaaab
0aaaac
0aaaad
0aaaae

#5210000
1aaaab

#5220000
1aaaaa
0aaaab
1aaaae

#5230000
1aaaab
1aaaad
0aaaae

#5240000
0aaaaa
0aaaab
1aaaac
0aaaad
1aaaae

#5250000
1aaaab
1aaaad

#5260000
1aaaaa
0aaaab
0aaaae

#5270000
1aaaab
1aaaae

#5280000
0aaaaa
0aaaab
0aaaac
0aaaad
0aaaae

#5290000
1aaaab

#5300000
1aaaaa
0aaaab
1aaaae

#5310000
1aaaab
1aaaad
0aaaae

#5320000
0aaaaa
0aaaab
1aaaac
0aaaad
1aaaae

#5330000
1aaaab
1aaaad

#5340000
1aaaaa
0aaaab
0aaaae

#5350000
1aaaab
1aaaae

#5360000
0aaaaa
0aaaab
0aaaac
0aaaad
0aaaae

#5370000
1aaaab

#5380000
1aaaaa
0aaaab
1aaaae

#5390000
1aaaab
1aaaad
0aaaae

#5400000
0aaaaa
0aaaab
1aaaac
0aaaad
1aaaae

#5410000
1aaaab
1aaaad

#5420000
1aaaaa
0aaaab
0aaaae

#5430000
1aaaab
1aaaae

#5440000
0aaaaa
0aaaab
0aaaac
0aaaad
0aaaae

#5450000
1aaaab

#5460000
1aaaaa
0aaaab
1aaaae

#5470000
1aaaab
1aaaad
0aaaae

#5480000
0aaaaa
0aaaab
1aaaac
0aaaad
1aaaae

#5490000
1aaaab
1aaaad

#5500000
1aaaaa
0aaaab
0aaaae

#5510000
1aaaab
1aaaae

#5520000
0aaaaa
0aaaab
0aaaac
0aaaad
0aaaae

#5530000
1aaaab

#5540000
1aaaaa
0aaaab
1aaaae

#5550000
1aaaab
1aaaad
0aaaae

#5560000
0aaaaa
0aaaab
1aaaac
0aaaad
1aaaae

#5570000
1aaaab
1aaaad

#5580000
1aaaaa
0aaaab
0aaaae

#5590000
1aaaab
1aaaae

#5600000
0aaaaa
0aaaab
0aaaac
0aaaad
0aaaae

#5610000
1aaaab

#5620000
1aaaaa
0aaaab
1aaaae

#5630000
1aaaab
1aaaad
0aaaae

#5640000
0aaaaa
0aaaab
1aaaac
0aaaad
1aaaae

#5650000
1aaaab
1aaaad

#5660000
1aaaaa
0aaaab
0aaaae

#5670000
1aaaab
1aaaae

#5680000
0aaaaa
0aaaab
0aaaac
0aaaad
0aaaae

#5690000
1aaaab

#5700000
1aaaaa
0aaaab
1aaaae

#5710000
1aaaab
1aaaad
0aaaae

#5720000
0aaaaa
0aaaab
1aaaac
0aaaad
1aaaae

#5730000
1aaaab
1aaaad

#5740000
1aaaaa
0aaaab
0aaaae

#5750000
1aaaab
1aaaae

#5760000
0aaaaa
0aaaab
0aaaac
0aaaad
0aaaae

#5770000
1aaaab

#5780000
1aaaaa
0aaaab
1aaaae

#5790000
1aaaab
1aaaad
0aaaae

#5800000
0aaaaa
0aaaab
1aaaac
0aaaad
1aaaae

#5810000
1aaaab
1aaaad

#5820000
1aaaaa
0aaaab
0aaaae

#5830000
1aaaab
1aaaae

#5840000
0aaaaa
0aaaab
0aaaac
0aaaad
0aaaae

#5850000
1aaaab

#5860000
1aaaaa
0aaaab
1aaaae

#5870000
1aaaab
1aaaad
0aaaae

#5880000
0aaaaa
0aaaab
1aaaac
0aaaad
1aaaae

#5890000
1aaaab
1aaaad

#5900000
1aaaaa
0aaaab
0aaaae

#5910000
1aaaab
1aaaae

#5920000
0aaaaa
0aaaab
0aaaac
0aaaad
0aaaae

#5930000
1aaaab

#5940000
1aaaaa
0aaaab
1aaaae

#5950000
1aaaab
1aaaad
0aaaae

#5960000
0aaaaa
0aaaab
1aaaac
0aaaad
1aaaae

#5970000
1aaaab
1aaaad

#5980000
1aaaaa
0aaaab
0aaaae

#5990000
1aaaab
1aaaae

#6000000
0aaaaa
0aaaab
0aaaac
0aaaad
0aaaae

#6010000
1aaaab

#6020000
1aaaaa
0aaaab
1aaaae

#6030000
1aaaab
1aaaad
0aaaae

#6040000
0aaaaa
0aaaab
1aaaac
0aaaad
1aaaae

#6050000
1aaaab
1aaaad

#6060000
1aaaaa
0aaaab
0aaaae

#6070000
1aaaab
1aaaae

#6080000
0aaaaa
0aaaab
0aaaac
0aaaad
0aaaae

#6090000
1aaaab

#6100000
1aaaaa
0aaaab
1aaaae

#6110000
1aaaab
1aaaad
0aaaae

#6120000
0aaaaa
0aaaab
1aaaac
0aaaad
1aaaae

#6130000
1aaaab
1aaaad

#6140000
1aaaaa
0aaaab
0aaaae

#6150000
1aaaab
1aaaae

#6160000
0aaaaa
0aaaab
0aaaac
0aaaad
0aaaae

#6170000
1aaaab

#6180000
1aaaaa
0aaaab
1aaaae

#6190000
1aaaab
1aaaad
0aaaae

#6200000
0aaaaa
0aaaab
1aaaac
0aaaad
1aaaae

#6210000
1aaaab
1aaaad

#6220000
1aaaaa
0aaaab
0aaaae

#6230000
1aaaab
1aaaae

#6240000
0aaaaa
0aaaab
0aaaac
0aaaad
0aaaae

#6250000
1aaaab

#6260000
1aaaaa
0aaaab
1aaaae

#6270000
1aaaab
1aaaad
0aaaae

#6280000
0aaaaa
0aaaab
1aaaac
0aaaad
1aaaae

#6290000
1aaaab
1aaaad

#6300000
1aaaaa
0aaaab
0aaaae

#6310000
1aaaab
1aaaae

