half.vcd
$date
     Mar 21, 2022       16:21:10
$end

$version
 SystemC 2.3.3-Accellera --- Mar 15 2022 17:17:50
$end

$timescale
     1 ps
$end

$scope module SystemC $end
$var wire    1  aaaaa  a       $end
$var wire    1  aaaab  b       $end
$var wire    1  aaaac  co       $end
$var wire    1  aaaad  s       $end
$upscope $end
$enddefinitions  $end

$comment
All initial values are dumped below at time 0 sec = 0 timescale units.
$end

$dumpvars
1aaaaa
1aaaab
1aaaac
0aaaad
$end

#10000
0aaaab
0aaaac
1aaaad

#20000
0aaaaa
1aaaab

#30000
0aaaab
0aaaad

#40000
1aaaaa
1aaaab
1aaaac

#50000
0aaaab
0aaaac
1aaaad

#60000
0aaaaa
1aaaab

#70000
0aaaab
0aaaad

#80000
1aaaaa
1aaaab
1aaaac

#90000
0aaaab
0aaaac
1aaaad

#100000
0aaaaa
1aaaab

#110000
0aaaab
0aaaad

#120000
1aaaaa
1aaaab
1aaaac

#130000
0aaaab
0aaaac
1aaaad

#140000
0aaaaa
1aaaab

#150000
0aaaab
0aaaad

#160000
1aaaaa
1aaaab
1aaaac

#170000
0aaaab
0aaaac
1aaaad

#180000
0aaaaa
1aaaab

#190000
0aaaab
0aaaad

#200000
1aaaaa
1aaaab
1aaaac

#210000
0aaaab
0aaaac
1aaaad

#220000
0aaaaa
1aaaab

#230000
0aaaab
0aaaad

#240000
1aaaaa
1aaaab
1aaaac

#250000
0aaaab
0aaaac
1aaaad

#260000
0aaaaa
1aaaab

#270000
0aaaab
0aaaad

#280000
1aaaaa
1aaaab
1aaaac

#290000
0aaaab
0aaaac
1aaaad

#300000
0aaaaa
1aaaab

#310000
0aaaab
0aaaad

#320000
1aaaaa
1aaaab
1aaaac

#330000
0aaaab
0aaaac
1aaaad

#340000
0aaaaa
1aaaab

#350000
0aaaab
0aaaad

#360000
1aaaaa
1aaaab
1aaaac

#370000
0aaaab
0aaaac
1aaaad

#380000
0aaaaa
1aaaab

#390000
0aaaab
0aaaad

#400000
1aaaaa
1aaaab
1aaaac

#410000
0aaaab
0aaaac
1aaaad

#420000
0aaaaa
1aaaab

#430000
0aaaab
0aaaad

#440000
1aaaaa
1aaaab
1aaaac

#450000
0aaaab
0aaaac
1aaaad

#460000
0aaaaa
1aaaab

#470000
0aaaab
0aaaad

#480000
1aaaaa
1aaaab
1aaaac

#490000
0aaaab
0aaaac
1aaaad

#500000
0aaaaa
1aaaab

#510000
0aaaab
0aaaad

#520000
1aaaaa
1aaaab
1aaaac

#530000
0aaaab
0aaaac
1aaaad

#540000
0aaaaa
1aaaab

#550000
0aaaab
0aaaad

#560000
1aaaaa
1aaaab
1aaaac

#570000
0aaaab
0aaaac
1aaaad

#580000
0aaaaa
1aaaab

#590000
0aaaab
0aaaad

#600000
1aaaaa
1aaaab
1aaaac

#610000
0aaaab
0aaaac
1aaaad

#620000
0aaaaa
1aaaab

#630000
0aaaab
0aaaad

#640000
1aaaaa
1aaaab
1aaaac

#650000
0aaaab
0aaaac
1aaaad

#660000
0aaaaa
1aaaab

#670000
0aaaab
0aaaad

#680000
1aaaaa
1aaaab
1aaaac

#690000
0aaaab
0aaaac
1aaaad

#700000
0aaaaa
1aaaab

#710000
0aaaab
0aaaad

#720000
1aaaaa
1aaaab
1aaaac

#730000
0aaaab
0aaaac
1aaaad

#740000
0aaaaa
1aaaab

#750000
0aaaab
0aaaad

#760000
1aaaaa
1aaaab
1aaaac

#770000
0aaaab
0aaaac
1aaaad

#780000
0aaaaa
1aaaab

#790000
0aaaab
0aaaad

#800000
1aaaaa
1aaaab
1aaaac

#810000
0aaaab
0aaaac
1aaaad

#820000
0aaaaa
1aaaab

#830000
0aaaab
0aaaad

#840000
1aaaaa
1aaaab
1aaaac

#850000
0aaaab
0aaaac
1aaaad

#860000
0aaaaa
1aaaab

#870000
0aaaab
0aaaad

#880000
1aaaaa
1aaaab
1aaaac

#890000
0aaaab
0aaaac
1aaaad

#900000
0aaaaa
1aaaab

#910000
0aaaab
0aaaad

#920000
1aaaaa
1aaaab
1aaaac

#930000
0aaaab
0aaaac
1aaaad

#940000
0aaaaa
1aaaab

#950000
0aaaab
0aaaad

#960000
1aaaaa
1aaaab
1aaaac

#970000
0aaaab
0aaaac
1aaaad

#980000
0aaaaa
1aaaab

#990000
0aaaab
0aaaad

#1000000
1aaaaa
1aaaab
1aaaac

#1010000
0aaaab
0aaaac
1aaaad

#1020000
0aaaaa
1aaaab

#1030000
0aaaab
0aaaad

#1040000
1aaaaa
1aaaab
1aaaac

#1050000
0aaaab
0aaaac
1aaaad

#1060000
0aaaaa
1aaaab

#1070000
0aaaab
0aaaad

#1080000
1aaaaa
1aaaab
1aaaac

#1090000
0aaaab
0aaaac
1aaaad

#1100000
0aaaaa
1aaaab

#1110000
0aaaab
0aaaad

#1120000
1aaaaa
1aaaab
1aaaac

#1130000
0aaaab
0aaaac
1aaaad

#1140000
0aaaaa
1aaaab

#1150000
0aaaab
0aaaad

#1160000
1aaaaa
1aaaab
1aaaac

#1170000
0aaaab
0aaaac
1aaaad

#1180000
0aaaaa
1aaaab

#1190000
0aaaab
0aaaad

#1200000
1aaaaa
1aaaab
1aaaac

#1210000
0aaaab
0aaaac
1aaaad

#1220000
0aaaaa
1aaaab

#1230000
0aaaab
0aaaad

#1240000
1aaaaa
1aaaab
1aaaac

#1250000
0aaaab
0aaaac
1aaaad

#1260000
0aaaaa
1aaaab

#1270000
0aaaab
0aaaad

#1280000
1aaaaa
1aaaab
1aaaac

#1290000
0aaaab
0aaaac
1aaaad

#1300000
0aaaaa
1aaaab

#1310000
0aaaab
0aaaad

#1320000
1aaaaa
1aaaab
1aaaac

#1330000
0aaaab
0aaaac
1aaaad

#1340000
0aaaaa
1aaaab

#1350000
0aaaab
0aaaad

#1360000
1aaaaa
1aaaab
1aaaac

#1370000
0aaaab
0aaaac
1aaaad

#1380000
0aaaaa
1aaaab

#1390000
0aaaab
0aaaad

#1400000
1aaaaa
1aaaab
1aaaac

#1410000
0aaaab
0aaaac
1aaaad

#1420000
0aaaaa
1aaaab

#1430000
0aaaab
0aaaad

#1440000
1aaaaa
1aaaab
1aaaac

#1450000
0aaaab
0aaaac
1aaaad

#1460000
0aaaaa
1aaaab

#1470000
0aaaab
0aaaad

#1480000
1aaaaa
1aaaab
1aaaac

#1490000
0aaaab
0aaaac
1aaaad

#1500000
0aaaaa
1aaaab

#1510000
0aaaab
0aaaad

#1520000
1aaaaa
1aaaab
1aaaac

#1530000
0aaaab
0aaaac
1aaaad

#1540000
0aaaaa
1aaaab

#1550000
0aaaab
0aaaad

#1560000
1aaaaa
1aaaab
1aaaac

#1570000
0aaaab
0aaaac
1aaaad

#1580000
0aaaaa
1aaaab

#1590000
0aaaab
0aaaad

#1600000
1aaaaa
1aaaab
1aaaac

#1610000
0aaaab
0aaaac
1aaaad

#1620000
0aaaaa
1aaaab

#1630000
0aaaab
0aaaad

#1640000
1aaaaa
1aaaab
1aaaac

#1650000
0aaaab
0aaaac
1aaaad

#1660000
0aaaaa
1aaaab

#1670000
0aaaab
0aaaad

#1680000
1aaaaa
1aaaab
1aaaac

#1690000
0aaaab
0aaaac
1aaaad

#1700000
0aaaaa
1aaaab

#1710000
0aaaab
0aaaad

#1720000
1aaaaa
1aaaab
1aaaac

#1730000
0aaaab
0aaaac
1aaaad

#1740000
0aaaaa
1aaaab

#1750000
0aaaab
0aaaad

#1760000
1aaaaa
1aaaab
1aaaac

#1770000
0aaaab
0aaaac
1aaaad

#1780000
0aaaaa
1aaaab

#1790000
0aaaab
0aaaad

#1800000
1aaaaa
1aaaab
1aaaac

#1810000
0aaaab
0aaaac
1aaaad

#1820000
0aaaaa
1aaaab

#1830000
0aaaab
0aaaad

#1840000
1aaaaa
1aaaab
1aaaac

#1850000
0aaaab
0aaaac
1aaaad

#1860000
0aaaaa
1aaaab

#1870000
0aaaab
0aaaad

#1880000
1aaaaa
1aaaab
1aaaac

#1890000
0aaaab
0aaaac
1aaaad

#1900000
0aaaaa
1aaaab

#1910000
0aaaab
0aaaad

#1920000
1aaaaa
1aaaab
1aaaac

#1930000
0aaaab
0aaaac
1aaaad

#1940000
0aaaaa
1aaaab

#1950000
0aaaab
0aaaad

#1960000
1aaaaa
1aaaab
1aaaac

#1970000
0aaaab
0aaaac
1aaaad

#1980000
0aaaaa
1aaaab

#1990000
0aaaab
0aaaad

#2000000
1aaaaa
1aaaab
1aaaac

#2010000
0aaaab
0aaaac
1aaaad

#2020000
0aaaaa
1aaaab

#2030000
0aaaab
0aaaad

#2040000
1aaaaa
1aaaab
1aaaac

#2050000
0aaaab
0aaaac
1aaaad

#2060000
0aaaaa
1aaaab

#2070000
0aaaab
0aaaad

#2080000
1aaaaa
1aaaab
1aaaac

#2090000
0aaaab
0aaaac
1aaaad

#2100000
0aaaaa
1aaaab

#2110000
0aaaab
0aaaad

#2120000
1aaaaa
1aaaab
1aaaac

#2130000
0aaaab
0aaaac
1aaaad

#2140000
0aaaaa
1aaaab

#2150000
0aaaab
0aaaad

#2160000
1aaaaa
1aaaab
1aaaac

#2170000
0aaaab
0aaaac
1aaaad

#2180000
0aaaaa
1aaaab

#2190000
0aaaab
0aaaad

#2200000
1aaaaa
1aaaab
1aaaac

#2210000
0aaaab
0aaaac
1aaaad

#2220000
0aaaaa
1aaaab

#2230000
0aaaab
0aaaad

#2240000
1aaaaa
1aaaab
1aaaac

#2250000
0aaaab
0aaaac
1aaaad

#2260000
0aaaaa
1aaaab

#2270000
0aaaab
0aaaad

#2280000
1aaaaa
1aaaab
1aaaac

#2290000
0aaaab
0aaaac
1aaaad

#2300000
0aaaaa
1aaaab

#2310000
0aaaab
0aaaad

#2320000
1aaaaa
1aaaab
1aaaac

#2330000
0aaaab
0aaaac
1aaaad

#2340000
0aaaaa
1aaaab

#2350000
0aaaab
0aaaad

#2360000
1aaaaa
1aaaab
1aaaac

#2370000
0aaaab
0aaaac
1aaaad

#2380000
0aaaaa
1aaaab

#2390000
0aaaab
0aaaad

#2400000
1aaaaa
1aaaab
1aaaac

#2410000
0aaaab
0aaaac
1aaaad

#2420000
0aaaaa
1aaaab

#2430000
0aaaab
0aaaad

#2440000
1aaaaa
1aaaab
1aaaac

#2450000
0aaaab
0aaaac
1aaaad

#2460000
0aaaaa
1aaaab

#2470000
0aaaab
0aaaad

#2480000
1aaaaa
1aaaab
1aaaac

#2490000
0aaaab
0aaaac
1aaaad

#2500000
0aaaaa
1aaaab

#2510000
0aaaab
0aaaad

#2520000
1aaaaa
1aaaab
1aaaac

#2530000
0aaaab
0aaaac
1aaaad

#2540000
0aaaaa
1aaaab

#2550000
0aaaab
0aaaad

#2560000
1aaaaa
1aaaab
1aaaac

#2570000
0aaaab
0aaaac
1aaaad

#2580000
0aaaaa
1aaaab

#2590000
0aaaab
0aaaad

#2600000
1aaaaa
1aaaab
1aaaac

#2610000
0aaaab
0aaaac
1aaaad

#2620000
0aaaaa
1aaaab

#2630000
0aaaab
0aaaad

#2640000
1aaaaa
1aaaab
1aaaac

#2650000
0aaaab
0aaaac
1aaaad

#2660000
0aaaaa
1aaaab

#2670000
0aaaab
0aaaad

#2680000
1aaaaa
1aaaab
1aaaac

#2690000
0aaaab
0aaaac
1aaaad

#2700000
0aaaaa
1aaaab

#2710000
0aaaab
0aaaad

#2720000
1aaaaa
1aaaab
1aaaac

#2730000
0aaaab
0aaaac
1aaaad

#2740000
0aaaaa
1aaaab

#2750000
0aaaab
0aaaad

#2760000
1aaaaa
1aaaab
1aaaac

#2770000
0aaaab
0aaaac
1aaaad

#2780000
0aaaaa
1aaaab

#2790000
0aaaab
0aaaad

#2800000
1aaaaa
1aaaab
1aaaac

#2810000
0aaaab
0aaaac
1aaaad

#2820000
0aaaaa
1aaaab

#2830000
0aaaab
0aaaad

#2840000
1aaaaa
1aaaab
1aaaac

#2850000
0aaaab
0aaaac
1aaaad

#2860000
0aaaaa
1aaaab

#2870000
0aaaab
0aaaad

#2880000
1aaaaa
1aaaab
1aaaac

#2890000
0aaaab
0aaaac
1aaaad

#2900000
0aaaaa
1aaaab

#2910000
0aaaab
0aaaad

#2920000
1aaaaa
1aaaab
1aaaac

#2930000
0aaaab
0aaaac
1aaaad

#2940000
0aaaaa
1aaaab

#2950000
0aaaab
0aaaad

#2960000
1aaaaa
1aaaab
1aaaac

#2970000
0aaaab
0aaaac
1aaaad

#2980000
0aaaaa
1aaaab

#2990000
0aaaab
0aaaad

#3000000
1aaaaa
1aaaab
1aaaac

#3010000
0aaaab
0aaaac
1aaaad

#3020000
0aaaaa
1aaaab

#3030000
0aaaab
0aaaad

#3040000
1aaaaa
1aaaab
1aaaac

#3050000
0aaaab
0aaaac
1aaaad

#3060000
0aaaaa
1aaaab

#3070000
0aaaab
0aaaad

#3080000
1aaaaa
1aaaab
1aaaac

#3090000
0aaaab
0aaaac
1aaaad

#3100000
0aaaaa
1aaaab

#3110000
0aaaab
0aaaad

#3120000
1aaaaa
1aaaab
1aaaac

#3130000
0aaaab
0aaaac
1aaaad

#3140000
0aaaaa
1aaaab

#3150000
0aaaab
0aaaad

#3160000
1aaaaa
1aaaab
1aaaac

#3170000
0aaaab
0aaaac
1aaaad

#3180000
0aaaaa
1aaaab

#3190000
0aaaab
0aaaad

#3200000
1aaaaa
1aaaab
1aaaac

#3210000
0aaaab
0aaaac
1aaaad

#3220000
0aaaaa
1aaaab

#3230000
0aaaab
0aaaad

#3240000
1aaaaa
1aaaab
1aaaac

#3250000
0aaaab
0aaaac
1aaaad

#3260000
0aaaaa
1aaaab

#3270000
0aaaab
0aaaad

#3280000
1aaaaa
1aaaab
1aaaac

#3290000
0aaaab
0aaaac
1aaaad

#3300000
0aaaaa
1aaaab

#3310000
0aaaab
0aaaad

#3320000
1aaaaa
1aaaab
1aaaac

#3330000
0aaaab
0aaaac
1aaaad

#3340000
0aaaaa
1aaaab

#3350000
0aaaab
0aaaad

#3360000
1aaaaa
1aaaab
1aaaac

#3370000
0aaaab
0aaaac
1aaaad

#3380000
0aaaaa
1aaaab

#3390000
0aaaab
0aaaad

#3400000
1aaaaa
1aaaab
1aaaac

#3410000
0aaaab
0aaaac
1aaaad

#3420000
0aaaaa
1aaaab

#3430000
0aaaab
0aaaad

#3440000
1aaaaa
1aaaab
1aaaac

#3450000
0aaaab
0aaaac
1aaaad

#3460000
0aaaaa
1aaaab

#3470000
0aaaab
0aaaad

#3480000
1aaaaa
1aaaab
1aaaac

#3490000
0aaaab
0aaaac
1aaaad

#3500000
0aaaaa
1aaaab

#3510000
0aaaab
0aaaad

#3520000
1aaaaa
1aaaab
1aaaac

#3530000
0aaaab
0aaaac
1aaaad

#3540000
0aaaaa
1aaaab

#3550000
0aaaab
0aaaad

#3560000
1aaaaa
1aaaab
1aaaac

#3570000
0aaaab
0aaaac
1aaaad

#3580000
0aaaaa
1aaaab

#3590000
0aaaab
0aaaad

#3600000
1aaaaa
1aaaab
1aaaac

#3610000
0aaaab
0aaaac
1aaaad

#3620000
0aaaaa
1aaaab

#3630000
0aaaab
0aaaad

#3640000
1aaaaa
1aaaab
1aaaac

#3650000
0aaaab
0aaaac
1aaaad

#3660000
0aaaaa
1aaaab

#3670000
0aaaab
0aaaad

#3680000
1aaaaa
1aaaab
1aaaac

#3690000
0aaaab
0aaaac
1aaaad

#3700000
0aaaaa
1aaaab

#3710000
0aaaab
0aaaad

#3720000
1aaaaa
1aaaab
1aaaac

#3730000
0aaaab
0aaaac
1aaaad

#3740000
0aaaaa
1aaaab

#3750000
0aaaab
0aaaad

#3760000
1aaaaa
1aaaab
1aaaac

#3770000
0aaaab
0aaaac
1aaaad

#3780000
0aaaaa
1aaaab

#3790000
0aaaab
0aaaad

#3800000
1aaaaa
1aaaab
1aaaac

#3810000
0aaaab
0aaaac
1aaaad

#3820000
0aaaaa
1aaaab

#3830000
0aaaab
0aaaad

#3840000
1aaaaa
1aaaab
1aaaac

#3850000
0aaaab
0aaaac
1aaaad

#3860000
0aaaaa
1aaaab

#3870000
0aaaab
0aaaad

#3880000
1aaaaa
1aaaab
1aaaac

#3890000
0aaaab
0aaaac
1aaaad

#3900000
0aaaaa
1aaaab

#3910000
0aaaab
0aaaad

#3920000
1aaaaa
1aaaab
1aaaac

#3930000
0aaaab
0aaaac
1aaaad

#3940000
0aaaaa
1aaaab

#3950000
0aaaab
0aaaad

#3960000
1aaaaa
1aaaab
1aaaac

#3970000
0aaaab
0aaaac
1aaaad

#3980000
0aaaaa
1aaaab

#3990000
0aaaab
0aaaad

#4000000
1aaaaa
1aaaab
1aaaac

#4010000
0aaaab
0aaaac
1aaaad

#4020000
0aaaaa
1aaaab

#4030000
0aaaab
0aaaad

#4040000
1aaaaa
1aaaab
1aaaac

#4050000
0aaaab
0aaaac
1aaaad

#4060000
0aaaaa
1aaaab

#4070000
0aaaab
0aaaad

#4080000
1aaaaa
1aaaab
1aaaac

#4090000
0aaaab
0aaaac
1aaaad

#4100000
0aaaaa
1aaaab

#4110000
0aaaab
0aaaad

#4120000
1aaaaa
1aaaab
1aaaac

#4130000
0aaaab
0aaaac
1aaaad

#4140000
0aaaaa
1aaaab

#4150000
0aaaab
0aaaad

#4160000
1aaaaa
1aaaab
1aaaac

#4170000
0aaaab
0aaaac
1aaaad

#4180000
0aaaaa
1aaaab

#4190000
0aaaab
0aaaad

#4200000
1aaaaa
1aaaab
1aaaac

#4210000
0aaaab
0aaaac
1aaaad

#4220000
0aaaaa
1aaaab

#4230000
0aaaab
0aaaad

#4240000
1aaaaa
1aaaab
1aaaac

#4250000
0aaaab
0aaaac
1aaaad

#4260000
0aaaaa
1aaaab

#4270000
0aaaab
0aaaad

#4280000
1aaaaa
1aaaab
1aaaac

#4290000
0aaaab
0aaaac
1aaaad

#4300000
0aaaaa
1aaaab

#4310000
0aaaab
0aaaad

#4320000
1aaaaa
1aaaab
1aaaac

#4330000
0aaaab
0aaaac
1aaaad

#4340000
0aaaaa
1aaaab

#4350000
0aaaab
0aaaad

#4360000
1aaaaa
1aaaab
1aaaac

#4370000
0aaaab
0aaaac
1aaaad

#4380000
0aaaaa
1aaaab

#4390000
0aaaab
0aaaad

#4400000
1aaaaa
1aaaab
1aaaac

#4410000
0aaaab
0aaaac
1aaaad

#4420000
0aaaaa
1aaaab

#4430000
0aaaab
0aaaad

#4440000
1aaaaa
1aaaab
1aaaac

#4450000
0aaaab
0aaaac
1aaaad

#4460000
0aaaaa
1aaaab

#4470000
0aaaab
0aaaad

#4480000
1aaaaa
1aaaab
1aaaac

#4490000
0aaaab
0aaaac
1aaaad

#4500000
0aaaaa
1aaaab

#4510000
0aaaab
0aaaad

#4520000
1aaaaa
1aaaab
1aaaac

#4530000
0aaaab
0aaaac
1aaaad

#4540000
0aaaaa
1aaaab

#4550000
0aaaab
0aaaad

#4560000
1aaaaa
1aaaab
1aaaac

#4570000
0aaaab
0aaaac
1aaaad

#4580000
0aaaaa
1aaaab

#4590000
0aaaab
0aaaad

#4600000
1aaaaa
1aaaab
1aaaac

#4610000
0aaaab
0aaaac
1aaaad

#4620000
0aaaaa
1aaaab

#4630000
0aaaab
0aaaad

#4640000
1aaaaa
1aaaab
1aaaac

#4650000
0aaaab
0aaaac
1aaaad

#4660000
0aaaaa
1aaaab

#4670000
0aaaab
0aaaad

#4680000
1aaaaa
1aaaab
1aaaac

#4690000
0aaaab
0aaaac
1aaaad

#4700000
0aaaaa
1aaaab

#4710000
0aaaab
0aaaad

#4720000
1aaaaa
1aaaab
1aaaac

#4730000
0aaaab
0aaaac
1aaaad

#4740000
0aaaaa
1aaaab

#4750000
0aaaab
0aaaad

#4760000
1aaaaa
1aaaab
1aaaac

#4770000
0aaaab
0aaaac
1aaaad

#4780000
0aaaaa
1aaaab

#4790000
0aaaab
0aaaad

#4800000
1aaaaa
1aaaab
1aaaac

#4810000
0aaaab
0aaaac
1aaaad

#4820000
0aaaaa
1aaaab

#4830000
0aaaab
0aaaad

#4840000
1aaaaa
1aaaab
1aaaac

#4850000
0aaaab
0aaaac
1aaaad

#4860000
0aaaaa
1aaaab

#4870000
0aaaab
0aaaad

#4880000
1aaaaa
1aaaab
1aaaac

#4890000
0aaaab
0aaaac
1aaaad

#4900000
0aaaaa
1aaaab

#4910000
0aaaab
0aaaad

#4920000
1aaaaa
1aaaab
1aaaac

#4930000
0aaaab
0aaaac
1aaaad

#4940000
0aaaaa
1aaaab

#4950000
0aaaab
0aaaad

#4960000
1aaaaa
1aaaab
1aaaac

#4970000
0aaaab
0aaaac
1aaaad

#4980000
0aaaaa
1aaaab

#4990000
0aaaab
0aaaad

#5000000
1aaaaa
1aaaab
1aaaac

#5010000
0aaaab
0aaaac
1aaaad

#5020000
0aaaaa
1aaaab

#5030000
0aaaab
0aaaad

#5040000
1aaaaa
1aaaab
1aaaac

#5050000
0aaaab
0aaaac
1aaaad

#5060000
0aaaaa
1aaaab

#5070000
0aaaab
0aaaad

#5080000
1aaaaa
1aaaab
1aaaac

#5090000
0aaaab
0aaaac
1aaaad

#5100000
0aaaaa
1aaaab

#5110000
0aaaab
0aaaad

#5120000
1aaaaa
1aaaab
1aaaac

#5130000
0aaaab
0aaaac
1aaaad

#5140000
0aaaaa
1aaaab

#5150000
0aaaab
0aaaad

#5160000
1aaaaa
1aaaab
1aaaac

#5170000
0aaaab
0aaaac
1aaaad

#5180000
0aaaaa
1aaaab

#5190000
0aaaab
0aaaad

#5200000
1aaaaa
1aaaab
1aaaac

#5210000
0aaaab
0aaaac
1aaaad

#5220000
0aaaaa
1aaaab

#5230000
0aaaab
0aaaad

#5240000
1aaaaa
1aaaab
1aaaac

#5250000
0aaaab
0aaaac
1aaaad

#5260000
0aaaaa
1aaaab

#5270000
0aaaab
0aaaad

#5280000
1aaaaa
1aaaab
1aaaac

#5290000
0aaaab
0aaaac
1aaaad

#5300000
0aaaaa
1aaaab

#5310000
0aaaab
0aaaad

#5320000
1aaaaa
1aaaab
1aaaac

#5330000
0aaaab
0aaaac
1aaaad

#5340000
0aaaaa
1aaaab

#5350000
0aaaab
0aaaad

#5360000
1aaaaa
1aaaab
1aaaac

#5370000
0aaaab
0aaaac
1aaaad

#5380000
0aaaaa
1aaaab

#5390000
0aaaab
0aaaad

#5400000
1aaaaa
1aaaab
1aaaac

#5410000
0aaaab
0aaaac
1aaaad

#5420000
0aaaaa
1aaaab

#5430000
0aaaab
0aaaad

#5440000
1aaaaa
1aaaab
1aaaac

#5450000
0aaaab
0aaaac
1aaaad

#5460000
0aaaaa
1aaaab

#5470000
0aaaab
0aaaad

#5480000
1aaaaa
1aaaab
1aaaac

#5490000
0aaaab
0aaaac
1aaaad

#5500000
0aaaaa
1aaaab

#5510000
0aaaab
0aaaad

#5520000
1aaaaa
1aaaab
1aaaac

#5530000
0aaaab
0aaaac
1aaaad

#5540000
0aaaaa
1aaaab

#5550000
0aaaab
0aaaad

#5560000
1aaaaa
1aaaab
1aaaac

#5570000
0aaaab
0aaaac
1aaaad

#5580000
0aaaaa
1aaaab

#5590000
0aaaab
0aaaad

#5600000
1aaaaa
1aaaab
1aaaac

#5610000
0aaaab
0aaaac
1aaaad

#5620000
0aaaaa
1aaaab

#5630000
0aaaab
0aaaad

#5640000
1aaaaa
1aaaab
1aaaac

#5650000
0aaaab
0aaaac
1aaaad

#5660000
0aaaaa
1aaaab

#5670000
0aaaab
0aaaad

#5680000
1aaaaa
1aaaab
1aaaac

#5690000
0aaaab
0aaaac
1aaaad

#5700000
0aaaaa
1aaaab

#5710000
0aaaab
0aaaad

#5720000
1aaaaa
1aaaab
1aaaac

#5730000
0aaaab
0aaaac
1aaaad

#5740000
0aaaaa
1aaaab

#5750000
0aaaab
0aaaad

#5760000
1aaaaa
1aaaab
1aaaac

#5770000
0aaaab
0aaaac
1aaaad

#5780000
0aaaaa
1aaaab

#5790000
0aaaab
0aaaad

#5800000
1aaaaa
1aaaab
1aaaac

#5810000
0aaaab
0aaaac
1aaaad

#5820000
0aaaaa
1aaaab

#5830000
0aaaab
0aaaad

#5840000
1aaaaa
1aaaab
1aaaac

#5850000
0aaaab
0aaaac
1aaaad

#5860000
0aaaaa
1aaaab

#5870000
0aaaab
0aaaad

#5880000
1aaaaa
1aaaab
1aaaac

#5890000
0aaaab
0aaaac
1aaaad

#5900000
0aaaaa
1aaaab

#5910000
0aaaab
0aaaad

#5920000
1aaaaa
1aaaab
1aaaac

#5930000
0aaaab
0aaaac
1aaaad

#5940000
0aaaaa
1aaaab

#5950000
0aaaab
0aaaad

#5960000
1aaaaa
1aaaab
1aaaac

#5970000
0aaaab
0aaaac
1aaaad

#5980000
0aaaaa
1aaaab

#5990000
0aaaab
0aaaad

#6000000
1aaaaa
1aaaab
1aaaac

#6010000
0aaaab
0aaaac
1aaaad

#6020000
0aaaaa
1aaaab

#6030000
0aaaab
0aaaad

#6040000
1aaaaa
1aaaab
1aaaac

#6050000
0aaaab
0aaaac
1aaaad

#6060000
0aaaaa
1aaaab

#6070000
0aaaab
0aaaad

#6080000
1aaaaa
1aaaab
1aaaac

#6090000
0aaaab
0aaaac
1aaaad

#6100000
0aaaaa
1aaaab

#6110000
0aaaab
0aaaad

#6120000
1aaaaa
1aaaab
1aaaac

#6130000
0aaaab
0aaaac
1aaaad

#6140000
0aaaaa
1aaaab

#6150000
0aaaab
0aaaad

#6160000
1aaaaa
1aaaab
1aaaac

#6170000
0aaaab
0aaaac
1aaaad

#6180000
0aaaaa
1aaaab

#6190000
0aaaab
0aaaad

#6200000
1aaaaa
1aaaab
1aaaac

#6210000
0aaaab
0aaaac
1aaaad

#6220000
0aaaaa
1aaaab

#6230000
0aaaab
0aaaad

#6240000
1aaaaa
1aaaab
1aaaac

#6250000
0aaaab
0aaaac
1aaaad

#6260000
0aaaaa
1aaaab

#6270000
0aaaab
0aaaad

#6280000
1aaaaa
1aaaab
1aaaac

#6290000
0aaaab
0aaaac
1aaaad

#6300000
0aaaaa
1aaaab

#6310000
0aaaab
0aaaad

#6320000
1aaaaa
1aaaab
1aaaac

#6330000
0aaaab
0aaaac
1aaaad

#6340000
0aaaaa
1aaaab

#6350000
0aaaab
0aaaad

#6360000
1aaaaa
1aaaab
1aaaac

#6370000
0aaaab
0aaaac
1aaaad

#6380000
0aaaaa
1aaaab

#6390000
0aaaab
0aaaad

#6400000
1aaaaa
1aaaab
1aaaac

#6410000
0aaaab
0aaaac
1aaaad

#6420000
0aaaaa
1aaaab

#6430000
0aaaab
0aaaad

#6440000
1aaaaa
1aaaab
1aaaac

#6450000
0aaaab
0aaaac
1aaaad

#6460000
0aaaaa
1aaaab

#6470000
0aaaab
0aaaad

#6480000
1aaaaa
1aaaab
1aaaac

#6490000
0aaaab
0aaaac
1aaaad

#6500000
0aaaaa
1aaaab

#6510000
0aaaab
0aaaad

#6520000
1aaaaa
1aaaab
1aaaac

#6530000
0aaaab
0aaaac
1aaaad

#6540000
0aaaaa
1aaaab

#6550000
0aaaab
0aaaad

#6560000
1aaaaa
1aaaab
1aaaac

#6570000
0aaaab
0aaaac
1aaaad

#6580000
0aaaaa
1aaaab

#6590000
0aaaab
0aaaad

#6600000
1aaaaa
1aaaab
1aaaac

#6610000
0aaaab
0aaaac
1aaaad

#6620000
0aaaaa
1aaaab

#6630000
0aaaab
0aaaad

#6640000
1aaaaa
1aaaab
1aaaac

#6650000
0aaaab
0aaaac
1aaaad

#6660000
0aaaaa
1aaaab

#6670000
0aaaab
0aaaad

#6680000
1aaaaa
1aaaab
1aaaac

#6690000
0aaaab
0aaaac
1aaaad

#6700000
0aaaaa
1aaaab

#6710000
0aaaab
0aaaad

#6720000
1aaaaa
1aaaab
1aaaac

#6730000
0aaaab
0aaaac
1aaaad

#6740000
0aaaaa
1aaaab

#6750000
0aaaab
0aaaad

#6760000
1aaaaa
1aaaab
1aaaac

#6770000
0aaaab
0aaaac
1aaaad

#6780000
0aaaaa
1aaaab

#6790000
0aaaab
0aaaad

#6800000
1aaaaa
1aaaab
1aaaac

#6810000
0aaaab
0aaaac
1aaaad

#6820000
0aaaaa
1aaaab

#6830000
0aaaab
0aaaad

#6840000
1aaaaa
1aaaab
1aaaac

#6850000
0aaaab
0aaaac
1aaaad

#6860000
0aaaaa
1aaaab

#6870000
0aaaab
0aaaad

#6880000
1aaaaa
1aaaab
1aaaac

#6890000
0aaaab
0aaaac
1aaaad

#6900000
0aaaaa
1aaaab

#6910000
0aaaab
0aaaad

#6920000
1aaaaa
1aaaab
1aaaac

#6930000
0aaaab
0aaaac
1aaaad

#6940000
0aaaaa
1aaaab

#6950000
0aaaab
0aaaad

#6960000
1aaaaa
1aaaab
1aaaac

#6970000
0aaaab
0aaaac
1aaaad

#6980000
0aaaaa
1aaaab

#6990000
0aaaab
0aaaad

#7000000
1aaaaa
1aaaab
1aaaac

#7010000
0aaaab
0aaaac
1aaaad

#7020000
0aaaaa
1aaaab

#7030000
0aaaab
0aaaad

#7040000
1aaaaa
1aaaab
1aaaac

#7050000
0aaaab
0aaaac
1aaaad

#7060000
0aaaaa
1aaaab

#7070000
0aaaab
0aaaad

#7080000
1aaaaa
1aaaab
1aaaac

#7090000
0aaaab
0aaaac
1aaaad

#7100000
0aaaaa
1aaaab

#7110000
0aaaab
0aaaad

#7120000
1aaaaa
1aaaab
1aaaac

#7130000
0aaaab
0aaaac
1aaaad

#7140000
0aaaaa
1aaaab

#7150000
0aaaab
0aaaad

#7160000
1aaaaa
1aaaab
1aaaac

#7170000
0aaaab
0aaaac
1aaaad

#7180000
0aaaaa
1aaaab

#7190000
0aaaab
0aaaad

#7200000
1aaaaa
1aaaab
1aaaac

#7210000
0aaaab
0aaaac
1aaaad

#7220000
0aaaaa
1aaaab

#7230000
0aaaab
0aaaad

#7240000
1aaaaa
1aaaab
1aaaac

