mux4to1.vcd
$date
     Mar 23, 2022       16:07:26
$end

$version
 SystemC 2.3.3-Accellera --- Mar 15 2022 17:17:50
$end

$timescale
     1 ps
$end

$scope module SystemC $end
$var wire    2  aaaaa  sel [1:0]  $end
$var wire    2  aaaab  p0 [1:0]  $end
$var wire    2  aaaac  p1 [1:0]  $end
$var wire    2  aaaad  p2 [1:0]  $end
$var wire    2  aaaae  p3 [1:0]  $end
$var wire    2  aaaaf  sout [1:0]  $end
$var wire    2  aaaag  sout_t [1:0]  $end
$upscope $end
$enddefinitions  $end

$comment
All initial values are dumped below at time 0 sec = 0 timescale units.
$end

$dumpvars
b0 aaaaa
b0 aaaab
b0 aaaac
b0 aaaad
b0 aaaae
b0 aaaaf
b0 aaaag
$end

#10000
b1 aaaaa

#20000
b10 aaaaa

#30000
b11 aaaaa

#40000
b0 aaaaa

#50000
b1 aaaaa

#60000
b10 aaaaa

#70000
b11 aaaaa

#80000
b0 aaaaa

#90000
b1 aaaaa

#100000
b10 aaaaa

#110000
b11 aaaaa

#120000
b0 aaaaa

#130000
b1 aaaaa

#140000
b10 aaaaa

#150000
b11 aaaaa

#160000
b0 aaaaa

#170000
b1 aaaaa

#180000
b10 aaaaa

#190000
b11 aaaaa

#200000
b0 aaaaa

#210000
b1 aaaaa

#220000
b10 aaaaa

#230000
b11 aaaaa

#240000
b0 aaaaa

#250000
b1 aaaaa

#260000
b10 aaaaa

#270000
b11 aaaaa

#280000
b0 aaaaa

#290000
b1 aaaaa

#300000
b10 aaaaa

#310000
b11 aaaaa

#320000
b0 aaaaa

#330000
b1 aaaaa

#340000
b10 aaaaa

#350000
b11 aaaaa

#360000
b0 aaaaa

#370000
b1 aaaaa

#380000
b10 aaaaa

#390000
b11 aaaaa

#400000
b0 aaaaa

#410000
b1 aaaaa

#420000
b10 aaaaa

#430000
b11 aaaaa

#440000
b0 aaaaa

#450000
b1 aaaaa

#460000
b10 aaaaa

#470000
b11 aaaaa

#480000
b0 aaaaa

#490000
b1 aaaaa

#500000
b10 aaaaa

#510000
b11 aaaaa

#520000
b0 aaaaa

#530000
b1 aaaaa

#540000
b10 aaaaa

#550000
b11 aaaaa

#560000
b0 aaaaa

#570000
b1 aaaaa

#580000
b10 aaaaa

#590000
b11 aaaaa

#600000
b0 aaaaa

#610000
b1 aaaaa

#620000
b10 aaaaa

#630000
b11 aaaaa

#640000
b0 aaaaa

#650000
b1 aaaaa

#660000
b10 aaaaa

#670000
b11 aaaaa

#680000
b0 aaaaa

#690000
b1 aaaaa

#700000
b10 aaaaa

#710000
b11 aaaaa

#720000
b0 aaaaa

#730000
b1 aaaaa

#740000
b10 aaaaa

#750000
b11 aaaaa

#760000
b0 aaaaa

#770000
b1 aaaaa

#780000
b10 aaaaa

#790000
b11 aaaaa

#800000
b0 aaaaa

#810000
b1 aaaaa

#820000
b10 aaaaa

#830000
b11 aaaaa

#840000
b0 aaaaa

#850000
b1 aaaaa

#860000
b10 aaaaa

#870000
b11 aaaaa

#880000
b0 aaaaa

#890000
b1 aaaaa

#900000
b10 aaaaa

#910000
b11 aaaaa

#920000
b0 aaaaa

#930000
b1 aaaaa

#940000
b10 aaaaa

#950000
b11 aaaaa

#960000
b0 aaaaa

#970000
b1 aaaaa

#980000
b10 aaaaa

#990000
b11 aaaaa

#1000000
b0 aaaaa

#1010000
b1 aaaaa

#1020000
b10 aaaaa

#1030000
b11 aaaaa

#1040000
b0 aaaaa

#1050000
b1 aaaaa

#1060000
b10 aaaaa

#1070000
b11 aaaaa

#1080000
b0 aaaaa

#1090000
b1 aaaaa

#1100000
b10 aaaaa

#1110000
b11 aaaaa

#1120000
b0 aaaaa

#1130000
b1 aaaaa

#1140000
b10 aaaaa

#1150000
b11 aaaaa

#1160000
b0 aaaaa

#1170000
b1 aaaaa

#1180000
b10 aaaaa

#1190000
b11 aaaaa

#1200000
b0 aaaaa

#1210000
b1 aaaaa

#1220000
b10 aaaaa

#1230000
b11 aaaaa

#1240000
b0 aaaaa

#1250000
b1 aaaaa

#1260000
b10 aaaaa

#1270000
b11 aaaaa

#1280000
b0 aaaaa

#1290000
b1 aaaaa

#1300000
b10 aaaaa

#1310000
b11 aaaaa

#1320000
b0 aaaaa

#1330000
b1 aaaaa

#1340000
b10 aaaaa

#1350000
b11 aaaaa

#1360000
b0 aaaaa

#1370000
b1 aaaaa

#1380000
b10 aaaaa

#1390000
b11 aaaaa

#1400000
b0 aaaaa

#1410000
b1 aaaaa

#1420000
b10 aaaaa

#1430000
b11 aaaaa

#1440000
b0 aaaaa

#1450000
b1 aaaaa

#1460000
b10 aaaaa

#1470000
b11 aaaaa

#1480000
b0 aaaaa

#1490000
b1 aaaaa

#1500000
b10 aaaaa

#1510000
b11 aaaaa

#1520000
b0 aaaaa

#1530000
b1 aaaaa

#1540000
b10 aaaaa

#1550000
b11 aaaaa

#1560000
b0 aaaaa

#1570000
b1 aaaaa

#1580000
b10 aaaaa

#1590000
b11 aaaaa

#1600000
b0 aaaaa

#1610000
b1 aaaaa

#1620000
b10 aaaaa

#1630000
b11 aaaaa

#1640000
b0 aaaaa

#1650000
b1 aaaaa

#1660000
b10 aaaaa

#1670000
b11 aaaaa

#1680000
b0 aaaaa

#1690000
b1 aaaaa

#1700000
b10 aaaaa

#1710000
b11 aaaaa

#1720000
b0 aaaaa

#1730000
b1 aaaaa

#1740000
b10 aaaaa

#1750000
b11 aaaaa

#1760000
b0 aaaaa

#1770000
b1 aaaaa

#1780000
b10 aaaaa

#1790000
b11 aaaaa

#1800000
b0 aaaaa

#1810000
b1 aaaaa

#1820000
b10 aaaaa

#1830000
b11 aaaaa

#1840000
b0 aaaaa

#1850000
b1 aaaaa

#1860000
b10 aaaaa

#1870000
b11 aaaaa

#1880000
b0 aaaaa

#1890000
b1 aaaaa

#1900000
b10 aaaaa

#1910000
b11 aaaaa

#1920000
b0 aaaaa

#1930000
b1 aaaaa

#1940000
b10 aaaaa

#1950000
b11 aaaaa

#1960000
b0 aaaaa

#1970000
b1 aaaaa

#1980000
b10 aaaaa

#1990000
b11 aaaaa

#2000000
b0 aaaaa

#2010000
b1 aaaaa

#2020000
b10 aaaaa

#2030000
b11 aaaaa

#2040000
b0 aaaaa

#2050000
b1 aaaaa

#2060000
b10 aaaaa

#2070000
b11 aaaaa

#2080000
b0 aaaaa

#2090000
b1 aaaaa

#2100000
b10 aaaaa

#2110000
b11 aaaaa

#2120000
b0 aaaaa

#2130000
b1 aaaaa

#2140000
b10 aaaaa

#2150000
b11 aaaaa

#2160000
b0 aaaaa

#2170000
b1 aaaaa

#2180000
b10 aaaaa

#2190000
b11 aaaaa

#2200000
b0 aaaaa

#2210000
b1 aaaaa

#2220000
b10 aaaaa

#2230000
b11 aaaaa

#2240000
b0 aaaaa

#2250000
b1 aaaaa

#2260000
b10 aaaaa

#2270000
b11 aaaaa

#2280000
b0 aaaaa

#2290000
b1 aaaaa

#2300000
b10 aaaaa

#2310000
b11 aaaaa

#2320000
b0 aaaaa

#2330000
b1 aaaaa

#2340000
b10 aaaaa

#2350000
b11 aaaaa

#2360000
b0 aaaaa

#2370000
b1 aaaaa

#2380000
b10 aaaaa

#2390000
b11 aaaaa

#2400000
b0 aaaaa

#2410000
b1 aaaaa

#2420000
b10 aaaaa

#2430000
b11 aaaaa

#2440000
b0 aaaaa

#2450000
b1 aaaaa

#2460000
b10 aaaaa

#2470000
b11 aaaaa

#2480000
b0 aaaaa

#2490000
b1 aaaaa

#2500000
b10 aaaaa

#2510000
b11 aaaaa

#2520000
b0 aaaaa

#2530000
b1 aaaaa

#2540000
b10 aaaaa

#2550000
b11 aaaaa

#2560000
b0 aaaaa

#2570000
b1 aaaaa

#2580000
b10 aaaaa

#2590000
b11 aaaaa

#2600000
b0 aaaaa

#2610000
b1 aaaaa

#2620000
b10 aaaaa

#2630000
b11 aaaaa

#2640000
b0 aaaaa

#2650000
b1 aaaaa

#2660000
b10 aaaaa

#2670000
b11 aaaaa

#2680000
b0 aaaaa

#2690000
b1 aaaaa

#2700000
b10 aaaaa

#2710000
b11 aaaaa

#2720000
b0 aaaaa

#2730000
b1 aaaaa

#2740000
b10 aaaaa

#2750000
b11 aaaaa

#2760000
b0 aaaaa

#2770000
b1 aaaaa

#2780000
b10 aaaaa

#2790000
b11 aaaaa

#2800000
b0 aaaaa

#2810000
b1 aaaaa

#2820000
b10 aaaaa

#2830000
b11 aaaaa

#2840000
b0 aaaaa

#2850000
b1 aaaaa

#2860000
b10 aaaaa

#2870000
b11 aaaaa

#2880000
b0 aaaaa

#2890000
b1 aaaaa

#2900000
b10 aaaaa

#2910000
b11 aaaaa

#2920000
b0 aaaaa

#2930000
b1 aaaaa

#2940000
b10 aaaaa

#2950000
b11 aaaaa

#2960000
b0 aaaaa

#2970000
b1 aaaaa

#2980000
b10 aaaaa

#2990000
b11 aaaaa

#3000000
b0 aaaaa

#3010000
b1 aaaaa

#3020000
b10 aaaaa

#3030000
b11 aaaaa

#3040000
b0 aaaaa

#3050000
b1 aaaaa

#3060000
b10 aaaaa

#3070000
b11 aaaaa

#3080000
b0 aaaaa

#3090000
b1 aaaaa

#3100000
b10 aaaaa

#3110000
b11 aaaaa

#3120000
b0 aaaaa

#3130000
b1 aaaaa

#3140000
b10 aaaaa

#3150000
b11 aaaaa

#3160000
b0 aaaaa

#3170000
b1 aaaaa

#3180000
b10 aaaaa

#3190000
b11 aaaaa

#3200000
b0 aaaaa

#3210000
b1 aaaaa

#3220000
b10 aaaaa

#3230000
b11 aaaaa

#3240000
b0 aaaaa

#3250000
b1 aaaaa

#3260000
b10 aaaaa

#3270000
b11 aaaaa

#3280000
b0 aaaaa

#3290000
b1 aaaaa

#3300000
b10 aaaaa

#3310000
b11 aaaaa

#3320000
b0 aaaaa

#3330000
b1 aaaaa

#3340000
b10 aaaaa

#3350000
b11 aaaaa

#3360000
b0 aaaaa

#3370000
b1 aaaaa

#3380000
b10 aaaaa

#3390000
b11 aaaaa

#3400000
b0 aaaaa

#3410000
b1 aaaaa

#3420000
b10 aaaaa

#3430000
b11 aaaaa

#3440000
b0 aaaaa

#3450000
b1 aaaaa

#3460000
b10 aaaaa

#3470000
b11 aaaaa

#3480000
b0 aaaaa

#3490000
b1 aaaaa

#3500000
b10 aaaaa

#3510000
b11 aaaaa

#3520000
b0 aaaaa

#3530000
b1 aaaaa

#3540000
b10 aaaaa

#3550000
b11 aaaaa

#3560000
b0 aaaaa

#3570000
b1 aaaaa

#3580000
b10 aaaaa

#3590000
b11 aaaaa

#3600000
b0 aaaaa

#3610000
b1 aaaaa

#3620000
b10 aaaaa

#3630000
b11 aaaaa

#3640000
b0 aaaaa

#3650000
b1 aaaaa

#3660000
b10 aaaaa

#3670000
b11 aaaaa

#3680000
b0 aaaaa

#3690000
b1 aaaaa

#3700000
b10 aaaaa

#3710000
b11 aaaaa

#3720000
b0 aaaaa

#3730000
b1 aaaaa

#3740000
b10 aaaaa

#3750000
b11 aaaaa

#3760000
b0 aaaaa

#3770000
b1 aaaaa

#3780000
b10 aaaaa

#3790000
b11 aaaaa

#3800000
b0 aaaaa

#3810000
b1 aaaaa

#3820000
b10 aaaaa

#3830000
b11 aaaaa

#3840000
b0 aaaaa

#3850000
b1 aaaaa

#3860000
b10 aaaaa

#3870000
b11 aaaaa

#3880000
b0 aaaaa

#3890000
b1 aaaaa

#3900000
b10 aaaaa

#3910000
b11 aaaaa

#3920000
b0 aaaaa

#3930000
b1 aaaaa

#3940000
b10 aaaaa

#3950000
b11 aaaaa

#3960000
b0 aaaaa

#3970000
b1 aaaaa

#3980000
b10 aaaaa

#3990000
b11 aaaaa

#4000000
b0 aaaaa

#4010000
b1 aaaaa

#4020000
b10 aaaaa

#4030000
b11 aaaaa

#4040000
b0 aaaaa

#4050000
b1 aaaaa

#4060000
b10 aaaaa

#4070000
b11 aaaaa

#4080000
b0 aaaaa

#4090000
b1 aaaaa

#4100000
b10 aaaaa

#4110000
b11 aaaaa

#4120000
b0 aaaaa

#4130000
b1 aaaaa

#4140000
b10 aaaaa

#4150000
b11 aaaaa

#4160000
b0 aaaaa

#4170000
b1 aaaaa

#4180000
b10 aaaaa

#4190000
b11 aaaaa

#4200000
b0 aaaaa

#4210000
b1 aaaaa

#4220000
b10 aaaaa

#4230000
b11 aaaaa

#4240000
b0 aaaaa

#4250000
b1 aaaaa

#4260000
b10 aaaaa

#4270000
b11 aaaaa

#4280000
b0 aaaaa

#4290000
b1 aaaaa

#4300000
b10 aaaaa

#4310000
b11 aaaaa

#4320000
b0 aaaaa

#4330000
b1 aaaaa

#4340000
b10 aaaaa

#4350000
b11 aaaaa

#4360000
b0 aaaaa

#4370000
b1 aaaaa

#4380000
b10 aaaaa

#4390000
b11 aaaaa

#4400000
b0 aaaaa

#4410000
b1 aaaaa

#4420000
b10 aaaaa

#4430000
b11 aaaaa

#4440000
b0 aaaaa

#4450000
b1 aaaaa

#4460000
b10 aaaaa

#4470000
b11 aaaaa

#4480000
b0 aaaaa

#4490000
b1 aaaaa

#4500000
b10 aaaaa

#4510000
b11 aaaaa

#4520000
b0 aaaaa

#4530000
b1 aaaaa

#4540000
b10 aaaaa

#4550000
b11 aaaaa

#4560000
b0 aaaaa

#4570000
b1 aaaaa

#4580000
b10 aaaaa

#4590000
b11 aaaaa

#4600000
b0 aaaaa

#4610000
b1 aaaaa

#4620000
b10 aaaaa

#4630000
b11 aaaaa

#4640000
b0 aaaaa

#4650000
b1 aaaaa

#4660000
b10 aaaaa

#4670000
b11 aaaaa

#4680000
b0 aaaaa

#4690000
b1 aaaaa

#4700000
b10 aaaaa

#4710000
b11 aaaaa

#4720000
b0 aaaaa

#4730000
b1 aaaaa

#4740000
b10 aaaaa

#4750000
b11 aaaaa

#4760000
b0 aaaaa

#4770000
b1 aaaaa

#4780000
b10 aaaaa

#4790000
b11 aaaaa

#4800000
b0 aaaaa

#4810000
b1 aaaaa

#4820000
b10 aaaaa

#4830000
b11 aaaaa

#4840000
b0 aaaaa

#4850000
b1 aaaaa

#4860000
b10 aaaaa

#4870000
b11 aaaaa

#4880000
b0 aaaaa

#4890000
b1 aaaaa

#4900000
b10 aaaaa

#4910000
b11 aaaaa

#4920000
b0 aaaaa

#4930000
b1 aaaaa

#4940000
b10 aaaaa

#4950000
b11 aaaaa

#4960000
b0 aaaaa

#4970000
b1 aaaaa

#4980000
b10 aaaaa

#4990000
b11 aaaaa

#5000000
b0 aaaaa

#5010000
b1 aaaaa

#5020000
b10 aaaaa

#5030000
b11 aaaaa

#5040000
b0 aaaaa

#5050000
b1 aaaaa

#5060000
b10 aaaaa

#5070000
b11 aaaaa

#5080000
b0 aaaaa

#5090000
b1 aaaaa

#5100000
b10 aaaaa

#5110000
b11 aaaaa

#5120000
b0 aaaaa

#5130000
b1 aaaaa

#5140000
b10 aaaaa

#5150000
b11 aaaaa

#5160000
b0 aaaaa

#5170000
b1 aaaaa

#5180000
b10 aaaaa

#5190000
b11 aaaaa

#5200000
b0 aaaaa

#5210000
b1 aaaaa

#5220000
b10 aaaaa

#5230000
b11 aaaaa

#5240000
b0 aaaaa

#5250000
b1 aaaaa

#5260000
b10 aaaaa

#5270000
b11 aaaaa

#5280000
b0 aaaaa

#5290000
b1 aaaaa

#5300000
b10 aaaaa

#5310000
b11 aaaaa

#5320000
b0 aaaaa

#5330000
b1 aaaaa

#5340000
b10 aaaaa

#5350000
b11 aaaaa

#5360000
b0 aaaaa

#5370000
b1 aaaaa

#5380000
b10 aaaaa

#5390000
b11 aaaaa

#5400000
b0 aaaaa

#5410000
b1 aaaaa

#5420000
b10 aaaaa

#5430000
b11 aaaaa

#5440000
b0 aaaaa

#5450000
b1 aaaaa

#5460000
b10 aaaaa

#5470000
b11 aaaaa

#5480000
b0 aaaaa

#5490000
b1 aaaaa

#5500000
b10 aaaaa

#5510000
b11 aaaaa

#5520000
b0 aaaaa

#5530000
b1 aaaaa

#5540000
b10 aaaaa

#5550000
b11 aaaaa

#5560000
b0 aaaaa

#5570000
b1 aaaaa

#5580000
b10 aaaaa

#5590000
b11 aaaaa

#5600000
b0 aaaaa

#5610000
b1 aaaaa

#5620000
b10 aaaaa

#5630000
b11 aaaaa

#5640000
b0 aaaaa

#5650000
b1 aaaaa

#5660000
b10 aaaaa

#5670000
b11 aaaaa

#5680000
b0 aaaaa

#5690000
b1 aaaaa

#5700000
b10 aaaaa

#5710000
b11 aaaaa

#5720000
b0 aaaaa

#5730000
b1 aaaaa

#5740000
b10 aaaaa

#5750000
b11 aaaaa

#5760000
b0 aaaaa

#5770000
b1 aaaaa

#5780000
b10 aaaaa

#5790000
b11 aaaaa

#5800000
b0 aaaaa

#5810000
b1 aaaaa

#5820000
b10 aaaaa

#5830000
b11 aaaaa

#5840000
b0 aaaaa

#5850000
b1 aaaaa

#5860000
b10 aaaaa

#5870000
b11 aaaaa

#5880000
b0 aaaaa

#5890000
b1 aaaaa

#5900000
b10 aaaaa

#5910000
b11 aaaaa

#5920000
b0 aaaaa

#5930000
b1 aaaaa

#5940000
b10 aaaaa

#5950000
b11 aaaaa

#5960000
b0 aaaaa

#5970000
b1 aaaaa

#5980000
b10 aaaaa

#5990000
b11 aaaaa

#6000000
b0 aaaaa

#6010000
b1 aaaaa

#6020000
b10 aaaaa

#6030000
b11 aaaaa

#6040000
b0 aaaaa

#6050000
b1 aaaaa

#6060000
b10 aaaaa

#6070000
b11 aaaaa

#6080000
b0 aaaaa

#6090000
b1 aaaaa

#6100000
b10 aaaaa

#6110000
b11 aaaaa

#6120000
b0 aaaaa

#6130000
b1 aaaaa

#6140000
b10 aaaaa

#6150000
b11 aaaaa

#6160000
b0 aaaaa

#6170000
b1 aaaaa

#6180000
b10 aaaaa

#6190000
b11 aaaaa

#6200000
b0 aaaaa

#6210000
b1 aaaaa

#6220000
b10 aaaaa

#6230000
b11 aaaaa

#6240000
b0 aaaaa

#6250000
b1 aaaaa

#6260000
b10 aaaaa

#6270000
b11 aaaaa

#6280000
b0 aaaaa

#6290000
b1 aaaaa

#6300000
b10 aaaaa

#6310000
b11 aaaaa

#6320000
b0 aaaaa

#6330000
b1 aaaaa

#6340000
b10 aaaaa

#6350000
b11 aaaaa

#6360000
b0 aaaaa

#6370000
b1 aaaaa

#6380000
b10 aaaaa

#6390000
b11 aaaaa

#6400000
b0 aaaaa

#6410000
b1 aaaaa

#6420000
b10 aaaaa

#6430000
b11 aaaaa

#6440000
b0 aaaaa

#6450000
b1 aaaaa

#6460000
b10 aaaaa

#6470000
b11 aaaaa

#6480000
b0 aaaaa

#6490000
b1 aaaaa

#6500000
b10 aaaaa

#6510000
b11 aaaaa

#6520000
b0 aaaaa

#6530000
b1 aaaaa

#6540000
b10 aaaaa

#6550000
b11 aaaaa

#6560000
b0 aaaaa

#6570000
b1 aaaaa

#6580000
b10 aaaaa

#6590000
b11 aaaaa

#6600000
b0 aaaaa

#6610000
b1 aaaaa

#6620000
b10 aaaaa

#6630000
b11 aaaaa

#6640000
b0 aaaaa

#6650000
b1 aaaaa

#6660000
b10 aaaaa

#6670000
b11 aaaaa

#6680000
b0 aaaaa

#6690000
b1 aaaaa

#6700000
b10 aaaaa

#6710000
b11 aaaaa

#6720000
b0 aaaaa

#6730000
b1 aaaaa

#6740000
b10 aaaaa

#6750000
b11 aaaaa

#6760000
b0 aaaaa

#6770000
b1 aaaaa

#6780000
b10 aaaaa

#6790000
b11 aaaaa

#6800000
b0 aaaaa

#6810000
b1 aaaaa

#6820000
b10 aaaaa

#6830000
b11 aaaaa

#6840000
b0 aaaaa

#6850000
b1 aaaaa

#6860000
b10 aaaaa

#6870000
b11 aaaaa

#6880000
b0 aaaaa

#6890000
b1 aaaaa

#6900000
b10 aaaaa

#6910000
b11 aaaaa

#6920000
b0 aaaaa

#6930000
b1 aaaaa

#6940000
b10 aaaaa

#6950000
b11 aaaaa

#6960000
b0 aaaaa

#6970000
b1 aaaaa

#6980000
b10 aaaaa

#6990000
b11 aaaaa

#7000000
b0 aaaaa

#7010000
b1 aaaaa

#7020000
b10 aaaaa

#7030000
b11 aaaaa

#7040000
b0 aaaaa

#7050000
b1 aaaaa

#7060000
b10 aaaaa

#7070000
b11 aaaaa

#7080000
b0 aaaaa

#7090000
b1 aaaaa

#7100000
b10 aaaaa

#7110000
b11 aaaaa

#7120000
b0 aaaaa

#7130000
b1 aaaaa

#7140000
b10 aaaaa

#7150000
b11 aaaaa

#7160000
b0 aaaaa

#7170000
b1 aaaaa

#7180000
b10 aaaaa

#7190000
b11 aaaaa

#7200000
b0 aaaaa

#7210000
b1 aaaaa

#7220000
b10 aaaaa

#7230000
b11 aaaaa

#7240000
b0 aaaaa

#7250000
b1 aaaaa

#7260000
b10 aaaaa

#7270000
b11 aaaaa

#7280000
b0 aaaaa

#7290000
b1 aaaaa

#7300000
b10 aaaaa

#7310000
b11 aaaaa

#7320000
b0 aaaaa

#7330000
b1 aaaaa

#7340000
b10 aaaaa

#7350000
b11 aaaaa

#7360000
b0 aaaaa

#7370000
b1 aaaaa

#7380000
b10 aaaaa

#7390000
b11 aaaaa

#7400000
b0 aaaaa

#7410000
b1 aaaaa

#7420000
b10 aaaaa

#7430000
b11 aaaaa

#7440000
b0 aaaaa

#7450000
b1 aaaaa

#7460000
b10 aaaaa

#7470000
b11 aaaaa

#7480000
b0 aaaaa

#7490000
b1 aaaaa

#7500000
b10 aaaaa

#7510000
b11 aaaaa

#7520000
b0 aaaaa

#7530000
b1 aaaaa

#7540000
b10 aaaaa

#7550000
b11 aaaaa

#7560000
b0 aaaaa

#7570000
b1 aaaaa

#7580000
b10 aaaaa

#7590000
b11 aaaaa

#7600000
b0 aaaaa

#7610000
b1 aaaaa

#7620000
b10 aaaaa

#7630000
b11 aaaaa

#7640000
b0 aaaaa

#7650000
b1 aaaaa

#7660000
b10 aaaaa

#7670000
b11 aaaaa

#7680000
b0 aaaaa

#7690000
b1 aaaaa

#7700000
b10 aaaaa

#7710000
b11 aaaaa

#7720000
b0 aaaaa

#7730000
b1 aaaaa

#7740000
b10 aaaaa

#7750000
b11 aaaaa

#7760000
b0 aaaaa

#7770000
b1 aaaaa

#7780000
b10 aaaaa

#7790000
b11 aaaaa

#7800000
b0 aaaaa

#7810000
b1 aaaaa

#7820000
b10 aaaaa

#7830000
b11 aaaaa

#7840000
b0 aaaaa

#7850000
b1 aaaaa

#7860000
b10 aaaaa

#7870000
b11 aaaaa

#7880000
b0 aaaaa

#7890000
b1 aaaaa

#7900000
b10 aaaaa

#7910000
b11 aaaaa

#7920000
b0 aaaaa

#7930000
b1 aaaaa

#7940000
b10 aaaaa

#7950000
b11 aaaaa

#7960000
b0 aaaaa

#7970000
b1 aaaaa

#7980000
b10 aaaaa

#7990000
b11 aaaaa

#8000000
b0 aaaaa

#8010000
b1 aaaaa

#8020000
b10 aaaaa

#8030000
b11 aaaaa

#8040000
b0 aaaaa

#8050000
b1 aaaaa

#8060000
b10 aaaaa

#8070000
b11 aaaaa

#8080000
b0 aaaaa

#8090000
b1 aaaaa

#8100000
b10 aaaaa

#8110000
b11 aaaaa

#8120000
b0 aaaaa

#8130000
b1 aaaaa

#8140000
b10 aaaaa

#8150000
b11 aaaaa

#8160000
b0 aaaaa

#8170000
b1 aaaaa

#8180000
b10 aaaaa

#8190000
b11 aaaaa

#8200000
b0 aaaaa

#8210000
b1 aaaaa

#8220000
b10 aaaaa

#8230000
b11 aaaaa

#8240000
b0 aaaaa

#8250000
b1 aaaaa

#8260000
b10 aaaaa

#8270000
b11 aaaaa

#8280000
b0 aaaaa

#8290000
b1 aaaaa

#8300000
b10 aaaaa

#8310000
b11 aaaaa

#8320000
b0 aaaaa

#8330000
b1 aaaaa

#8340000
b10 aaaaa

#8350000
b11 aaaaa

#8360000
b0 aaaaa

#8370000
b1 aaaaa

#8380000
b10 aaaaa

#8390000
b11 aaaaa

#8400000
b0 aaaaa

#8410000
b1 aaaaa

#8420000
b10 aaaaa

#8430000
b11 aaaaa

#8440000
b0 aaaaa

#8450000
b1 aaaaa

#8460000
b10 aaaaa

#8470000
b11 aaaaa

#8480000
b0 aaaaa

#8490000
b1 aaaaa

#8500000
b10 aaaaa

#8510000
b11 aaaaa

#8520000
b0 aaaaa

#8530000
b1 aaaaa

#8540000
b10 aaaaa

#8550000
b11 aaaaa

#8560000
b0 aaaaa

#8570000
b1 aaaaa

#8580000
b10 aaaaa

#8590000
b11 aaaaa

#8600000
b0 aaaaa

#8610000
b1 aaaaa

#8620000
b10 aaaaa

#8630000
b11 aaaaa

#8640000
b0 aaaaa

#8650000
b1 aaaaa

#8660000
b10 aaaaa

#8670000
b11 aaaaa

#8680000
b0 aaaaa

#8690000
b1 aaaaa

#8700000
b10 aaaaa

#8710000
b11 aaaaa

#8720000
b0 aaaaa

#8730000
b1 aaaaa

#8740000
b10 aaaaa

#8750000
b11 aaaaa

#8760000
b0 aaaaa

#8770000
b1 aaaaa

#8780000
b10 aaaaa

#8790000
b11 aaaaa

#8800000
b0 aaaaa

#8810000
b1 aaaaa

#8820000
b10 aaaaa

#8830000
b11 aaaaa

#8840000
b0 aaaaa

#8850000
b1 aaaaa

#8860000
b10 aaaaa

#8870000
b11 aaaaa

#8880000
b0 aaaaa

#8890000
b1 aaaaa

#8900000
b10 aaaaa

#8910000
b11 aaaaa

#8920000
b0 aaaaa

#8930000
b1 aaaaa

#8940000
b10 aaaaa

#8950000
b11 aaaaa

#8960000
b0 aaaaa

#8970000
b1 aaaaa

#8980000
b10 aaaaa

#8990000
b11 aaaaa

#9000000
b0 aaaaa

#9010000
b1 aaaaa

#9020000
b10 aaaaa

#9030000
b11 aaaaa

#9040000
b0 aaaaa

#9050000
b1 aaaaa

#9060000
b10 aaaaa

#9070000
b11 aaaaa

#9080000
b0 aaaaa

#9090000
b1 aaaaa

#9100000
b10 aaaaa

#9110000
b11 aaaaa

#9120000
b0 aaaaa

#9130000
b1 aaaaa

#9140000
b10 aaaaa

#9150000
b11 aaaaa

#9160000
b0 aaaaa

#9170000
b1 aaaaa

#9180000
b10 aaaaa

#9190000
b11 aaaaa

#9200000
b0 aaaaa

#9210000
b1 aaaaa

#9220000
b10 aaaaa

#9230000
b11 aaaaa

#9240000
b0 aaaaa

#9250000
b1 aaaaa

#9260000
b10 aaaaa

#9270000
b11 aaaaa

#9280000
b0 aaaaa

#9290000
b1 aaaaa

#9300000
b10 aaaaa

#9310000
b11 aaaaa

#9320000
b0 aaaaa

#9330000
b1 aaaaa

#9340000
b10 aaaaa

#9350000
b11 aaaaa

#9360000
b0 aaaaa

#9370000
b1 aaaaa

#9380000
b10 aaaaa

#9390000
b11 aaaaa

#9400000
b0 aaaaa

#9410000
b1 aaaaa

#9420000
b10 aaaaa

#9430000
b11 aaaaa

#9440000
b0 aaaaa

#9450000
b1 aaaaa

#9460000
b10 aaaaa

#9470000
b11 aaaaa

#9480000
b0 aaaaa

#9490000
b1 aaaaa

#9500000
b10 aaaaa

#9510000
b11 aaaaa

#9520000
b0 aaaaa

#9530000
b1 aaaaa

#9540000
b10 aaaaa

#9550000
b11 aaaaa

#9560000
b0 aaaaa

#9570000
b1 aaaaa

#9580000
b10 aaaaa

#9590000
b11 aaaaa

#9600000
b0 aaaaa

#9610000
b1 aaaaa

#9620000
b10 aaaaa

#9630000
b11 aaaaa

#9640000
b0 aaaaa

#9650000
b1 aaaaa

#9660000
b10 aaaaa

#9670000
b11 aaaaa

#9680000
b0 aaaaa

#9690000
b1 aaaaa

#9700000
b10 aaaaa

#9710000
b11 aaaaa

#9720000
b0 aaaaa

#9730000
b1 aaaaa

#9740000
b10 aaaaa

#9750000
b11 aaaaa

#9760000
b0 aaaaa

#9770000
b1 aaaaa

#9780000
b10 aaaaa

#9790000
b11 aaaaa

#9800000
b0 aaaaa

#9810000
b1 aaaaa

#9820000
b10 aaaaa

#9830000
b11 aaaaa

#9840000
b0 aaaaa

#9850000
b1 aaaaa

#9860000
b10 aaaaa

#9870000
b11 aaaaa

#9880000
b0 aaaaa

#9890000
b1 aaaaa

#9900000
b10 aaaaa

#9910000
b11 aaaaa

#9920000
b0 aaaaa

#9930000
b1 aaaaa

#9940000
b10 aaaaa

#9950000
b11 aaaaa

#9960000
b0 aaaaa

#9970000
b1 aaaaa

#9980000
b10 aaaaa

#9990000
b11 aaaaa

