pwm_in_vcd.vcd
$date
     Jul 13, 2022       20:40:33
$end

$version
 SystemC 2.3.3-Accellera --- Mar 15 2022 17:17:50
$end

$timescale
     1 ps
$end

$scope module SystemC $end
$var wire    5  aaaaa  m4 [4:0]  $end
$var wire    5  aaaab  m3 [4:0]  $end
$var wire    4  aaaac  m2 [3:0]  $end
$var wire    4  aaaad  m1 [3:0]  $end
$var wire    1  aaaae  pos_out       $end
$var wire    1  aaaaf  pwm       $end
$var wire    1  aaaag  clk       $end
$upscope $end
$enddefinitions  $end

$comment
All initial values are dumped below at time 0 sec = 0 timescale units.
$end

$dumpvars
b0 aaaaa
b0 aaaab
b0 aaaac
b0 aaaad
0aaaae
0aaaaf
0aaaag
$end

#5000
1aaaag

#10000
b1001 aaaaa
b11001 aaaab
b1001 aaaac
b1001 aaaad
0aaaag

#15000
1aaaag

#20000
b0 aaaaa
b0 aaaab
b0 aaaac
b0 aaaad
0aaaag

#25000
1aaaag

#30000
b1001 aaaaa
b11001 aaaab
b1001 aaaac
b1001 aaaad
0aaaag

#35000
1aaaag

#40000
b0 aaaaa
b0 aaaab
b0 aaaac
b0 aaaad
0aaaag

#45000
1aaaag

#50000
b1001 aaaaa
b11001 aaaab
b1001 aaaac
b1001 aaaad
0aaaag

#55000
1aaaag

#60000
b0 aaaaa
b0 aaaab
b0 aaaac
b0 aaaad
0aaaag

#65000
1aaaag

#70000
b1001 aaaaa
b11001 aaaab
b1001 aaaac
b1001 aaaad
0aaaag

#75000
1aaaag

#80000
b0 aaaaa
b0 aaaab
b0 aaaac
b0 aaaad
0aaaag

#85000
1aaaag

#90000
b1001 aaaaa
b11001 aaaab
b1001 aaaac
b1001 aaaad
0aaaag

#95000
1aaaag

#100000
b0 aaaaa
b0 aaaab
b0 aaaac
b0 aaaad
0aaaag

#105000
1aaaag

#110000
b1001 aaaaa
b11001 aaaab
b1001 aaaac
b1001 aaaad
0aaaag

#115000
1aaaag

#120000
b0 aaaaa
b0 aaaab
b0 aaaac
b0 aaaad
0aaaag

#125000
1aaaag

#130000
b1001 aaaaa
b11001 aaaab
b1001 aaaac
b1001 aaaad
0aaaag

#135000
1aaaag

#140000
b0 aaaaa
b0 aaaab
b0 aaaac
b0 aaaad
0aaaag

#145000
1aaaag

#150000
b1001 aaaaa
b11001 aaaab
b1001 aaaac
b1001 aaaad
0aaaag

#155000
1aaaag

#160000
b0 aaaaa
b0 aaaab
b0 aaaac
b0 aaaad
0aaaag

#165000
1aaaag

#170000
b1001 aaaaa
b11001 aaaab
b1001 aaaac
b1001 aaaad
0aaaag

#175000
1aaaag

#180000
b0 aaaaa
b0 aaaab
b0 aaaac
b0 aaaad
0aaaag

#185000
1aaaag

#190000
b1001 aaaaa
b11001 aaaab
b1001 aaaac
b1001 aaaad
0aaaag

#195000
1aaaag

#200000
b0 aaaaa
b0 aaaab
b0 aaaac
b0 aaaad
0aaaag

#205000
1aaaag

#210000
b1001 aaaaa
b11001 aaaab
b1001 aaaac
b1001 aaaad
0aaaag

#215000
1aaaag

#220000
b0 aaaaa
b0 aaaab
b0 aaaac
b0 aaaad
0aaaag

#225000
1aaaag

#230000
b1001 aaaaa
b11001 aaaab
b1001 aaaac
b1001 aaaad
0aaaag

#235000
1aaaag

#240000
b0 aaaaa
b0 aaaab
b0 aaaac
b0 aaaad
0aaaag

#245000
1aaaag

#250000
b1001 aaaaa
b11001 aaaab
b1001 aaaac
b1001 aaaad
0aaaag

#255000
1aaaag

#260000
b0 aaaaa
b0 aaaab
b0 aaaac
b0 aaaad
0aaaag

#265000
1aaaag

#270000
b1001 aaaaa
b11001 aaaab
b1001 aaaac
b1001 aaaad
0aaaag

#275000
1aaaag

#280000
b0 aaaaa
b0 aaaab
b0 aaaac
b0 aaaad
0aaaag

#285000
1aaaag

#290000
b1001 aaaaa
b11001 aaaab
b1001 aaaac
b1001 aaaad
0aaaag

#295000
1aaaag

#300000
b0 aaaaa
b0 aaaab
b0 aaaac
b0 aaaad
0aaaag

#305000
1aaaag

#310000
b1001 aaaaa
b11001 aaaab
b1001 aaaac
b1001 aaaad
0aaaag

#315000
1aaaag

#320000
b0 aaaaa
b0 aaaab
b0 aaaac
b0 aaaad
0aaaag

#325000
1aaaag

#330000
b1001 aaaaa
b11001 aaaab
b1001 aaaac
b1001 aaaad
0aaaag

#335000
1aaaag

#340000
b0 aaaaa
b0 aaaab
b0 aaaac
b0 aaaad
0aaaag

#345000
1aaaag

#350000
b1001 aaaaa
b11001 aaaab
b1001 aaaac
b1001 aaaad
0aaaag

#355000
1aaaag

#360000
b0 aaaaa
b0 aaaab
b0 aaaac
b0 aaaad
0aaaag

#365000
1aaaag

#370000
b1001 aaaaa
b11001 aaaab
b1001 aaaac
b1001 aaaad
0aaaag

#375000
1aaaag

#380000
b0 aaaaa
b0 aaaab
b0 aaaac
b0 aaaad
0aaaag

#385000
1aaaag

#390000
b1001 aaaaa
b11001 aaaab
b1001 aaaac
b1001 aaaad
0aaaag

#395000
1aaaag

#400000
b0 aaaaa
b0 aaaab
b0 aaaac
b0 aaaad
0aaaag

#405000
1aaaag

#410000
b1001 aaaaa
b11001 aaaab
b1001 aaaac
b1001 aaaad
0aaaag

#415000
1aaaag

#420000
b0 aaaaa
b0 aaaab
b0 aaaac
b0 aaaad
0aaaag

#425000
1aaaag

#430000
b1001 aaaaa
b11001 aaaab
b1001 aaaac
b1001 aaaad
0aaaag

#435000
1aaaag

#440000
b0 aaaaa
b0 aaaab
b0 aaaac
b0 aaaad
0aaaag

#445000
1aaaag

#450000
b1001 aaaaa
b11001 aaaab
b1001 aaaac
b1001 aaaad
0aaaag

#455000
1aaaag

#460000
b0 aaaaa
b0 aaaab
b0 aaaac
b0 aaaad
0aaaag

#465000
1aaaag

#470000
b1001 aaaaa
b11001 aaaab
b1001 aaaac
b1001 aaaad
0aaaag

#475000
1aaaag

#480000
b0 aaaaa
b0 aaaab
b0 aaaac
b0 aaaad
0aaaag

#485000
1aaaag

#490000
b1001 aaaaa
b11001 aaaab
b1001 aaaac
b1001 aaaad
0aaaag

#495000
1aaaag

#500000
b0 aaaaa
b0 aaaab
b0 aaaac
b0 aaaad
0aaaag

#505000
1aaaag

#510000
b1001 aaaaa
b11001 aaaab
b1001 aaaac
b1001 aaaad
0aaaag

#515000
1aaaag

#520000
b0 aaaaa
b0 aaaab
b0 aaaac
b0 aaaad
0aaaag

#525000
1aaaag

#530000
b1001 aaaaa
b11001 aaaab
b1001 aaaac
b1001 aaaad
0aaaag

#535000
1aaaag

#540000
b0 aaaaa
b0 aaaab
b0 aaaac
b0 aaaad
0aaaag

#545000
1aaaag

#550000
b1001 aaaaa
b11001 aaaab
b1001 aaaac
b1001 aaaad
0aaaag

#555000
1aaaag

#560000
b0 aaaaa
b0 aaaab
b0 aaaac
b0 aaaad
0aaaag

#565000
1aaaag

#570000
b1001 aaaaa
b11001 aaaab
b1001 aaaac
b1001 aaaad
0aaaag

#575000
1aaaag

#580000
b0 aaaaa
b0 aaaab
b0 aaaac
b0 aaaad
0aaaag

#585000
1aaaag

#590000
b1001 aaaaa
b11001 aaaab
b1001 aaaac
b1001 aaaad
0aaaag

#595000
1aaaag

#600000
b0 aaaaa
b0 aaaab
b0 aaaac
b0 aaaad
0aaaag

#605000
1aaaag

#610000
b1001 aaaaa
b11001 aaaab
b1001 aaaac
b1001 aaaad
0aaaag

#615000
1aaaag

#620000
b0 aaaaa
b0 aaaab
b0 aaaac
b0 aaaad
0aaaag

#625000
1aaaag

#630000
b1001 aaaaa
b11001 aaaab
b1001 aaaac
b1001 aaaad
0aaaag

#635000
1aaaag

#640000
b0 aaaaa
b0 aaaab
b0 aaaac
b0 aaaad
0aaaag

#645000
1aaaag

#650000
b1001 aaaaa
b11001 aaaab
b1001 aaaac
b1001 aaaad
0aaaag

#655000
1aaaag

#660000
b0 aaaaa
b0 aaaab
b0 aaaac
b0 aaaad
0aaaag

#665000
1aaaag

#670000
b1001 aaaaa
b11001 aaaab
b1001 aaaac
b1001 aaaad
0aaaag

#675000
1aaaag

#680000
b0 aaaaa
b0 aaaab
b0 aaaac
b0 aaaad
0aaaag

#685000
1aaaag

#690000
b1001 aaaaa
b11001 aaaab
b1001 aaaac
b1001 aaaad
0aaaag

#695000
1aaaag

#700000
b0 aaaaa
b0 aaaab
b0 aaaac
b0 aaaad
0aaaag

#705000
1aaaag

#710000
b1001 aaaaa
b11001 aaaab
b1001 aaaac
b1001 aaaad
0aaaag

#715000
1aaaag

#720000
b0 aaaaa
b0 aaaab
b0 aaaac
b0 aaaad
0aaaag

#725000
1aaaag

#730000
b1001 aaaaa
b11001 aaaab
b1001 aaaac
b1001 aaaad
0aaaag

#735000
1aaaag

#740000
b0 aaaaa
b0 aaaab
b0 aaaac
b0 aaaad
0aaaag

#745000
1aaaag

#750000
b1001 aaaaa
b11001 aaaab
b1001 aaaac
b1001 aaaad
0aaaag

#755000
1aaaag

#760000
b0 aaaaa
b0 aaaab
b0 aaaac
b0 aaaad
0aaaag

#765000
1aaaag

#770000
b1001 aaaaa
b11001 aaaab
b1001 aaaac
b1001 aaaad
0aaaag

#775000
1aaaag

#780000
b0 aaaaa
b0 aaaab
b0 aaaac
b0 aaaad
0aaaag

#785000
1aaaag

#790000
b1001 aaaaa
b11001 aaaab
b1001 aaaac
b1001 aaaad
0aaaag

#795000
1aaaag

#800000
b0 aaaaa
b0 aaaab
b0 aaaac
b0 aaaad
0aaaag

#805000
1aaaag

#810000
b1001 aaaaa
b11001 aaaab
b1001 aaaac
b1001 aaaad
0aaaag

#815000
1aaaag

#820000
b0 aaaaa
b0 aaaab
b0 aaaac
b0 aaaad
0aaaag

#825000
1aaaag

#830000
b1001 aaaaa
b11001 aaaab
b1001 aaaac
b1001 aaaad
0aaaag

#835000
1aaaag

#840000
b0 aaaaa
b0 aaaab
b0 aaaac
b0 aaaad
0aaaag

#845000
1aaaag

#850000
b1001 aaaaa
b11001 aaaab
b1001 aaaac
b1001 aaaad
0aaaag

#855000
1aaaag

#860000
b0 aaaaa
b0 aaaab
b0 aaaac
b0 aaaad
0aaaag

#865000
1aaaag

#870000
b1001 aaaaa
b11001 aaaab
b1001 aaaac
b1001 aaaad
0aaaag

#875000
1aaaag

#880000
b0 aaaaa
b0 aaaab
b0 aaaac
b0 aaaad
0aaaag

#885000
1aaaag

#890000
b1001 aaaaa
b11001 aaaab
b1001 aaaac
b1001 aaaad
0aaaag

#895000
1aaaag

#900000
b0 aaaaa
b0 aaaab
b0 aaaac
b0 aaaad
0aaaag

#905000
1aaaag

#910000
b1001 aaaaa
b11001 aaaab
b1001 aaaac
b1001 aaaad
0aaaag

#915000
1aaaag

#920000
b0 aaaaa
b0 aaaab
b0 aaaac
b0 aaaad
0aaaag

#925000
1aaaag

#930000
b1001 aaaaa
b11001 aaaab
b1001 aaaac
b1001 aaaad
0aaaag

#935000
1aaaag

#940000
b0 aaaaa
b0 aaaab
b0 aaaac
b0 aaaad
0aaaag

#945000
1aaaag

#950000
b1001 aaaaa
b11001 aaaab
b1001 aaaac
b1001 aaaad
0aaaag

#955000
1aaaag

#960000
b0 aaaaa
b0 aaaab
b0 aaaac
b0 aaaad
0aaaag

#965000
1aaaag

#970000
b1001 aaaaa
b11001 aaaab
b1001 aaaac
b1001 aaaad
0aaaag

#975000
1aaaag

#980000
b0 aaaaa
b0 aaaab
b0 aaaac
b0 aaaad
0aaaag

#985000
1aaaag

#990000
b1001 aaaaa
b11001 aaaab
b1001 aaaac
b1001 aaaad
0aaaag

#995000
1aaaag

#1000000
b0 aaaaa
b0 aaaab
b0 aaaac
b0 aaaad
0aaaag

#1005000
1aaaag

#1010000
b1001 aaaaa
b11001 aaaab
b1001 aaaac
b1001 aaaad
0aaaag

#1015000
1aaaag

#1020000
b0 aaaaa
b0 aaaab
b0 aaaac
b0 aaaad
0aaaag

#1025000
1aaaag

#1030000
b1001 aaaaa
b11001 aaaab
b1001 aaaac
b1001 aaaad
0aaaag

#1035000
1aaaag

#1040000
b0 aaaaa
b0 aaaab
b0 aaaac
b0 aaaad
0aaaag

#1045000
1aaaag

#1050000
b1001 aaaaa
b11001 aaaab
b1001 aaaac
b1001 aaaad
0aaaag

#1055000
1aaaag

#1060000
b0 aaaaa
b0 aaaab
b0 aaaac
b0 aaaad
0aaaag

#1065000
1aaaag

#1070000
b1001 aaaaa
b11001 aaaab
b1001 aaaac
b1001 aaaad
0aaaag

#1075000
1aaaag

#1080000
b0 aaaaa
b0 aaaab
b0 aaaac
b0 aaaad
0aaaag

#1085000
1aaaag

#1090000
b1001 aaaaa
b11001 aaaab
b1001 aaaac
b1001 aaaad
0aaaag

#1095000
1aaaag

#1100000
b0 aaaaa
b0 aaaab
b0 aaaac
b0 aaaad
0aaaag

#1105000
1aaaag

#1110000
b1001 aaaaa
b11001 aaaab
b1001 aaaac
b1001 aaaad
0aaaag

#1115000
1aaaag

#1120000
b0 aaaaa
b0 aaaab
b0 aaaac
b0 aaaad
0aaaag

#1125000
1aaaag

#1130000
b1001 aaaaa
b11001 aaaab
b1001 aaaac
b1001 aaaad
0aaaag

#1135000
1aaaag

#1140000
b0 aaaaa
b0 aaaab
b0 aaaac
b0 aaaad
0aaaag

#1145000
1aaaag

#1150000
b1001 aaaaa
b11001 aaaab
b1001 aaaac
b1001 aaaad
0aaaag

#1155000
1aaaag

#1160000
b0 aaaaa
b0 aaaab
b0 aaaac
b0 aaaad
0aaaag

#1165000
1aaaag

#1170000
b1001 aaaaa
b11001 aaaab
b1001 aaaac
b1001 aaaad
0aaaag

#1175000
1aaaag

#1180000
b0 aaaaa
b0 aaaab
b0 aaaac
b0 aaaad
0aaaag

#1185000
1aaaag

#1190000
b1001 aaaaa
b11001 aaaab
b1001 aaaac
b1001 aaaad
0aaaag

#1195000
1aaaag

#1200000
b0 aaaaa
b0 aaaab
b0 aaaac
b0 aaaad
0aaaag

#1205000
1aaaag

#1210000
b1001 aaaaa
b11001 aaaab
b1001 aaaac
b1001 aaaad
0aaaag

#1215000
1aaaag

#1220000
b0 aaaaa
b0 aaaab
b0 aaaac
b0 aaaad
0aaaag

#1225000
1aaaag

#1230000
b1001 aaaaa
b11001 aaaab
b1001 aaaac
b1001 aaaad
0aaaag

#1235000
1aaaag

#1240000
b0 aaaaa
b0 aaaab
b0 aaaac
b0 aaaad
0aaaag

#1245000
1aaaag

#1250000
b1001 aaaaa
b11001 aaaab
b1001 aaaac
b1001 aaaad
0aaaag

#1255000
1aaaag

#1260000
b0 aaaaa
b0 aaaab
b0 aaaac
b0 aaaad
0aaaag

#1265000
1aaaag

#1270000
b1001 aaaaa
b11001 aaaab
b1001 aaaac
b1001 aaaad
0aaaag

#1275000
1aaaag

#1280000
b0 aaaaa
b0 aaaab
b0 aaaac
b0 aaaad
0aaaag

#1285000
1aaaag

#1290000
b1001 aaaaa
b11001 aaaab
b1001 aaaac
b1001 aaaad
0aaaag

#1295000
1aaaag

#1300000
b0 aaaaa
b0 aaaab
b0 aaaac
b0 aaaad
0aaaag

#1305000
1aaaag

#1310000
b1001 aaaaa
b11001 aaaab
b1001 aaaac
b1001 aaaad
0aaaag

#1315000
1aaaag

#1320000
b0 aaaaa
b0 aaaab
b0 aaaac
b0 aaaad
0aaaag

#1325000
1aaaag

#1330000
b1001 aaaaa
b11001 aaaab
b1001 aaaac
b1001 aaaad
0aaaag

#1335000
1aaaag

#1340000
b0 aaaaa
b0 aaaab
b0 aaaac
b0 aaaad
0aaaag

#1345000
1aaaag

#1350000
b1001 aaaaa
b11001 aaaab
b1001 aaaac
b1001 aaaad
0aaaag

#1355000
1aaaag

#1360000
b0 aaaaa
b0 aaaab
b0 aaaac
b0 aaaad
0aaaag

#1365000
1aaaag

#1370000
b1001 aaaaa
b11001 aaaab
b1001 aaaac
b1001 aaaad
0aaaag

#1375000
1aaaag

#1380000
b0 aaaaa
b0 aaaab
b0 aaaac
b0 aaaad
0aaaag

#1385000
1aaaag

#1390000
b1001 aaaaa
b11001 aaaab
b1001 aaaac
b1001 aaaad
0aaaag

#1395000
1aaaag

#1400000
b0 aaaaa
b0 aaaab
b0 aaaac
b0 aaaad
0aaaag

#1405000
1aaaag

#1410000
b1001 aaaaa
b11001 aaaab
b1001 aaaac
b1001 aaaad
0aaaag

#1415000
1aaaag

#1420000
b0 aaaaa
b0 aaaab
b0 aaaac
b0 aaaad
0aaaag

#1425000
1aaaag

#1430000
b1001 aaaaa
b11001 aaaab
b1001 aaaac
b1001 aaaad
0aaaag

#1435000
1aaaag

#1440000
b0 aaaaa
b0 aaaab
b0 aaaac
b0 aaaad
0aaaag

#1445000
1aaaag

#1450000
b1001 aaaaa
b11001 aaaab
b1001 aaaac
b1001 aaaad
0aaaag

#1455000
1aaaag

#1460000
b0 aaaaa
b0 aaaab
b0 aaaac
b0 aaaad
0aaaag

#1465000
1aaaag

#1470000
b1001 aaaaa
b11001 aaaab
b1001 aaaac
b1001 aaaad
0aaaag

#1475000
1aaaag

#1480000
b0 aaaaa
b0 aaaab
b0 aaaac
b0 aaaad
0aaaag

#1485000
1aaaag

#1490000
b1001 aaaaa
b11001 aaaab
b1001 aaaac
b1001 aaaad
0aaaag

#1495000
1aaaag

#1500000
b0 aaaaa
b0 aaaab
b0 aaaac
b0 aaaad
0aaaag

#1505000
1aaaag

#1510000
b1001 aaaaa
b11001 aaaab
b1001 aaaac
b1001 aaaad
0aaaag

#1515000
1aaaag

#1520000
b0 aaaaa
b0 aaaab
b0 aaaac
b0 aaaad
0aaaag

#1525000
1aaaag

#1530000
b1001 aaaaa
b11001 aaaab
b1001 aaaac
b1001 aaaad
0aaaag

#1535000
1aaaag

#1540000
b0 aaaaa
b0 aaaab
b0 aaaac
b0 aaaad
0aaaag

#1545000
1aaaag

#1550000
b1001 aaaaa
b11001 aaaab
b1001 aaaac
b1001 aaaad
0aaaag

#1555000
1aaaag

#1560000
b0 aaaaa
b0 aaaab
b0 aaaac
b0 aaaad
0aaaag

#1565000
1aaaag

#1570000
b1001 aaaaa
b11001 aaaab
b1001 aaaac
b1001 aaaad
0aaaag

#1575000
1aaaag

#1580000
b0 aaaaa
b0 aaaab
b0 aaaac
b0 aaaad
0aaaag

#1585000
1aaaag

#1590000
b1001 aaaaa
b11001 aaaab
b1001 aaaac
b1001 aaaad
0aaaag

#1595000
1aaaag

#1600000
b0 aaaaa
b0 aaaab
b0 aaaac
b0 aaaad
0aaaag

#1605000
1aaaag

#1610000
b1001 aaaaa
b11001 aaaab
b1001 aaaac
b1001 aaaad
0aaaag

#1615000
1aaaag

#1620000
b0 aaaaa
b0 aaaab
b0 aaaac
b0 aaaad
0aaaag

#1625000
1aaaag

#1630000
b1001 aaaaa
b11001 aaaab
b1001 aaaac
b1001 aaaad
0aaaag

#1635000
1aaaag

#1640000
b0 aaaaa
b0 aaaab
b0 aaaac
b0 aaaad
0aaaag

#1645000
1aaaag

#1650000
b1001 aaaaa
b11001 aaaab
b1001 aaaac
b1001 aaaad
0aaaag

#1655000
1aaaag

#1660000
b0 aaaaa
b0 aaaab
b0 aaaac
b0 aaaad
0aaaag

#1665000
1aaaag

#1670000
b1001 aaaaa
b11001 aaaab
b1001 aaaac
b1001 aaaad
0aaaag

#1675000
1aaaag

#1680000
b0 aaaaa
b0 aaaab
b0 aaaac
b0 aaaad
0aaaag

#1685000
1aaaag

#1690000
b1001 aaaaa
b11001 aaaab
b1001 aaaac
b1001 aaaad
0aaaag

#1695000
1aaaag

#1700000
b0 aaaaa
b0 aaaab
b0 aaaac
b0 aaaad
0aaaag

#1705000
1aaaag

#1710000
b1001 aaaaa
b11001 aaaab
b1001 aaaac
b1001 aaaad
0aaaag

#1715000
1aaaag

#1720000
b0 aaaaa
b0 aaaab
b0 aaaac
b0 aaaad
0aaaag

#1725000
1aaaag

#1730000
b1001 aaaaa
b11001 aaaab
b1001 aaaac
b1001 aaaad
0aaaag

#1735000
1aaaag

#1740000
b0 aaaaa
b0 aaaab
b0 aaaac
b0 aaaad
0aaaag

#1745000
1aaaag

#1750000
b1001 aaaaa
b11001 aaaab
b1001 aaaac
b1001 aaaad
0aaaag

#1755000
1aaaag

#1760000
b0 aaaaa
b0 aaaab
b0 aaaac
b0 aaaad
0aaaag

#1765000
1aaaag

#1770000
b1001 aaaaa
b11001 aaaab
b1001 aaaac
b1001 aaaad
0aaaag

#1775000
1aaaag

#1780000
b0 aaaaa
b0 aaaab
b0 aaaac
b0 aaaad
0aaaag

#1785000
1aaaag

#1790000
b1001 aaaaa
b11001 aaaab
b1001 aaaac
b1001 aaaad
0aaaag

#1795000
1aaaag

#1800000
b0 aaaaa
b0 aaaab
b0 aaaac
b0 aaaad
0aaaag

#1805000
1aaaag

#1810000
b1001 aaaaa
b11001 aaaab
b1001 aaaac
b1001 aaaad
0aaaag

#1815000
1aaaag

#1820000
b0 aaaaa
b0 aaaab
b0 aaaac
b0 aaaad
0aaaag

#1825000
1aaaag

#1830000
b1001 aaaaa
b11001 aaaab
b1001 aaaac
b1001 aaaad
0aaaag

#1835000
1aaaag

#1840000
b0 aaaaa
b0 aaaab
b0 aaaac
b0 aaaad
0aaaag

#1845000
1aaaag

#1850000
b1001 aaaaa
b11001 aaaab
b1001 aaaac
b1001 aaaad
0aaaag

#1855000
1aaaag

#1860000
b0 aaaaa
b0 aaaab
b0 aaaac
b0 aaaad
0aaaag

#1865000
1aaaag

#1870000
b1001 aaaaa
b11001 aaaab
b1001 aaaac
b1001 aaaad
0aaaag

#1875000
1aaaag

#1880000
b0 aaaaa
b0 aaaab
b0 aaaac
b0 aaaad
0aaaag

#1885000
1aaaag

#1890000
b1001 aaaaa
b11001 aaaab
b1001 aaaac
b1001 aaaad
0aaaag

#1895000
1aaaag

#1900000
b0 aaaaa
b0 aaaab
b0 aaaac
b0 aaaad
0aaaag

#1905000
1aaaag

#1910000
b1001 aaaaa
b11001 aaaab
b1001 aaaac
b1001 aaaad
0aaaag

#1915000
1aaaag

#1920000
b0 aaaaa
b0 aaaab
b0 aaaac
b0 aaaad
0aaaag

#1925000
1aaaag

#1930000
b1001 aaaaa
b11001 aaaab
b1001 aaaac
b1001 aaaad
0aaaag

#1935000
1aaaag

#1940000
b0 aaaaa
b0 aaaab
b0 aaaac
b0 aaaad
0aaaag

#1945000
1aaaag

#1950000
b1001 aaaaa
b11001 aaaab
b1001 aaaac
b1001 aaaad
0aaaag

#1955000
1aaaag

#1960000
b0 aaaaa
b0 aaaab
b0 aaaac
b0 aaaad
0aaaag

#1965000
1aaaag

#1970000
b1001 aaaaa
b11001 aaaab
b1001 aaaac
b1001 aaaad
0aaaag

#1975000
1aaaag

#1980000
b0 aaaaa
b0 aaaab
b0 aaaac
b0 aaaad
0aaaag

#1985000
1aaaag

#1990000
b1001 aaaaa
b11001 aaaab
b1001 aaaac
b1001 aaaad
0aaaag

#1995000
1aaaag

#2000000
b0 aaaaa
b0 aaaab
b0 aaaac
b0 aaaad
0aaaag

#2005000
1aaaag

#2010000
b1001 aaaaa
b11001 aaaab
b1001 aaaac
b1001 aaaad
0aaaag

#2015000
1aaaag

#2020000
b0 aaaaa
b0 aaaab
b0 aaaac
b0 aaaad
0aaaag

#2025000
1aaaag

#2030000
b1001 aaaaa
b11001 aaaab
b1001 aaaac
b1001 aaaad
0aaaag

#2035000
1aaaag

#2040000
b0 aaaaa
b0 aaaab
b0 aaaac
b0 aaaad
0aaaag

#2045000
1aaaag

#2050000
b1001 aaaaa
b11001 aaaab
b1001 aaaac
b1001 aaaad
0aaaag

#2055000
1aaaag

#2060000
b0 aaaaa
b0 aaaab
b0 aaaac
b0 aaaad
0aaaag

#2065000
1aaaag

#2070000
b1001 aaaaa
b11001 aaaab
b1001 aaaac
b1001 aaaad
0aaaag

#2075000
1aaaag

#2080000
b0 aaaaa
b0 aaaab
b0 aaaac
b0 aaaad
0aaaag

#2085000
1aaaag

#2090000
b1001 aaaaa
b11001 aaaab
b1001 aaaac
b1001 aaaad
0aaaag

#2095000
1aaaag

#2100000
b0 aaaaa
b0 aaaab
b0 aaaac
b0 aaaad
0aaaag

#2105000
1aaaag

#2110000
b1001 aaaaa
b11001 aaaab
b1001 aaaac
b1001 aaaad
0aaaag

#2115000
1aaaag

#2120000
b0 aaaaa
b0 aaaab
b0 aaaac
b0 aaaad
0aaaag

#2125000
1aaaag

#2130000
b1001 aaaaa
b11001 aaaab
b1001 aaaac
b1001 aaaad
0aaaag

#2135000
1aaaag

#2140000
b0 aaaaa
b0 aaaab
b0 aaaac
b0 aaaad
0aaaag

#2145000
1aaaag

#2150000
b1001 aaaaa
b11001 aaaab
b1001 aaaac
b1001 aaaad
0aaaag

#2155000
1aaaag

#2160000
b0 aaaaa
b0 aaaab
b0 aaaac
b0 aaaad
0aaaag

#2165000
1aaaag

#2170000
b1001 aaaaa
b11001 aaaab
b1001 aaaac
b1001 aaaad
0aaaag

#2175000
1aaaag

#2180000
b0 aaaaa
b0 aaaab
b0 aaaac
b0 aaaad
0aaaag

#2185000
1aaaag

#2190000
b1001 aaaaa
b11001 aaaab
b1001 aaaac
b1001 aaaad
0aaaag

#2195000
1aaaag

#2200000
b0 aaaaa
b0 aaaab
b0 aaaac
b0 aaaad
0aaaag

#2205000
1aaaag

#2210000
b1001 aaaaa
b11001 aaaab
b1001 aaaac
b1001 aaaad
0aaaag

#2215000
1aaaag

#2220000
b0 aaaaa
b0 aaaab
b0 aaaac
b0 aaaad
0aaaag

#2225000
1aaaag

#2230000
b1001 aaaaa
b11001 aaaab
b1001 aaaac
b1001 aaaad
0aaaag

#2235000
1aaaag

#2240000
b0 aaaaa
b0 aaaab
b0 aaaac
b0 aaaad
0aaaag

#2245000
1aaaag

#2250000
b1001 aaaaa
b11001 aaaab
b1001 aaaac
b1001 aaaad
0aaaag

#2255000
1aaaag

#2260000
b0 aaaaa
b0 aaaab
b0 aaaac
b0 aaaad
0aaaag

#2265000
1aaaag

#2270000
b1001 aaaaa
b11001 aaaab
b1001 aaaac
b1001 aaaad
0aaaag

#2275000
1aaaag

#2280000
b0 aaaaa
b0 aaaab
b0 aaaac
b0 aaaad
0aaaag

#2285000
1aaaag

#2290000
b1001 aaaaa
b11001 aaaab
b1001 aaaac
b1001 aaaad
0aaaag

#2295000
1aaaag

#2300000
b0 aaaaa
b0 aaaab
b0 aaaac
b0 aaaad
0aaaag

#2305000
1aaaag

#2310000
b1001 aaaaa
b11001 aaaab
b1001 aaaac
b1001 aaaad
0aaaag

#2315000
1aaaag

#2320000
b0 aaaaa
b0 aaaab
b0 aaaac
b0 aaaad
0aaaag

#2325000
1aaaag

#2330000
b1001 aaaaa
b11001 aaaab
b1001 aaaac
b1001 aaaad
0aaaag

#2335000
1aaaag

#2340000
b0 aaaaa
b0 aaaab
b0 aaaac
b0 aaaad
0aaaag

#2345000
1aaaag

#2350000
b1001 aaaaa
b11001 aaaab
b1001 aaaac
b1001 aaaad
0aaaag

#2355000
1aaaag

#2360000
b0 aaaaa
b0 aaaab
b0 aaaac
b0 aaaad
0aaaag

#2365000
1aaaag

#2370000
b1001 aaaaa
b11001 aaaab
b1001 aaaac
b1001 aaaad
0aaaag

#2375000
1aaaag

#2380000
b0 aaaaa
b0 aaaab
b0 aaaac
b0 aaaad
0aaaag

#2385000
1aaaag

#2390000
b1001 aaaaa
b11001 aaaab
b1001 aaaac
b1001 aaaad
0aaaag

#2395000
1aaaag

#2400000
b0 aaaaa
b0 aaaab
b0 aaaac
b0 aaaad
0aaaag

#2405000
1aaaag

#2410000
b1001 aaaaa
b11001 aaaab
b1001 aaaac
b1001 aaaad
0aaaag

#2415000
1aaaag

#2420000
b0 aaaaa
b0 aaaab
b0 aaaac
b0 aaaad
0aaaag

#2425000
1aaaag

#2430000
b1001 aaaaa
b11001 aaaab
b1001 aaaac
b1001 aaaad
0aaaag

#2435000
1aaaag

#2440000
b0 aaaaa
b0 aaaab
b0 aaaac
b0 aaaad
0aaaag

#2445000
1aaaag

#2450000
b1001 aaaaa
b11001 aaaab
b1001 aaaac
b1001 aaaad
0aaaag

#2455000
1aaaag

#2460000
b0 aaaaa
b0 aaaab
b0 aaaac
b0 aaaad
0aaaag

#2465000
1aaaag

#2470000
b1001 aaaaa
b11001 aaaab
b1001 aaaac
b1001 aaaad
0aaaag

#2475000
1aaaag

#2480000
b0 aaaaa
b0 aaaab
b0 aaaac
b0 aaaad
0aaaag

#2485000
1aaaag

#2490000
b1001 aaaaa
b11001 aaaab
b1001 aaaac
b1001 aaaad
0aaaag

#2495000
1aaaag

#2500000
b0 aaaaa
b0 aaaab
b0 aaaac
b0 aaaad
0aaaag

#2505000
1aaaag

#2510000
b1001 aaaaa
b11001 aaaab
b1001 aaaac
b1001 aaaad
0aaaag

#2515000
1aaaag

#2520000
b0 aaaaa
b0 aaaab
b0 aaaac
b0 aaaad
0aaaag

#2525000
1aaaag

#2530000
b1001 aaaaa
b11001 aaaab
b1001 aaaac
b1001 aaaad
0aaaag

#2535000
1aaaag

#2540000
b0 aaaaa
b0 aaaab
b0 aaaac
b0 aaaad
0aaaag

#2545000
1aaaag

#2550000
b1001 aaaaa
b11001 aaaab
b1001 aaaac
b1001 aaaad
0aaaag

#2555000
1aaaag

#2560000
b0 aaaaa
b0 aaaab
b0 aaaac
b0 aaaad
0aaaag

#2565000
1aaaag

#2570000
b1001 aaaaa
b11001 aaaab
b1001 aaaac
b1001 aaaad
0aaaag

#2575000
1aaaag

#2580000
b0 aaaaa
b0 aaaab
b0 aaaac
b0 aaaad
0aaaag

#2585000
1aaaag

#2590000
b1001 aaaaa
b11001 aaaab
b1001 aaaac
b1001 aaaad
0aaaag

#2595000
1aaaag

#2600000
b0 aaaaa
b0 aaaab
b0 aaaac
b0 aaaad
0aaaag

