top1.vcd
$date
	Fri Jul 15 15:38:06 2022
$end
$version
	GTKWave Analyzer v3.3.100 (w)1999-2019 BSI
$end
$timescale
	1ps
$end
$scope module SystemC $end
$var wire 1 $ out $end
$var wire 1 # count $end
$var wire 2 % rst[1:0] $end
$var wire 1 " CLK $end
$upscope $end
$enddefinitions $end
$dumpvars
#0
b0 %
0#
1$
0"
#5000
1"
1#
#10000
0"
b11 %
#15000
1"
0$
#20000
b0 %
0"
#25000
1"
1$
0#
#30000
0"
b11 %
#35000
1#
0$
1"
#40000
0"
b0 %
#45000
1"
0#
1$
#50000
0"
b11 %
#55000
1"
0$
1#
#60000
0"
b0 %
#65000
1"
0#
1$
#70000
0"
b11 %
#75000
1"
0$
1#
#80000
0"
b0 %
#85000
1"
0#
1$
#90000
0"
b11 %
#95000
1"
0$
1#
#100000
0"
b0 %
#105000
1"
0#
1$
#110000
0"
b11 %
#115000
1"
0$
1#
#120000
0"
b0 %
#125000
1"
0#
1$
#130000
0"
b11 %
#135000
1"
0$
1#
#140000
0"
b0 %
#145000
1"
0#
1$
#150000
0"
b11 %
#155000
1"
0$
1#
#160000
0"
b0 %
#165000
1"
0#
1$
#170000
0"
b11 %
#175000
1"
0$
1#
#180000
0"
b0 %
#185000
1"
0#
1$
#190000
0"
b11 %
#195000
1"
0$
1#
#200000
0"
b0 %
#205000
1"
0#
1$
#210000
0"
b11 %
#215000
1"
0$
1#
#220000
0"
b0 %
#225000
1"
0#
1$
#230000
0"
b11 %
#235000
1"
0$
1#
#240000
0"
b0 %
#245000
1"
0#
1$
#250000
0"
b11 %
#255000
1"
0$
1#
#260000
0"
b0 %
#265000
1"
0#
1$
#270000
0"
b11 %
#275000
1"
0$
1#
#280000
0"
b0 %
#285000
1"
0#
1$
#290000
0"
b11 %
#295000
1"
0$
1#
#300000
0"
b0 %
#305000
1"
0#
1$
#310000
0"
b11 %
#315000
1"
0$
1#
#320000
0"
b0 %
#325000
1"
0#
1$
#330000
0"
b11 %
#335000
1"
0$
1#
#340000
0"
b0 %
#345000
1"
0#
1$
#350000
0"
b11 %
#355000
1"
0$
1#
#360000
0"
b0 %
#365000
1"
0#
1$
#370000
0"
b11 %
#375000
1"
0$
1#
#380000
0"
b0 %
#385000
1"
0#
1$
#390000
0"
b11 %
#395000
1"
0$
1#
#400000
0"
b0 %
#405000
1"
0#
1$
#410000
0"
b11 %
#415000
1"
0$
1#
#420000
0"
b0 %
#425000
1"
0#
1$
#430000
0"
b11 %
#435000
1"
0$
1#
#440000
0"
b0 %
#445000
1"
0#
1$
#450000
0"
b11 %
#455000
1"
0$
1#
#460000
0"
b0 %
#465000
1"
0#
1$
#470000
0"
b11 %
#475000
1"
0$
1#
#480000
0"
b0 %
#485000
1"
0#
1$
#490000
0"
b11 %
#495000
1"
0$
1#
#500000
0"
b0 %
#505000
1"
0#
1$
#510000
0"
b11 %
#515000
1"
0$
1#
#520000
0"
b0 %
#525000
1"
0#
1$
#530000
0"
b11 %
#535000
1"
0$
1#
#540000
0"
b0 %
#545000
1"
0#
1$
#550000
0"
b11 %
#555000
1"
0$
1#
#560000
0"
b0 %
#565000
1"
0#
1$
#570000
0"
b11 %
#575000
1"
0$
1#
#580000
0"
b0 %
#585000
1"
0#
1$
#590000
0"
b11 %
#595000
1"
0$
1#
#600000
0"
b0 %
#605000
1"
0#
1$
#610000
0"
b11 %
#615000
1"
0$
1#
#620000
0"
b0 %
#625000
1"
0#
1$
#630000
0"
b11 %
#635000
1"
0$
1#
#640000
0"
b0 %
#645000
1"
0#
1$
#650000
0"
b11 %
#655000
1"
0$
1#
#660000
0"
b0 %
#665000
1"
0#
1$
#670000
0"
b11 %
#675000
1"
0$
1#
#680000
0"
b0 %
#685000
1"
0#
1$
#690000
0"
b11 %
#695000
1"
0$
1#
#700000
0"
b0 %
#705000
1"
0#
1$
#710000
0"
b11 %
#715000
1"
0$
1#
#720000
0"
b0 %
#725000
1"
0#
1$
#730000
0"
b11 %
#735000
1"
0$
1#
#740000
0"
b0 %
#745000
1"
0#
1$
#750000
0"
b11 %
#755000
1"
0$
1#
#760000
0"
b0 %
#765000
1"
0#
1$
#770000
0"
b11 %
#775000
1"
0$
1#
#780000
0"
b0 %
#785000
1"
0#
1$
#790000
0"
b11 %
#795000
1"
0$
1#
#800000
0"
b0 %
#805000
1"
0#
1$
#810000
0"
b11 %
#815000
1"
0$
1#
#820000
0"
b0 %
#825000
1"
0#
1$
#830000
0"
b11 %
#835000
1"
0$
1#
#840000
0"
b0 %
#845000
1"
0#
1$
#850000
0"
b11 %
#855000
1"
0$
1#
#860000
0"
b0 %
#865000
1"
0#
1$
#870000
0"
b11 %
#875000
1"
0$
1#
#880000
0"
b0 %
#885000
1"
0#
1$
#890000
0"
b11 %
#895000
1"
0$
1#
#900000
0"
b0 %
#905000
1"
0#
1$
#910000
0"
b11 %
#915000
1"
0$
1#
#920000
0"
b0 %
#925000
1"
0#
1$
#930000
0"
b11 %
#935000
1"
0$
1#
#940000
0"
b0 %
#945000
1"
0#
1$
#950000
0"
b11 %
#955000
1"
0$
1#
#960000
0"
b0 %
#965000
1"
0#
1$
#970000
0"
b11 %
#975000
1"
0$
1#
#980000
0"
b0 %
#985000
1"
0#
1$
#990000
0"
b11 %
#995000
1"
0$
1#
#1000000
0"
b0 %
#1005000
1"
0#
1$
#1010000
0"
b11 %
#1015000
1"
0$
1#
#1020000
0"
b0 %
#1025000
1"
0#
1$
#1030000
0"
b11 %
#1035000
1"
0$
1#
#1040000
0"
b0 %
#1045000
1"
0#
1$
#1050000
0"
b11 %
#1055000
1"
0$
1#
#1060000
0"
b0 %
#1065000
1"
0#
1$
#1070000
0"
b11 %
#1075000
1"
0$
1#
#1080000
0"
b0 %
#1085000
1"
0#
1$
#1090000
0"
b11 %
#1095000
1"
0$
1#
#1100000
0"
b0 %
#1105000
1"
0#
1$
#1110000
0"
b11 %
#1115000
1"
0$
1#
#1120000
0"
b0 %
#1125000
1"
0#
1$
#1130000
0"
b11 %
#1135000
1"
0$
1#
#1140000
0"
b0 %
#1145000
1"
0#
1$
#1150000
0"
b11 %
#1155000
1"
0$
1#
#1160000
0"
b0 %
#1165000
1"
0#
1$
#1170000
0"
b11 %
#1175000
1"
0$
1#
#1180000
0"
b0 %
#1185000
1"
0#
1$
#1190000
0"
b11 %
#1195000
1"
0$
1#
#1200000
0"
b0 %
#1205000
1"
0#
1$
#1210000
0"
b11 %
#1215000
1"
0$
1#
#1220000
0"
b0 %
#1225000
1"
0#
1$
#1230000
0"
b11 %
#1235000
1"
0$
1#
#1240000
0"
b0 %
#1245000
1"
0#
1$
#1250000
0"
b11 %
#1255000
1"
0$
1#
#1260000
0"
b0 %
#1265000
1"
0#
1$
#1270000
0"
b11 %
#1275000
1"
0$
1#
#1280000
0"
b0 %
#1285000
1"
0#
1$
#1290000
0"
b11 %
#1295000
1"
0$
1#
#1300000
0"
b0 %
#1305000
1"
0#
1$
#1310000
0"
b11 %
#1315000
1"
0$
1#
#1320000
0"
b0 %
#1325000
1"
0#
1$
#1330000
0"
b11 %
#1335000
1"
0$
1#
#1340000
0"
b0 %
#1345000
1"
0#
1$
#1350000
0"
b11 %
#1355000
1"
0$
1#
#1360000
0"
b0 %
#1365000
1"
0#
1$
#1370000
0"
b11 %
#1375000
1"
0$
1#
#1380000
0"
b0 %
#1385000
1"
0#
1$
#1390000
0"
b11 %
#1395000
1"
0$
1#
#1400000
0"
b0 %
#1405000
1"
0#
1$
#1410000
0"
b11 %
#1415000
1"
0$
1#
#1420000
0"
b0 %
#1425000
1"
0#
1$
#1430000
0"
b11 %
#1435000
1"
0$
1#
#1440000
0"
b0 %
#1445000
1"
0#
1$
#1450000
0"
b11 %
#1455000
1"
0$
1#
#1460000
0"
b0 %
#1465000
1"
0#
1$
#1470000
0"
b11 %
#1475000
1"
0$
1#
#1480000
0"
b0 %
#1485000
1"
0#
1$
#1490000
0"
b11 %
#1495000
1"
0$
1#
#1500000
0"
b0 %
#1505000
1"
0#
1$
#1510000
0"
b11 %
#1515000
1"
0$
1#
#1520000
0"
b0 %
#1525000
1"
0#
1$
#1530000
0"
b11 %
#1535000
1"
0$
1#
#1540000
0"
b0 %
#1545000
1"
0#
1$
#1550000
0"
b11 %
#1555000
1"
0$
1#
#1560000
0"
b0 %
#1565000
1"
0#
1$
#1570000
0"
b11 %
#1575000
1"
0$
1#
#1580000
0"
b0 %
#1585000
1"
0#
1$
#1590000
0"
b11 %
#1595000
1"
0$
1#
#1600000
0"
b0 %
#1605000
1"
0#
1$
#1610000
0"
b11 %
#1615000
1"
0$
1#
#1620000
0"
b0 %
#1625000
1"
0#
1$
#1630000
0"
b11 %
#1635000
1"
0$
1#
#1640000
0"
b0 %
#1645000
1"
0#
1$
#1650000
0"
b11 %
#1655000
1"
0$
1#
#1660000
0"
b0 %
#1665000
1"
0#
1$
#1670000
0"
b11 %
#1675000
1"
0$
1#
#1680000
0"
b0 %
#1685000
1"
0#
1$
#1690000
0"
b11 %
#1695000
1"
0$
1#
#1700000
0"
b0 %
#1705000
1"
0#
1$
#1710000
0"
b11 %
#1715000
1"
0$
1#
#1720000
0"
b0 %
#1725000
1"
0#
1$
#1730000
0"
b11 %
#1735000
1"
0$
1#
#1740000
0"
b0 %
#1745000
1"
0#
1$
#1750000
0"
b11 %
#1755000
1"
0$
1#
#1760000
0"
b0 %
#1765000
1"
0#
1$
#1770000
0"
b11 %
#1775000
1"
0$
1#
#1780000
0"
b0 %
#1785000
1"
0#
1$
#1790000
0"
b11 %
#1795000
1"
0$
1#
#1800000
0"
b0 %
#1805000
1"
0#
1$
#1810000
0"
b11 %
#1815000
1"
0$
1#
#1820000
0"
b0 %
#1825000
1"
0#
1$
#1830000
0"
b11 %
#1835000
1"
0$
1#
#1840000
0"
b0 %
#1845000
1"
0#
1$
#1850000
0"
b11 %
#1855000
1"
0$
1#
#1860000
0"
b0 %
#1865000
1"
0#
1$
#1870000
0"
b11 %
#1875000
1"
0$
1#
#1880000
0"
b0 %
#1885000
1"
0#
1$
#1890000
0"
b11 %
#1895000
1"
0$
1#
#1900000
0"
b0 %
#1905000
1"
0#
1$
#1910000
0"
b11 %
#1915000
1"
0$
1#
#1920000
0"
b0 %
#1925000
1"
0#
1$
#1930000
0"
b11 %
#1935000
1"
0$
1#
#1940000
0"
b0 %
#1945000
1"
0#
1$
#1950000
0"
b11 %
#1955000
1"
0$
1#
#1960000
0"
b0 %
#1965000
1"
0#
1$
#1970000
0"
b11 %
#1975000
1"
0$
1#
#1980000
0"
b0 %
#1985000
1"
0#
1$
#1990000
0"
b11 %
#1995000
1"
0$
1#
#2000000
0"
b0 %
#2005000
1"
0#
1$
#2010000
0"
b11 %
#2015000
1"
0$
1#
#2020000
0"
b0 %
#2025000
1"
0#
1$
#2030000
0"
b11 %
#2035000
1"
0$
1#
#2040000
0"
b0 %
#2045000
1"
0#
1$
#2050000
0"
b11 %
#2055000
1"
0$
1#
#2060000
0"
b0 %
#2065000
1"
0#
1$
#2070000
0"
b11 %
#2075000
1"
0$
1#
#2080000
0"
b0 %
#2085000
1"
0#
1$
#2090000
0"
b11 %
#2095000
1"
0$
1#
#2100000
0"
b0 %
#2105000
1"
0#
1$
#2110000
0"
b11 %
#2115000
1"
0$
1#
#2120000
0"
b0 %
#2125000
1"
0#
1$
#2130000
0"
b11 %
#2135000
1"
0$
1#
#2140000
0"
b0 %
#2145000
1"
0#
1$
#2150000
0"
b11 %
#2155000
1"
0$
1#
#2160000
0"
b0 %
#2165000
1"
0#
1$
#2170000
0"
b11 %
#2175000
1"
0$
1#
#2180000
0"
b0 %
#2185000
1"
0#
1$
#2190000
0"
b11 %
#2195000
1"
0$
1#
#2200000
0"
b0 %
#2205000
1"
0#
1$
#2210000
0"
b11 %
#2215000
1"
0$
1#
#2220000
0"
b0 %
#2225000
1"
0#
1$
#2230000
0"
b11 %
#2235000
1"
0$
1#
#2240000
0"
b0 %
#2245000
1"
0#
1$
#2250000
0"
b11 %
#2255000
1"
0$
1#
#2260000
0"
b0 %
#2265000
1"
0#
1$
#2270000
0"
b11 %
#2275000
1"
0$
1#
#2280000
0"
b0 %
#2285000
1"
0#
1$
#2290000
0"
b11 %
#2295000
1"
0$
1#
#2300000
0"
b0 %
#2305000
1"
0#
1$
#2310000
0"
b11 %
#2315000
1"
0$
1#
#2320000
0"
b0 %
#2325000
1"
0#
1$
#2330000
0"
b11 %
#2335000
1"
0$
1#
#2340000
0"
b0 %
#2345000
1"
0#
1$
#2350000
0"
b11 %
#2355000
1"
0$
1#
#2360000
0"
b0 %
#2365000
1"
0#
1$
#2370000
0"
b11 %
#2375000
1"
0$
1#
#2380000
0"
b0 %
#2385000
1"
0#
1$
#2390000
0"
b11 %
#2395000
1"
0$
1#
#2400000
0"
b0 %
#2405000
1"
0#
1$
#2410000
0"
b11 %
#2415000
1"
0$
1#
#2420000
0"
b0 %
#2425000
1"
0#
1$
#2430000
0"
b11 %
#2435000
1"
0$
1#
#2440000
0"
b0 %
#2445000
1"
0#
1$
#2450000
0"
b11 %
#2455000
1"
0$
1#
#2460000
0"
b0 %
#2465000
1"
0#
1$
#2470000
0"
b11 %
#2475000
1"
0$
1#
#2480000
0"
b0 %
#2485000
1"
0#
1$
#2490000
0"
b11 %
#2495000
1"
0$
1#
#2500000
0"
b0 %
#2505000
1"
0#
1$
#2510000
0"
b11 %
#2515000
1"
0$
1#
#2520000
0"
b0 %
#2525000
1"
0#
1$
#2530000
0"
b11 %
#2535000
1"
0$
1#
#2540000
0"
b0 %
#2545000
1"
0#
1$
#2550000
0"
b11 %
#2555000
1"
0$
1#
#2560000
0"
b0 %
#2565000
1"
0#
1$
#2570000
0"
b11 %
#2575000
1"
0$
1#
#2580000
0"
b0 %
#2585000
1"
0#
1$
#2590000
0"
b11 %
#2595000
1"
0$
1#
#2600000
0"
b0 %
#2605000
1"
0#
1$
#2610000
0"
b11 %
#2615000
1"
0$
1#
#2620000
0"
b0 %
#2625000
1"
0#
1$
#2630000
0"
b11 %
#2635000
1"
0$
1#
#2640000
0"
b0 %
#2645000
1"
0#
1$
#2650000
0"
b11 %
#2655000
1"
0$
1#
#2660000
0"
b0 %
#2665000
1"
0#
1$
#2670000
0"
b11 %
#2675000
1"
0$
1#
#2680000
0"
b0 %
#2685000
1"
0#
1$
#2690000
0"
b11 %
#2695000
1"
0$
1#
#2700000
0"
b0 %
#2705000
1"
0#
1$
#2710000
0"
b11 %
#2715000
1"
0$
1#
#2720000
0"
b0 %
#2725000
1"
0#
1$
#2730000
0"
b11 %
#2735000
1"
0$
1#
#2740000
0"
b0 %
#2745000
1"
0#
1$
#2750000
0"
b11 %
#2755000
1"
0$
1#
#2760000
0"
b0 %
#2765000
1"
0#
1$
#2770000
0"
b11 %
#2775000
1"
0$
1#
#2780000
0"
b0 %
#2785000
1"
0#
1$
#2790000
0"
b11 %
#2795000
1"
0$
1#
#2800000
0"
b0 %
#2805000
1"
0#
1$
#2810000
0"
b11 %
#2815000
1"
0$
1#
#2820000
0"
b0 %
#2825000
1"
0#
1$
#2830000
0"
b11 %
#2835000
1"
0$
1#
#2840000
0"
b0 %
#2845000
1"
0#
1$
#2850000
0"
b11 %
#2855000
1"
0$
1#
#2860000
0"
b0 %
#2865000
1"
0#
1$
#2870000
0"
b11 %
#2875000
1"
0$
1#
#2880000
0"
b0 %
#2885000
1"
0#
1$
#2890000
0"
b11 %
#2895000
1"
0$
1#
#2900000
0"
b0 %
#2905000
1"
0#
1$
#2910000
0"
b11 %
#2915000
1"
0$
1#
#2920000
0"
b0 %
#2925000
1"
0#
1$
#2930000
0"
b11 %
#2935000
1"
0$
1#
#2940000
0"
b0 %
#2945000
1"
0#
1$
#2950000
0"
b11 %
#2955000
1"
0$
1#
#2960000
0"
b0 %
#2965000
1"
0#
1$
#2970000
0"
b11 %
#2975000
1"
0$
1#
#2980000
0"
b0 %
#2985000
1"
0#
1$
#2990000
0"
b11 %
#2995000
1"
0$
1#
#3000000
0"
b0 %
#3005000
1"
0#
1$
#3010000
0"
b11 %
#3015000
1"
0$
1#
#3020000
0"
b0 %
#3025000
1"
0#
1$
#3030000
0"
b11 %
#3035000
1"
0$
1#
#3040000
0"
b0 %
#3045000
1"
0#
1$
#3050000
0"
b11 %
#3055000
1"
0$
1#
#3060000
0"
b0 %
#3065000
1"
0#
1$
#3070000
0"
b11 %
#3075000
1"
0$
1#
#3080000
0"
b0 %
#3085000
1"
0#
1$
#3090000
0"
b11 %
#3095000
1"
0$
1#
#3100000
0"
b0 %
#3105000
1"
0#
1$
#3110000
0"
b11 %
#3115000
1"
0$
1#
#3120000
0"
b0 %
#3125000
1"
0#
1$
#3130000
0"
b11 %
#3135000
1"
0$
1#
#3140000
0"
b0 %
#3145000
1"
0#
1$
#3150000
0"
b11 %
#3155000
1"
0$
1#
#3160000
0"
b0 %
#3165000
1"
0#
1$
#3170000
0"
b11 %
#3175000
1"
0$
1#
#3180000
0"
b0 %
#3185000
1"
0#
1$
#3190000
0"
b11 %
#3195000
1"
0$
1#
#3200000
0"
b0 %
#3205000
1"
0#
1$
#3210000
0"
b11 %
#3215000
1"
0$
1#
#3220000
0"
b0 %
#3225000
1"
0#
1$
#3230000
0"
b11 %
#3235000
1"
0$
1#
#3240000
0"
b0 %
#3245000
1"
0#
1$
#3250000
0"
b11 %
#3255000
1"
0$
1#
#3260000
0"
b0 %
#3265000
1"
0#
1$
#3270000
0"
b11 %
#3275000
1"
0$
1#
#3280000
0"
b0 %
#3285000
1"
0#
1$
#3290000
0"
b11 %
#3295000
1"
0$
1#
#3300000
0"
b0 %
#3305000
1"
0#
1$
#3310000
0"
b11 %
#3315000
1"
0$
1#
#3320000
0"
b0 %
#3325000
1"
0#
1$
#3330000
0"
b11 %
#3335000
1"
0$
1#
#3340000
0"
b0 %
#3345000
1"
0#
1$
#3350000
0"
b11 %
#3355000
1"
0$
1#
#3360000
0"
b0 %
#3365000
1"
0#
1$
#3370000
0"
b11 %
#3375000
1"
0$
1#
#3380000
0"
b0 %
#3385000
1"
0#
1$
#3390000
0"
b11 %
#3395000
1"
0$
1#
#3400000
0"
b0 %
#3405000
1"
0#
1$
#3410000
0"
b11 %
#3415000
1"
0$
1#
#3420000
0"
b0 %
#3425000
1"
0#
1$
#3430000
0"
b11 %
#3435000
1"
0$
1#
#3440000
0"
b0 %
#3445000
1"
0#
1$
#3450000
0"
b11 %
#3455000
1"
0$
1#
#3460000
0"
b0 %
#3465000
1"
0#
1$
#3470000
0"
b11 %
#3475000
1"
0$
1#
#3480000
0"
b0 %
#3485000
1"
0#
1$
#3490000
0"
b11 %
#3495000
1"
0$
1#
#3500000
0"
b0 %
#3505000
1"
0#
1$
#3510000
0"
b11 %
#3515000
1"
0$
1#
#3520000
0"
b0 %
#3525000
1"
0#
1$
#3530000
0"
b11 %
#3535000
1"
0$
1#
#3540000
0"
b0 %
#3545000
1"
0#
1$
#3550000
0"
b11 %
#3555000
1"
0$
1#
#3560000
0"
b0 %
#3565000
1"
0#
1$
#3570000
0"
b11 %
#3575000
1"
0$
1#
#3580000
0"
b0 %
#3585000
1"
0#
1$
#3590000
0"
b11 %
#3595000
1"
0$
1#
#3600000
0"
b0 %
#3605000
1"
0#
1$
#3610000
0"
b11 %
#3615000
1"
0$
1#
#3620000
0"
b0 %
#3625000
1"
0#
1$
#3630000
0"
b11 %
#3635000
1"
0$
1#
#3640000
0"
b0 %
#3645000
1"
0#
1$
#3650000
0"
b11 %
#3655000
1"
0$
1#
#3660000
0"
b0 %
#3665000
1"
0#
1$
#3670000
0"
b11 %
#3675000
1"
0$
1#
#3680000
0"
b0 %
#3685000
1"
0#
1$
#3690000
0"
b11 %
#3695000
1"
0$
1#
#3700000
0"
b0 %
#3705000
1"
0#
1$
#3710000
0"
b11 %
#3715000
1"
0$
1#
#3720000
0"
b0 %
#3725000
1"
0#
1$
#3730000
0"
b11 %
#3735000
1"
0$
1#
#3740000
0"
b0 %
#3745000
1"
0#
1$
#3750000
0"
b11 %
#3755000
1"
0$
1#
#3760000
0"
b0 %
#3765000
1"
0#
1$
#3770000
0"
b11 %
#3775000
1"
0$
1#
#3780000
0"
b0 %
#3785000
1"
0#
1$
#3790000
0"
b11 %
#3795000
1"
0$
1#
#3800000
0"
b0 %
#3805000
1"
0#
1$
#3810000
0"
b11 %
#3815000
1"
0$
1#
#3820000
0"
b0 %
#3825000
1"
0#
1$
#3830000
0"
b11 %
#3835000
1"
0$
1#
#3840000
0"
b0 %
#3845000
1"
0#
1$
#3850000
0"
b11 %
#3855000
1"
0$
1#
#3860000
0"
b0 %
#3865000
1"
0#
1$
#3870000
0"
b11 %
#3875000
1"
0$
1#
#3880000
0"
b0 %
#3885000
1"
0#
1$
#3890000
0"
b11 %
#3895000
1"
0$
1#
#3900000
0"
b0 %
#3905000
1"
0#
1$
#3910000
0"
b11 %
#3915000
1"
0$
1#
#3920000
0"
b0 %
#3925000
1"
0#
1$
#3930000
0"
b11 %
#3935000
1"
0$
1#
#3940000
0"
b0 %
#3945000
1"
0#
1$
#3950000
0"
b11 %
#3955000
1"
0$
1#
#3960000
0"
b0 %
#3965000
1"
0#
1$
#3970000
0"
b11 %
#3975000
1"
0$
1#
#3980000
0"
b0 %
#3985000
1"
0#
1$
#3990000
0"
b11 %
#3995000
1"
0$
1#
#4000000
0"
b0 %
#4005000
1"
0#
1$
#4010000
0"
b11 %
#4015000
1"
0$
1#
#4020000
0"
b0 %
#4025000
1"
0#
1$
#4030000
0"
b11 %
#4035000
1"
0$
1#
#4040000
0"
b0 %
#4045000
1"
0#
1$
#4050000
0"
b11 %
#4055000
1"
0$
1#
#4060000
0"
b0 %
#4065000
1"
0#
1$
#4070000
0"
b11 %
#4075000
1"
0$
1#
#4080000
0"
b0 %
#4085000
1"
0#
1$
#4090000
0"
b11 %
#4095000
1"
0$
1#
#4100000
0"
b0 %
#4105000
1"
0#
1$
#4110000
0"
b11 %
#4115000
1"
0$
1#
#4120000
0"
b0 %
#4125000
1"
0#
1$
#4130000
0"
b11 %
#4135000
1"
0$
1#
#4140000
0"
b0 %
#4145000
1"
0#
1$
#4150000
0"
b11 %
#4155000
1"
0$
1#
#4160000
0"
b0 %
#4165000
1"
0#
1$
#4170000
0"
b11 %
#4175000
1"
0$
1#
#4180000
0"
b0 %
#4185000
1"
0#
1$
#4190000
0"
b11 %
#4195000
1"
0$
1#
#4200000
0"
b0 %
#4205000
1"
0#
1$
#4210000
0"
b11 %
#4215000
1"
0$
1#
#4220000
0"
b0 %
#4225000
1"
0#
1$
#4230000
0"
b11 %
#4235000
1"
0$
1#
#4240000
0"
b0 %
#4245000
1"
0#
1$
#4250000
0"
b11 %
#4255000
1"
0$
1#
#4260000
0"
b0 %
#4265000
1"
0#
1$
#4270000
0"
b11 %
#4275000
1"
0$
1#
#4280000
0"
b0 %
#4285000
1"
0#
1$
#4290000
0"
b11 %
#4295000
1"
0$
1#
#4300000
0"
b0 %
#4305000
1"
0#
1$
#4310000
0"
b11 %
#4315000
1"
0$
1#
#4320000
0"
b0 %
#4325000
1"
0#
1$
#4330000
0"
b11 %
#4335000
1"
0$
1#
#4340000
0"
b0 %
#4345000
1"
0#
1$
#4350000
0"
b11 %
#4355000
1"
0$
1#
#4360000
0"
b0 %
#4365000
1"
0#
1$
#4370000
0"
b11 %
#4375000
1"
0$
1#
#4380000
0"
b0 %
#4385000
1"
0#
1$
#4390000
0"
b11 %
#4395000
1"
0$
1#
#4400000
0"
b0 %
#4405000
1"
0#
1$
#4410000
0"
b11 %
#4415000
1"
0$
1#
#4420000
0"
b0 %
#4425000
1"
0#
1$
#4430000
0"
b11 %
#4435000
1"
0$
1#
#4440000
0"
b0 %
#4445000
1"
0#
1$
#4450000
0"
b11 %
#4455000
1"
0$
1#
#4460000
0"
b0 %
#4465000
1"
0#
1$
#4470000
0"
b11 %
#4475000
1"
0$
1#
#4480000
0"
b0 %
#4485000
1"
0#
1$
#4490000
0"
b11 %
#4495000
1"
0$
1#
#4500000
0"
b0 %
#4505000
1"
0#
1$
#4510000
0"
b11 %
#4515000
1"
0$
1#
#4520000
0"
b0 %
#4525000
1"
0#
1$
#4530000
0"
b11 %
#4535000
1"
0$
1#
#4540000
0"
b0 %
#4545000
1"
0#
1$
#4550000
0"
b11 %
#4555000
1"
0$
1#
#4560000
0"
b0 %
#4565000
1"
0#
1$
#4570000
0"
b11 %
#4575000
1"
0$
1#
#4580000
0"
b0 %
#4585000
1"
0#
1$
#4590000
0"
b11 %
#4595000
1"
0$
1#
#4600000
0"
b0 %
#4605000
1"
0#
1$
#4610000
0"
b11 %
#4615000
1"
0$
1#
#4620000
0"
b0 %
#4625000
1"
0#
1$
#4630000
0"
b11 %
#4635000
1"
0$
1#
#4640000
0"
b0 %
#4645000
1"
0#
1$
#4650000
0"
b11 %
#4655000
1"
0$
1#
#4660000
0"
b0 %
#4665000
1"
0#
1$
#4670000
0"
b11 %
#4675000
1"
0$
1#
#4680000
0"
b0 %
#4685000
1"
0#
1$
#4690000
0"
b11 %
#4695000
1"
0$
1#
#4700000
0"
b0 %
#4705000
1"
0#
1$
#4710000
0"
b11 %
#4715000
1"
0$
1#
#4720000
0"
b0 %
#4725000
1"
0#
1$
#4730000
0"
b11 %
#4735000
1"
0$
1#
#4740000
0"
b0 %
#4745000
1"
0#
1$
#4750000
0"
b11 %
#4755000
1"
0$
1#
#4760000
0"
b0 %
#4765000
1"
0#
1$
#4770000
0"
b11 %
#4775000
1"
0$
1#
#4780000
0"
b0 %
#4785000
1"
0#
1$
#4790000
0"
b11 %
#4795000
1"
0$
1#
#4800000
0"
b0 %
#4805000
1"
0#
1$
#4810000
0"
b11 %
#4815000
1"
0$
1#
#4820000
0"
b0 %
#4825000
1"
0#
1$
#4830000
0"
b11 %
#4835000
1"
0$
1#
#4840000
0"
b0 %
#4845000
1"
0#
1$
#4850000
0"
b11 %
#4855000
1"
0$
1#
#4860000
0"
b0 %
#4865000
1"
0#
1$
#4870000
0"
b11 %
#4875000
1"
0$
1#
#4880000
0"
b0 %
#4885000
1"
0#
1$
#4890000
0"
b11 %
#4895000
1"
0$
1#
#4900000
0"
b0 %
#4905000
1"
0#
1$
#4910000
0"
b11 %
#4915000
1"
0$
1#
#4920000
0"
b0 %
#4925000
1"
0#
1$
#4930000
0"
b11 %
#4935000
1"
0$
1#
#4940000
0"
b0 %
#4945000
1"
0#
1$
#4950000
0"
b11 %
#4955000
1"
0$
1#
#4960000
0"
b0 %
#4965000
1"
0#
1$
#4970000
0"
b11 %
#4975000
1"
0$
1#
#4980000
0"
b0 %
#4985000
1"
0#
1$
#4990000
0"
b11 %
#4995000
1"
0$
1#
#5000000
0"
b0 %
#5005000
1"
0#
1$
#5010000
0"
b11 %
#5015000
1"
0$
1#
#5020000
0"
b0 %
#5025000
1"
0#
1$
#5030000
0"
b11 %
#5035000
1"
0$
1#
#5040000
0"
b0 %
#5045000
1"
0#
1$
#5050000
0"
b11 %
#5055000
1"
0$
1#
#5060000
0"
b0 %
#5065000
1"
0#
1$
#5070000
0"
b11 %
#5075000
1"
0$
1#
#5080000
0"
b0 %
#5085000
1"
0#
1$
#5090000
0"
b11 %
#5095000
1"
0$
1#
#5100000
0"
b0 %
#5105000
1"
0#
1$
#5110000
0"
b11 %
#5115000
1"
0$
1#
#5120000
0"
b0 %
#5125000
1"
0#
1$
#5130000
0"
b11 %
#5135000
1"
0$
1#
#5140000
0"
b0 %
#5145000
1"
0#
1$
#5150000
0"
b11 %
#5155000
1"
0$
1#
#5160000
0"
b0 %
#5165000
1"
0#
1$
#5170000
0"
b11 %
#5175000
1"
0$
1#
#5180000
0"
b0 %
#5185000
1"
0#
1$
#5190000
0"
b11 %
#5195000
1"
0$
1#
#5200000
0"
b0 %
#5205000
1"
0#
1$
#5210000
0"
b11 %
#5215000
1"
0$
1#
#5220000
0"
b0 %
#5225000
1"
0#
1$
#5230000
0"
b11 %
#5235000
1"
0$
1#
#5240000
0"
b0 %
#5245000
1"
0#
1$
#5250000
0"
b11 %
#5255000
1"
0$
1#
#5260000
0"
b0 %
#5265000
1"
0#
1$
#5270000
0"
b11 %
#5275000
1"
0$
1#
#5280000
0"
b0 %
#5285000
1"
0#
1$
#5290000
0"
b11 %
#5295000
1"
0$
1#
#5300000
0"
b0 %
#5305000
1"
0#
1$
#5310000
0"
b11 %
#5315000
1"
0$
1#
#5320000
0"
b0 %
#5325000
1"
0#
1$
#5330000
0"
b11 %
#5335000
1"
0$
1#
#5340000
0"
b0 %
#5345000
1"
0#
1$
#5350000
0"
b11 %
#5355000
1"
0$
1#
#5360000
0"
b0 %
#5365000
1"
0#
1$
#5370000
0"
b11 %
#5375000
1"
0$
1#
#5380000
0"
b0 %
#5385000
1"
0#
1$
#5390000
0"
b11 %
#5395000
1"
0$
1#
#5400000
0"
b0 %
#5405000
1"
0#
1$
#5410000
0"
b11 %
#5415000
1"
0$
1#
#5420000
0"
b0 %
#5425000
1"
0#
1$
#5430000
0"
b11 %
#5435000
1"
0$
1#
#5440000
0"
b0 %
#5445000
1"
0#
1$
#5450000
0"
b11 %
#5455000
1"
0$
1#
#5460000
0"
b0 %
#5465000
1"
0#
1$
#5470000
0"
b11 %
#5475000
1"
0$
1#
#5480000
0"
b0 %
#5485000
1"
0#
1$
#5490000
0"
b11 %
#5495000
1"
0$
1#
#5500000
0"
b0 %
#5505000
1"
0#
1$
#5510000
0"
b11 %
#5515000
1"
0$
1#
#5520000
0"
b0 %
#5525000
1"
0#
1$
#5530000
0"
b11 %
#5535000
1"
0$
1#
#5540000
0"
b0 %
#5545000
1"
0#
1$
#5550000
0"
b11 %
#5555000
1"
0$
1#
#5560000
0"
b0 %
