top_vcd.vcd
$date
     Jul 15, 2022       15:43:02
$end

$version
 SystemC 2.3.3-Accellera --- Mar 15 2022 17:17:50
$end

$timescale
     1 ps
$end

$scope module SystemC $end
$var wire    1  aaaaa  out       $end
$var wire    1  aaaab  count       $end
$var wire    2  aaaac  rst [1:0]  $end
$var wire    1  aaaad  CLK       $end
$upscope $end
$enddefinitions  $end

$comment
All initial values are dumped below at time 0 sec = 0 timescale units.
$end

$dumpvars
1aaaaa
0aaaab
b0 aaaac
0aaaad
$end

#5000
1aaaab
1aaaad

#10000
b11 aaaac
0aaaad

#15000
1aaaad

#20000
b0 aaaac
0aaaad

#25000
1aaaad

#30000
b11 aaaac
0aaaad

#35000
1aaaad

#40000
b0 aaaac
0aaaad

#45000
1aaaad

#50000
b11 aaaac
0aaaad

#55000
1aaaad

#60000
b0 aaaac
0aaaad

#65000
1aaaad

#70000
b11 aaaac
0aaaad

#75000
1aaaad

#80000
b0 aaaac
0aaaad

#85000
1aaaad

#90000
b11 aaaac
0aaaad

#95000
1aaaad

#100000
b0 aaaac
0aaaad

#105000
1aaaad

#110000
b11 aaaac
0aaaad

#115000
1aaaad

#120000
b0 aaaac
0aaaad

#125000
1aaaad

#130000
b11 aaaac
0aaaad

#135000
1aaaad

#140000
b0 aaaac
0aaaad

#145000
1aaaad

#150000
b11 aaaac
0aaaad

#155000
1aaaad

#160000
b0 aaaac
0aaaad

#165000
1aaaad

#170000
b11 aaaac
0aaaad

#175000
1aaaad

#180000
b0 aaaac
0aaaad

#185000
1aaaad

#190000
b11 aaaac
0aaaad

#195000
1aaaad

#200000
b0 aaaac
0aaaad

#205000
1aaaad

#210000
b11 aaaac
0aaaad

#215000
1aaaad

#220000
b0 aaaac
0aaaad

#225000
1aaaad

#230000
b11 aaaac
0aaaad

#235000
1aaaad

#240000
b0 aaaac
0aaaad

#245000
1aaaad

#250000
b11 aaaac
0aaaad

#255000
1aaaad

#260000
b0 aaaac
0aaaad

#265000
1aaaad

#270000
b11 aaaac
0aaaad

#275000
1aaaad

#280000
b0 aaaac
0aaaad

#285000
1aaaad

#290000
b11 aaaac
0aaaad

#295000
1aaaad

#300000
b0 aaaac
0aaaad

#305000
1aaaad

#310000
b11 aaaac
0aaaad

#315000
1aaaad

#320000
b0 aaaac
0aaaad

#325000
1aaaad

#330000
b11 aaaac
0aaaad

#335000
1aaaad

#340000
b0 aaaac
0aaaad

#345000
1aaaad

#350000
b11 aaaac
0aaaad

#355000
1aaaad

#360000
b0 aaaac
0aaaad

#365000
1aaaad

#370000
b11 aaaac
0aaaad

#375000
1aaaad

#380000
b0 aaaac
0aaaad

#385000
1aaaad

#390000
b11 aaaac
0aaaad

#395000
1aaaad

#400000
b0 aaaac
0aaaad

#405000
1aaaad

#410000
b11 aaaac
0aaaad

#415000
1aaaad

#420000
b0 aaaac
0aaaad

#425000
1aaaad

#430000
b11 aaaac
0aaaad

#435000
1aaaad

#440000
b0 aaaac
0aaaad

#445000
1aaaad

#450000
b11 aaaac
0aaaad

#455000
1aaaad

#460000
b0 aaaac
0aaaad

#465000
1aaaad

#470000
b11 aaaac
0aaaad

#475000
1aaaad

#480000
b0 aaaac
0aaaad

#485000
1aaaad

#490000
b11 aaaac
0aaaad

#495000
1aaaad

#500000
b0 aaaac
0aaaad

#505000
1aaaad

#510000
b11 aaaac
0aaaad

#515000
1aaaad

#520000
b0 aaaac
0aaaad

#525000
1aaaad

#530000
b11 aaaac
0aaaad

#535000
1aaaad

#540000
b0 aaaac
0aaaad

#545000
1aaaad

#550000
b11 aaaac
0aaaad

#555000
1aaaad

#560000
b0 aaaac
0aaaad

#565000
1aaaad

#570000
b11 aaaac
0aaaad

#575000
1aaaad

#580000
b0 aaaac
0aaaad

#585000
1aaaad

#590000
b11 aaaac
0aaaad

#595000
1aaaad

#600000
b0 aaaac
0aaaad

#605000
1aaaad

#610000
b11 aaaac
0aaaad

#615000
1aaaad

#620000
b0 aaaac
0aaaad

#625000
1aaaad

#630000
b11 aaaac
0aaaad

#635000
1aaaad

#640000
b0 aaaac
0aaaad

#645000
1aaaad

#650000
b11 aaaac
0aaaad

#655000
1aaaad

#660000
b0 aaaac
0aaaad

#665000
1aaaad

#670000
b11 aaaac
0aaaad

#675000
1aaaad

#680000
b0 aaaac
0aaaad

#685000
1aaaad

#690000
b11 aaaac
0aaaad

#695000
1aaaad

#700000
b0 aaaac
0aaaad

#705000
1aaaad

#710000
b11 aaaac
0aaaad

#715000
1aaaad

#720000
b0 aaaac
0aaaad

#725000
1aaaad

#730000
b11 aaaac
0aaaad

#735000
1aaaad

#740000
b0 aaaac
0aaaad

#745000
1aaaad

#750000
b11 aaaac
0aaaad

#755000
1aaaad

#760000
b0 aaaac
0aaaad

#765000
1aaaad

#770000
b11 aaaac
0aaaad

#775000
1aaaad

#780000
b0 aaaac
0aaaad

#785000
1aaaad

#790000
b11 aaaac
0aaaad

#795000
1aaaad

#800000
b0 aaaac
0aaaad

#805000
1aaaad

#810000
b11 aaaac
0aaaad

#815000
1aaaad

#820000
b0 aaaac
0aaaad

#825000
1aaaad

#830000
b11 aaaac
0aaaad

#835000
1aaaad

#840000
b0 aaaac
0aaaad

#845000
1aaaad

#850000
b11 aaaac
0aaaad

#855000
1aaaad

#860000
b0 aaaac
0aaaad

#865000
1aaaad

#870000
b11 aaaac
0aaaad

#875000
1aaaad

#880000
b0 aaaac
0aaaad

#885000
1aaaad

#890000
b11 aaaac
0aaaad

#895000
1aaaad

#900000
b0 aaaac
0aaaad

#905000
1aaaad

#910000
b11 aaaac
0aaaad

#915000
1aaaad

#920000
b0 aaaac
0aaaad

#925000
1aaaad

#930000
b11 aaaac
0aaaad

#935000
1aaaad

#940000
b0 aaaac
0aaaad

#945000
1aaaad

#950000
b11 aaaac
0aaaad

#955000
1aaaad

#960000
b0 aaaac
0aaaad

#965000
1aaaad

#970000
b11 aaaac
0aaaad

#975000
1aaaad

#980000
b0 aaaac
0aaaad

#985000
1aaaad

#990000
b11 aaaac
0aaaad

#995000
1aaaad

#1000000
b0 aaaac
0aaaad

#1005000
1aaaad

#1010000
b11 aaaac
0aaaad

#1015000
1aaaad

#1020000
b0 aaaac
0aaaad

#1025000
1aaaad

#1030000
b11 aaaac
0aaaad

#1035000
1aaaad

#1040000
b0 aaaac
0aaaad

#1045000
1aaaad

#1050000
b11 aaaac
0aaaad

#1055000
1aaaad

#1060000
b0 aaaac
0aaaad

#1065000
1aaaad

#1070000
b11 aaaac
0aaaad

#1075000
1aaaad

#1080000
b0 aaaac
0aaaad

#1085000
1aaaad

#1090000
b11 aaaac
0aaaad

#1095000
1aaaad

#1100000
b0 aaaac
0aaaad

#1105000
1aaaad

#1110000
b11 aaaac
0aaaad

#1115000
1aaaad

#1120000
b0 aaaac
0aaaad

#1125000
1aaaad

#1130000
b11 aaaac
0aaaad

#1135000
1aaaad

#1140000
b0 aaaac
0aaaad

#1145000
1aaaad

#1150000
b11 aaaac
0aaaad

#1155000
1aaaad

#1160000
b0 aaaac
0aaaad

#1165000
1aaaad

#1170000
b11 aaaac
0aaaad

#1175000
1aaaad

#1180000
b0 aaaac
0aaaad

#1185000
1aaaad

#1190000
b11 aaaac
0aaaad

#1195000
1aaaad

#1200000
b0 aaaac
0aaaad

#1205000
1aaaad

#1210000
b11 aaaac
0aaaad

#1215000
1aaaad

#1220000
b0 aaaac
0aaaad

#1225000
1aaaad

#1230000
b11 aaaac
0aaaad

#1235000
1aaaad

#1240000
b0 aaaac
0aaaad

#1245000
1aaaad

#1250000
b11 aaaac
0aaaad

#1255000
1aaaad

#1260000
b0 aaaac
0aaaad

#1265000
1aaaad

#1270000
b11 aaaac
0aaaad

#1275000
1aaaad

#1280000
b0 aaaac
0aaaad

#1285000
1aaaad

#1290000
b11 aaaac
0aaaad

#1295000
1aaaad

#1300000
b0 aaaac
0aaaad

#1305000
1aaaad

#1310000
b11 aaaac
0aaaad

#1315000
1aaaad

#1320000
b0 aaaac
0aaaad

#1325000
1aaaad

#1330000
b11 aaaac
0aaaad

#1335000
1aaaad

#1340000
b0 aaaac
0aaaad

#1345000
1aaaad

#1350000
b11 aaaac
0aaaad

#1355000
1aaaad

#1360000
b0 aaaac
0aaaad

#1365000
1aaaad

#1370000
b11 aaaac
0aaaad

#1375000
1aaaad

#1380000
b0 aaaac
0aaaad

#1385000
1aaaad

#1390000
b11 aaaac
0aaaad

#1395000
1aaaad

#1400000
b0 aaaac
0aaaad

#1405000
1aaaad

#1410000
b11 aaaac
0aaaad

#1415000
1aaaad

#1420000
b0 aaaac
0aaaad

#1425000
1aaaad

#1430000
b11 aaaac
0aaaad

#1435000
1aaaad

#1440000
b0 aaaac
0aaaad

#1445000
1aaaad

#1450000
b11 aaaac
0aaaad

#1455000
1aaaad

#1460000
b0 aaaac
0aaaad

#1465000
1aaaad

#1470000
b11 aaaac
0aaaad

#1475000
1aaaad

#1480000
b0 aaaac
0aaaad

#1485000
1aaaad

#1490000
b11 aaaac
0aaaad

#1495000
1aaaad

#1500000
b0 aaaac
0aaaad

#1505000
1aaaad

#1510000
b11 aaaac
0aaaad

#1515000
1aaaad

#1520000
b0 aaaac
0aaaad

#1525000
1aaaad

#1530000
b11 aaaac
0aaaad

#1535000
1aaaad

#1540000
b0 aaaac
0aaaad

#1545000
1aaaad

#1550000
b11 aaaac
0aaaad

#1555000
1aaaad

#1560000
b0 aaaac
0aaaad

#1565000
1aaaad

#1570000
b11 aaaac
0aaaad

#1575000
1aaaad

#1580000
b0 aaaac
0aaaad

#1585000
1aaaad

#1590000
b11 aaaac
0aaaad

#1595000
1aaaad

#1600000
b0 aaaac
0aaaad

#1605000
1aaaad

#1610000
b11 aaaac
0aaaad

#1615000
1aaaad

#1620000
b0 aaaac
0aaaad

#1625000
1aaaad

#1630000
b11 aaaac
0aaaad

#1635000
1aaaad

#1640000
b0 aaaac
0aaaad

#1645000
1aaaad

#1650000
b11 aaaac
0aaaad

#1655000
1aaaad

#1660000
b0 aaaac
0aaaad

#1665000
1aaaad

#1670000
b11 aaaac
0aaaad

#1675000
1aaaad

#1680000
b0 aaaac
0aaaad

#1685000
1aaaad

#1690000
b11 aaaac
0aaaad

#1695000
1aaaad

#1700000
b0 aaaac
0aaaad

#1705000
1aaaad

#1710000
b11 aaaac
0aaaad

#1715000
1aaaad

#1720000
b0 aaaac
0aaaad

#1725000
1aaaad

#1730000
b11 aaaac
0aaaad

#1735000
1aaaad

#1740000
b0 aaaac
0aaaad

#1745000
1aaaad

#1750000
b11 aaaac
0aaaad

#1755000
1aaaad

#1760000
b0 aaaac
0aaaad

#1765000
1aaaad

#1770000
b11 aaaac
0aaaad

#1775000
1aaaad

#1780000
b0 aaaac
0aaaad

#1785000
1aaaad

#1790000
b11 aaaac
0aaaad

#1795000
1aaaad

#1800000
b0 aaaac
0aaaad

#1805000
1aaaad

#1810000
b11 aaaac
0aaaad

#1815000
1aaaad

#1820000
b0 aaaac
0aaaad

#1825000
1aaaad

#1830000
b11 aaaac
0aaaad

#1835000
1aaaad

#1840000
b0 aaaac
0aaaad

#1845000
1aaaad

#1850000
b11 aaaac
0aaaad

#1855000
1aaaad

#1860000
b0 aaaac
0aaaad

#1865000
1aaaad

#1870000
b11 aaaac
0aaaad

#1875000
1aaaad

#1880000
b0 aaaac
0aaaad

#1885000
1aaaad

#1890000
b11 aaaac
0aaaad

#1895000
1aaaad

#1900000
b0 aaaac
0aaaad

#1905000
1aaaad

#1910000
b11 aaaac
0aaaad

#1915000
1aaaad

#1920000
b0 aaaac
0aaaad

#1925000
1aaaad

#1930000
b11 aaaac
0aaaad

#1935000
1aaaad

#1940000
b0 aaaac
0aaaad

#1945000
1aaaad

#1950000
b11 aaaac
0aaaad

#1955000
1aaaad

#1960000
b0 aaaac
0aaaad

#1965000
1aaaad

#1970000
b11 aaaac
0aaaad

#1975000
1aaaad

#1980000
b0 aaaac
0aaaad

#1985000
1aaaad

#1990000
b11 aaaac
0aaaad

#1995000
1aaaad

#2000000
b0 aaaac
0aaaad

#2005000
1aaaad

#2010000
b11 aaaac
0aaaad

#2015000
1aaaad

#2020000
b0 aaaac
0aaaad

#2025000
1aaaad

#2030000
b11 aaaac
0aaaad

#2035000
1aaaad

#2040000
b0 aaaac
0aaaad

#2045000
1aaaad

#2050000
b11 aaaac
0aaaad

#2055000
1aaaad

#2060000
b0 aaaac
0aaaad

#2065000
1aaaad

#2070000
b11 aaaac
0aaaad

#2075000
1aaaad

#2080000
b0 aaaac
0aaaad

#2085000
1aaaad

#2090000
b11 aaaac
0aaaad

#2095000
1aaaad

#2100000
b0 aaaac
0aaaad

#2105000
1aaaad

#2110000
b11 aaaac
0aaaad

#2115000
1aaaad

#2120000
b0 aaaac
0aaaad

#2125000
1aaaad

#2130000
b11 aaaac
0aaaad

#2135000
1aaaad

#2140000
b0 aaaac
0aaaad

#2145000
1aaaad

#2150000
b11 aaaac
0aaaad

#2155000
1aaaad

#2160000
b0 aaaac
0aaaad

#2165000
1aaaad

#2170000
b11 aaaac
0aaaad

#2175000
1aaaad

#2180000
b0 aaaac
0aaaad

#2185000
1aaaad

#2190000
b11 aaaac
0aaaad

#2195000
1aaaad

#2200000
b0 aaaac
0aaaad

#2205000
1aaaad

#2210000
b11 aaaac
0aaaad

#2215000
1aaaad

#2220000
b0 aaaac
0aaaad

#2225000
1aaaad

#2230000
b11 aaaac
0aaaad

#2235000
1aaaad

#2240000
b0 aaaac
0aaaad

#2245000
1aaaad

#2250000
b11 aaaac
0aaaad

#2255000
1aaaad

#2260000
b0 aaaac
0aaaad

#2265000
1aaaad

#2270000
b11 aaaac
0aaaad

#2275000
1aaaad

#2280000
b0 aaaac
0aaaad

#2285000
1aaaad

#2290000
b11 aaaac
0aaaad

#2295000
1aaaad

#2300000
b0 aaaac
0aaaad

#2305000
1aaaad

#2310000
b11 aaaac
0aaaad

#2315000
1aaaad

#2320000
b0 aaaac
0aaaad

#2325000
1aaaad

#2330000
b11 aaaac
0aaaad

#2335000
1aaaad

#2340000
b0 aaaac
0aaaad

#2345000
1aaaad

#2350000
b11 aaaac
0aaaad

#2355000
1aaaad

#2360000
b0 aaaac
0aaaad

#2365000
1aaaad

#2370000
b11 aaaac
0aaaad

#2375000
1aaaad

#2380000
b0 aaaac
0aaaad

#2385000
1aaaad

#2390000
b11 aaaac
0aaaad

#2395000
1aaaad

#2400000
b0 aaaac
0aaaad

#2405000
1aaaad

#2410000
b11 aaaac
0aaaad

#2415000
1aaaad

#2420000
b0 aaaac
0aaaad

#2425000
1aaaad

#2430000
b11 aaaac
0aaaad

#2435000
1aaaad

#2440000
b0 aaaac
0aaaad

#2445000
1aaaad

#2450000
b11 aaaac
0aaaad

#2455000
1aaaad

#2460000
b0 aaaac
0aaaad

#2465000
1aaaad

#2470000
b11 aaaac
0aaaad

#2475000
1aaaad

#2480000
b0 aaaac
0aaaad

#2485000
1aaaad

#2490000
b11 aaaac
0aaaad

#2495000
1aaaad

#2500000
b0 aaaac
0aaaad

#2505000
1aaaad

#2510000
b11 aaaac
0aaaad

#2515000
1aaaad

#2520000
b0 aaaac
0aaaad

#2525000
1aaaad

#2530000
b11 aaaac
0aaaad

#2535000
1aaaad

#2540000
b0 aaaac
0aaaad

#2545000
1aaaad

#2550000
b11 aaaac
0aaaad

#2555000
1aaaad

#2560000
b0 aaaac
0aaaad

#2565000
1aaaad

#2570000
b11 aaaac
0aaaad

#2575000
1aaaad

#2580000
b0 aaaac
0aaaad

#2585000
1aaaad

#2590000
b11 aaaac
0aaaad

#2595000
1aaaad

#2600000
b0 aaaac
0aaaad

#2605000
1aaaad

#2610000
b11 aaaac
0aaaad

#2615000
1aaaad

#2620000
b0 aaaac
0aaaad

#2625000
1aaaad

#2630000
b11 aaaac
0aaaad

#2635000
1aaaad

#2640000
b0 aaaac
0aaaad

#2645000
1aaaad

#2650000
b11 aaaac
0aaaad

#2655000
1aaaad

#2660000
b0 aaaac
0aaaad

#2665000
1aaaad

#2670000
b11 aaaac
0aaaad

#2675000
1aaaad

#2680000
b0 aaaac
0aaaad

#2685000
1aaaad

#2690000
b11 aaaac
0aaaad

#2695000
1aaaad

#2700000
b0 aaaac
0aaaad

#2705000
1aaaad

#2710000
b11 aaaac
0aaaad

#2715000
1aaaad

#2720000
b0 aaaac
0aaaad

#2725000
1aaaad

#2730000
b11 aaaac
0aaaad

#2735000
1aaaad

#2740000
b0 aaaac
0aaaad

#2745000
1aaaad

#2750000
b11 aaaac
0aaaad

#2755000
1aaaad

#2760000
b0 aaaac
0aaaad

#2765000
1aaaad

#2770000
b11 aaaac
0aaaad

#2775000
1aaaad

#2780000
b0 aaaac
0aaaad

#2785000
1aaaad

#2790000
b11 aaaac
0aaaad

#2795000
1aaaad

#2800000
b0 aaaac
0aaaad

#2805000
1aaaad

#2810000
b11 aaaac
0aaaad

#2815000
1aaaad

#2820000
b0 aaaac
0aaaad

#2825000
1aaaad

#2830000
b11 aaaac
0aaaad

#2835000
1aaaad

#2840000
b0 aaaac
0aaaad

#2845000
1aaaad

#2850000
b11 aaaac
0aaaad

#2855000
1aaaad

#2860000
b0 aaaac
0aaaad

#2865000
1aaaad

#2870000
b11 aaaac
0aaaad

#2875000
1aaaad

#2880000
b0 aaaac
0aaaad

#2885000
1aaaad

#2890000
b11 aaaac
0aaaad

#2895000
1aaaad

#2900000
b0 aaaac
0aaaad

#2905000
1aaaad

#2910000
b11 aaaac
0aaaad

#2915000
1aaaad

#2920000
b0 aaaac
0aaaad

#2925000
1aaaad

#2930000
b11 aaaac
0aaaad

#2935000
1aaaad

#2940000
b0 aaaac
0aaaad

#2945000
1aaaad

#2950000
b11 aaaac
0aaaad

#2955000
1aaaad

#2960000
b0 aaaac
0aaaad

#2965000
1aaaad

#2970000
b11 aaaac
0aaaad

#2975000
1aaaad

#2980000
b0 aaaac
0aaaad

#2985000
1aaaad

#2990000
b11 aaaac
0aaaad

#2995000
1aaaad

#3000000
b0 aaaac
0aaaad

#3005000
1aaaad

#3010000
b11 aaaac
0aaaad

#3015000
1aaaad

#3020000
b0 aaaac
0aaaad

#3025000
1aaaad

#3030000
b11 aaaac
0aaaad

#3035000
1aaaad

#3040000
b0 aaaac
0aaaad

#3045000
1aaaad

#3050000
b11 aaaac
0aaaad

#3055000
1aaaad

#3060000
b0 aaaac
0aaaad

#3065000
1aaaad

#3070000
b11 aaaac
0aaaad

#3075000
1aaaad

#3080000
b0 aaaac
0aaaad

#3085000
1aaaad

#3090000
b11 aaaac
0aaaad

#3095000
1aaaad

#3100000
b0 aaaac
0aaaad

#3105000
1aaaad

#3110000
b11 aaaac
0aaaad

#3115000
1aaaad

#3120000
b0 aaaac
0aaaad

#3125000
1aaaad

#3130000
b11 aaaac
0aaaad

#3135000
1aaaad

#3140000
b0 aaaac
0aaaad

#3145000
1aaaad

#3150000
b11 aaaac
0aaaad

#3155000
1aaaad

#3160000
b0 aaaac
0aaaad

#3165000
1aaaad

#3170000
b11 aaaac
0aaaad

#3175000
1aaaad

#3180000
b0 aaaac
0aaaad

#3185000
1aaaad

#3190000
b11 aaaac
0aaaad

#3195000
1aaaad

#3200000
b0 aaaac
0aaaad

#3205000
1aaaad

#3210000
b11 aaaac
0aaaad

#3215000
1aaaad

#3220000
b0 aaaac
0aaaad

#3225000
1aaaad

#3230000
b11 aaaac
0aaaad

#3235000
1aaaad

#3240000
b0 aaaac
0aaaad

#3245000
1aaaad

#3250000
b11 aaaac
0aaaad

#3255000
1aaaad

#3260000
b0 aaaac
0aaaad

#3265000
1aaaad

#3270000
b11 aaaac
0aaaad

#3275000
1aaaad

#3280000
b0 aaaac
0aaaad

#3285000
1aaaad

#3290000
b11 aaaac
0aaaad

#3295000
1aaaad

#3300000
b0 aaaac
0aaaad

#3305000
1aaaad

#3310000
b11 aaaac
0aaaad

#3315000
1aaaad

#3320000
b0 aaaac
0aaaad

#3325000
1aaaad

#3330000
b11 aaaac
0aaaad

#3335000
1aaaad

#3340000
b0 aaaac
0aaaad

#3345000
1aaaad

#3350000
b11 aaaac
0aaaad

#3355000
1aaaad

#3360000
b0 aaaac
0aaaad

#3365000
1aaaad

#3370000
b11 aaaac
0aaaad

#3375000
1aaaad

#3380000
b0 aaaac
0aaaad

#3385000
1aaaad

#3390000
b11 aaaac
0aaaad

#3395000
1aaaad

#3400000
b0 aaaac
0aaaad

#3405000
1aaaad

#3410000
b11 aaaac
0aaaad

#3415000
1aaaad

#3420000
b0 aaaac
0aaaad

#3425000
1aaaad

#3430000
b11 aaaac
0aaaad

#3435000
1aaaad

#3440000
b0 aaaac
0aaaad

#3445000
1aaaad

#3450000
b11 aaaac
0aaaad

#3455000
1aaaad

#3460000
b0 aaaac
0aaaad

#3465000
1aaaad

#3470000
b11 aaaac
0aaaad

#3475000
1aaaad

#3480000
b0 aaaac
0aaaad

#3485000
1aaaad

#3490000
b11 aaaac
0aaaad

#3495000
1aaaad

#3500000
b0 aaaac
0aaaad

#3505000
1aaaad

#3510000
b11 aaaac
0aaaad

#3515000
1aaaad

#3520000
b0 aaaac
0aaaad

#3525000
1aaaad

#3530000
b11 aaaac
0aaaad

#3535000
1aaaad

#3540000
b0 aaaac
0aaaad

#3545000
1aaaad

#3550000
b11 aaaac
0aaaad

#3555000
1aaaad

#3560000
b0 aaaac
0aaaad

#3565000
1aaaad

#3570000
b11 aaaac
0aaaad

#3575000
1aaaad

#3580000
b0 aaaac
0aaaad

#3585000
1aaaad

#3590000
b11 aaaac
0aaaad

#3595000
1aaaad

#3600000
b0 aaaac
0aaaad

#3605000
1aaaad

#3610000
b11 aaaac
0aaaad

#3615000
1aaaad

#3620000
b0 aaaac
0aaaad

#3625000
1aaaad

#3630000
b11 aaaac
0aaaad

#3635000
1aaaad

#3640000
b0 aaaac
0aaaad

#3645000
1aaaad

#3650000
b11 aaaac
0aaaad

#3655000
1aaaad

#3660000
b0 aaaac
0aaaad

#3665000
1aaaad

#3670000
b11 aaaac
0aaaad

#3675000
1aaaad

#3680000
b0 aaaac
0aaaad

#3685000
1aaaad

#3690000
b11 aaaac
0aaaad

#3695000
1aaaad

#3700000
b0 aaaac
0aaaad

#3705000
1aaaad

#3710000
b11 aaaac
0aaaad

#3715000
1aaaad

#3720000
b0 aaaac
0aaaad

#3725000
1aaaad

#3730000
b11 aaaac
0aaaad

#3735000
1aaaad

#3740000
b0 aaaac
0aaaad

#3745000
1aaaad

#3750000
b11 aaaac
0aaaad

#3755000
1aaaad

#3760000
b0 aaaac
0aaaad

#3765000
1aaaad

#3770000
b11 aaaac
0aaaad

#3775000
1aaaad

#3780000
b0 aaaac
0aaaad

#3785000
1aaaad

#3790000
b11 aaaac
0aaaad

#3795000
1aaaad

#3800000
b0 aaaac
0aaaad

#3805000
1aaaad

#3810000
b11 aaaac
0aaaad

#3815000
1aaaad

#3820000
b0 aaaac
0aaaad

#3825000
1aaaad

#3830000
b11 aaaac
0aaaad

#3835000
1aaaad

#3840000
b0 aaaac
0aaaad

#3845000
1aaaad

#3850000
b11 aaaac
0aaaad

#3855000
1aaaad

#3860000
b0 aaaac
0aaaad

#3865000
1aaaad

#3870000
b11 aaaac
0aaaad

#3875000
1aaaad

#3880000
b0 aaaac
0aaaad

#3885000
1aaaad

#3890000
b11 aaaac
0aaaad

#3895000
1aaaad

#3900000
b0 aaaac
0aaaad

#3905000
1aaaad

#3910000
b11 aaaac
0aaaad

#3915000
1aaaad

#3920000
b0 aaaac
0aaaad

#3925000
1aaaad

#3930000
b11 aaaac
0aaaad

#3935000
1aaaad

#3940000
b0 aaaac
0aaaad

#3945000
1aaaad

#3950000
b11 aaaac
0aaaad

#3955000
1aaaad

#3960000
b0 aaaac
0aaaad

#3965000
1aaaad

#3970000
b11 aaaac
0aaaad

#3975000
1aaaad

#3980000
b0 aaaac
0aaaad

#3985000
1aaaad

#3990000
b11 aaaac
0aaaad

#3995000
1aaaad

#4000000
b0 aaaac
0aaaad

#4005000
1aaaad

#4010000
b11 aaaac
0aaaad

#4015000
1aaaad

#4020000
b0 aaaac
0aaaad

#4025000
1aaaad

#4030000
b11 aaaac
0aaaad

#4035000
1aaaad

#4040000
b0 aaaac
0aaaad

#4045000
1aaaad

#4050000
b11 aaaac
0aaaad

#4055000
1aaaad

#4060000
b0 aaaac
0aaaad

#4065000
1aaaad

#4070000
b11 aaaac
0aaaad

#4075000
1aaaad

#4080000
b0 aaaac
0aaaad

#4085000
1aaaad

#4090000
b11 aaaac
0aaaad

#4095000
1aaaad

#4100000
b0 aaaac
0aaaad

#4105000
1aaaad

#4110000
b11 aaaac
0aaaad

#4115000
1aaaad

#4120000
b0 aaaac
0aaaad

#4125000
1aaaad

#4130000
b11 aaaac
0aaaad

#4135000
1aaaad

#4140000
b0 aaaac
0aaaad

#4145000
1aaaad

#4150000
b11 aaaac
0aaaad

#4155000
1aaaad

#4160000
b0 aaaac
0aaaad

#4165000
1aaaad

#4170000
b11 aaaac
0aaaad

#4175000
1aaaad

#4180000
b0 aaaac
0aaaad

#4185000
1aaaad

#4190000
b11 aaaac
0aaaad

#4195000
1aaaad

#4200000
b0 aaaac
0aaaad

#4205000
1aaaad

#4210000
b11 aaaac
0aaaad

#4215000
1aaaad

#4220000
b0 aaaac
0aaaad

#4225000
1aaaad

#4230000
b11 aaaac
0aaaad

#4235000
1aaaad

#4240000
b0 aaaac
0aaaad

#4245000
1aaaad

#4250000
b11 aaaac
0aaaad

#4255000
1aaaad

#4260000
b0 aaaac
0aaaad

#4265000
1aaaad

#4270000
b11 aaaac
0aaaad

#4275000
1aaaad

#4280000
b0 aaaac
0aaaad

#4285000
1aaaad

#4290000
b11 aaaac
0aaaad

#4295000
1aaaad

#4300000
b0 aaaac
0aaaad

#4305000
1aaaad

#4310000
b11 aaaac
0aaaad

#4315000
1aaaad

#4320000
b0 aaaac
0aaaad

#4325000
1aaaad

#4330000
b11 aaaac
0aaaad

#4335000
1aaaad

#4340000
b0 aaaac
0aaaad

#4345000
1aaaad

#4350000
b11 aaaac
0aaaad

#4355000
1aaaad

#4360000
b0 aaaac
0aaaad

#4365000
1aaaad

#4370000
b11 aaaac
0aaaad

#4375000
1aaaad

#4380000
b0 aaaac
0aaaad

#4385000
1aaaad

#4390000
b11 aaaac
0aaaad

#4395000
1aaaad

#4400000
b0 aaaac
0aaaad

#4405000
1aaaad

#4410000
b11 aaaac
0aaaad

#4415000
1aaaad

#4420000
b0 aaaac
0aaaad

#4425000
1aaaad

#4430000
b11 aaaac
0aaaad

#4435000
1aaaad

#4440000
b0 aaaac
0aaaad

#4445000
1aaaad

#4450000
b11 aaaac
0aaaad

#4455000
1aaaad

#4460000
b0 aaaac
0aaaad

#4465000
1aaaad

#4470000
b11 aaaac
0aaaad

#4475000
1aaaad

#4480000
b0 aaaac
0aaaad

#4485000
1aaaad

#4490000
b11 aaaac
0aaaad

#4495000
1aaaad

#4500000
b0 aaaac
0aaaad

#4505000
1aaaad

#4510000
b11 aaaac
0aaaad

#4515000
1aaaad

#4520000
b0 aaaac
0aaaad

#4525000
1aaaad

#4530000
b11 aaaac
0aaaad

#4535000
1aaaad

#4540000
b0 aaaac
0aaaad

#4545000
1aaaad

#4550000
b11 aaaac
0aaaad

#4555000
1aaaad

#4560000
b0 aaaac
0aaaad

#4565000
1aaaad

#4570000
b11 aaaac
0aaaad

#4575000
1aaaad

#4580000
b0 aaaac
0aaaad

#4585000
1aaaad

#4590000
b11 aaaac
0aaaad

#4595000
1aaaad

#4600000
b0 aaaac
0aaaad

#4605000
1aaaad

#4610000
b11 aaaac
0aaaad

#4615000
1aaaad

#4620000
b0 aaaac
0aaaad

#4625000
1aaaad

#4630000
b11 aaaac
0aaaad

#4635000
1aaaad

#4640000
b0 aaaac
0aaaad

#4645000
1aaaad

#4650000
b11 aaaac
0aaaad

#4655000
1aaaad

#4660000
b0 aaaac
0aaaad

#4665000
1aaaad

#4670000
b11 aaaac
0aaaad

#4675000
1aaaad

#4680000
b0 aaaac
0aaaad

#4685000
1aaaad

#4690000
b11 aaaac
0aaaad

#4695000
1aaaad

#4700000
b0 aaaac
0aaaad

#4705000
1aaaad

#4710000
b11 aaaac
0aaaad

#4715000
1aaaad

#4720000
b0 aaaac
0aaaad

#4725000
1aaaad

#4730000
b11 aaaac
0aaaad

#4735000
1aaaad

#4740000
b0 aaaac
0aaaad

#4745000
1aaaad

#4750000
b11 aaaac
0aaaad

#4755000
1aaaad

#4760000
b0 aaaac
0aaaad

#4765000
1aaaad

#4770000
b11 aaaac
0aaaad

#4775000
1aaaad

#4780000
b0 aaaac
0aaaad

#4785000
1aaaad

#4790000
b11 aaaac
0aaaad

#4795000
1aaaad

#4800000
b0 aaaac
0aaaad

#4805000
1aaaad

#4810000
b11 aaaac
0aaaad

#4815000
1aaaad

#4820000
b0 aaaac
0aaaad

#4825000
1aaaad

#4830000
b11 aaaac
0aaaad

#4835000
1aaaad

#4840000
b0 aaaac
0aaaad

#4845000
1aaaad

#4850000
b11 aaaac
0aaaad

#4855000
1aaaad

#4860000
b0 aaaac
0aaaad

#4865000
1aaaad

#4870000
b11 aaaac
0aaaad

#4875000
1aaaad

#4880000
b0 aaaac
0aaaad

#4885000
1aaaad

#4890000
b11 aaaac
0aaaad

#4895000
1aaaad

#4900000
b0 aaaac
0aaaad

#4905000
1aaaad

#4910000
b11 aaaac
0aaaad

#4915000
1aaaad

#4920000
b0 aaaac
0aaaad

#4925000
1aaaad

#4930000
b11 aaaac
0aaaad

#4935000
1aaaad

#4940000
b0 aaaac
0aaaad

#4945000
1aaaad

#4950000
b11 aaaac
0aaaad

#4955000
1aaaad

#4960000
b0 aaaac
0aaaad

#4965000
1aaaad

#4970000
b11 aaaac
0aaaad

#4975000
1aaaad

