unot_test.vcd
$date
     Jun 29, 2022       15:43:37
$end

$version
 SystemC 2.3.3-Accellera --- Mar 15 2022 17:17:50
$end

$timescale
     1 ps
$end

$scope module SystemC $end
$var wire    1  aaaaa  count       $end
$var wire    2  aaaab  RST [1:0]  $end
$var wire    1  aaaac  CLK       $end
$upscope $end
$enddefinitions  $end

$comment
All initial values are dumped below at time 0 sec = 0 timescale units.
$end

$dumpvars
1aaaaa
b0 aaaab
0aaaac
$end

#10000
1aaaac

#20000
b11 aaaab
0aaaac

#30000
1aaaac

#40000
b0 aaaab
0aaaac

#50000
1aaaac

#60000
b11 aaaab
0aaaac

#70000
1aaaac

#80000
b0 aaaab
0aaaac

#90000
1aaaac

#100000
b11 aaaab
0aaaac

#110000
1aaaac

#120000
b0 aaaab
0aaaac

#130000
1aaaac

#140000
b11 aaaab
0aaaac

#150000
1aaaac

#160000
b0 aaaab
0aaaac

#170000
1aaaac

#180000
b11 aaaab
0aaaac

#190000
1aaaac

#200000
b0 aaaab
0aaaac

#210000
1aaaac

#220000
b11 aaaab
0aaaac

#230000
1aaaac

#240000
b0 aaaab
0aaaac

#250000
1aaaac

#260000
b11 aaaab
0aaaac

#270000
1aaaac

#280000
b0 aaaab
0aaaac

#290000
1aaaac

#300000
b11 aaaab
0aaaac

#310000
1aaaac

#320000
b0 aaaab
0aaaac

#330000
1aaaac

#340000
b11 aaaab
0aaaac

#350000
1aaaac

#360000
b0 aaaab
0aaaac

#370000
1aaaac

#380000
b11 aaaab
0aaaac

#390000
1aaaac

#400000
b0 aaaab
0aaaac

#410000
1aaaac

#420000
b11 aaaab
0aaaac

#430000
1aaaac

#440000
b0 aaaab
0aaaac

#450000
1aaaac

#460000
b11 aaaab
0aaaac

#470000
1aaaac

#480000
b0 aaaab
0aaaac

#490000
1aaaac

#500000
b11 aaaab
0aaaac

#510000
1aaaac

#520000
b0 aaaab
0aaaac

#530000
1aaaac

#540000
b11 aaaab
0aaaac

#550000
1aaaac

#560000
b0 aaaab
0aaaac

#570000
1aaaac

#580000
b11 aaaab
0aaaac

#590000
1aaaac

#600000
b0 aaaab
0aaaac

#610000
1aaaac

#620000
b11 aaaab
0aaaac

#630000
1aaaac

#640000
b0 aaaab
0aaaac

#650000
1aaaac

#660000
b11 aaaab
0aaaac

#670000
1aaaac

#680000
b0 aaaab
0aaaac

#690000
1aaaac

#700000
b11 aaaab
0aaaac

#710000
1aaaac

#720000
b0 aaaab
0aaaac

#730000
1aaaac

#740000
b11 aaaab
0aaaac

#750000
1aaaac

#760000
b0 aaaab
0aaaac

#770000
1aaaac

#780000
b11 aaaab
0aaaac

#790000
1aaaac

#800000
b0 aaaab
0aaaac

#810000
1aaaac

#820000
b11 aaaab
0aaaac

#830000
1aaaac

#840000
b0 aaaab
0aaaac

#850000
1aaaac

#860000
b11 aaaab
0aaaac

#870000
1aaaac

#880000
b0 aaaab
0aaaac

#890000
1aaaac

#900000
b11 aaaab
0aaaac

#910000
1aaaac

#920000
b0 aaaab
0aaaac

#930000
1aaaac

#940000
b11 aaaab
0aaaac

#950000
1aaaac

#960000
b0 aaaab
0aaaac

#970000
1aaaac

#980000
b11 aaaab
0aaaac

#990000
1aaaac

#1000000
b0 aaaab
0aaaac

#1010000
1aaaac

#1020000
b11 aaaab
0aaaac

#1030000
1aaaac

#1040000
b0 aaaab
0aaaac

#1050000
1aaaac

#1060000
b11 aaaab
0aaaac

#1070000
1aaaac

#1080000
b0 aaaab
0aaaac

#1090000
1aaaac

#1100000
b11 aaaab
0aaaac

#1110000
1aaaac

#1120000
b0 aaaab
0aaaac

#1130000
1aaaac

#1140000
b11 aaaab
0aaaac

#1150000
1aaaac

#1160000
b0 aaaab
0aaaac

#1170000
1aaaac

#1180000
b11 aaaab
0aaaac

#1190000
1aaaac

#1200000
b0 aaaab
0aaaac

#1210000
1aaaac

#1220000
b11 aaaab
0aaaac

#1230000
1aaaac

#1240000
b0 aaaab
0aaaac

#1250000
1aaaac

#1260000
b11 aaaab
0aaaac

#1270000
1aaaac

#1280000
b0 aaaab
0aaaac

#1290000
1aaaac

#1300000
b11 aaaab
0aaaac

#1310000
1aaaac

#1320000
b0 aaaab
0aaaac

#1330000
1aaaac

#1340000
b11 aaaab
0aaaac

#1350000
1aaaac

#1360000
b0 aaaab
0aaaac

#1370000
1aaaac

#1380000
b11 aaaab
0aaaac

#1390000
1aaaac

#1400000
b0 aaaab
0aaaac

#1410000
1aaaac

#1420000
b11 aaaab
0aaaac

#1430000
1aaaac

#1440000
b0 aaaab
0aaaac

#1450000
1aaaac

#1460000
b11 aaaab
0aaaac

#1470000
1aaaac

#1480000
b0 aaaab
0aaaac

#1490000
1aaaac

#1500000
b11 aaaab
0aaaac

#1510000
1aaaac

#1520000
b0 aaaab
0aaaac

#1530000
1aaaac

#1540000
b11 aaaab
0aaaac

#1550000
1aaaac

#1560000
b0 aaaab
0aaaac

#1570000
1aaaac

#1580000
b11 aaaab
0aaaac

#1590000
1aaaac

#1600000
b0 aaaab
0aaaac

#1610000
1aaaac

#1620000
b11 aaaab
0aaaac

#1630000
1aaaac

#1640000
b0 aaaab
0aaaac

#1650000
1aaaac

#1660000
b11 aaaab
0aaaac

#1670000
1aaaac

#1680000
b0 aaaab
0aaaac

#1690000
1aaaac

#1700000
b11 aaaab
0aaaac

#1710000
1aaaac

#1720000
b0 aaaab
0aaaac

#1730000
1aaaac

#1740000
b11 aaaab
0aaaac

#1750000
1aaaac

#1760000
b0 aaaab
0aaaac

#1770000
1aaaac

#1780000
b11 aaaab
0aaaac

#1790000
1aaaac

#1800000
b0 aaaab
0aaaac

#1810000
1aaaac

#1820000
b11 aaaab
0aaaac

#1830000
1aaaac

#1840000
b0 aaaab
0aaaac

#1850000
1aaaac

#1860000
b11 aaaab
0aaaac

#1870000
1aaaac

#1880000
b0 aaaab
0aaaac

#1890000
1aaaac

#1900000
b11 aaaab
0aaaac

#1910000
1aaaac

#1920000
b0 aaaab
0aaaac

#1930000
1aaaac

#1940000
b11 aaaab
0aaaac

#1950000
1aaaac

#1960000
b0 aaaab
0aaaac

#1970000
1aaaac

#1980000
b11 aaaab
0aaaac

#1990000
1aaaac

#2000000
b0 aaaab
0aaaac

#2010000
1aaaac

#2020000
b11 aaaab
0aaaac

#2030000
1aaaac

#2040000
b0 aaaab
0aaaac

#2050000
1aaaac

#2060000
b11 aaaab
0aaaac

#2070000
1aaaac

#2080000
b0 aaaab
0aaaac

#2090000
1aaaac

#2100000
b11 aaaab
0aaaac

#2110000
1aaaac

#2120000
b0 aaaab
0aaaac

#2130000
1aaaac

#2140000
b11 aaaab
0aaaac

#2150000
1aaaac

#2160000
b0 aaaab
0aaaac

#2170000
1aaaac

#2180000
b11 aaaab
0aaaac

#2190000
1aaaac

#2200000
b0 aaaab
0aaaac

#2210000
1aaaac

#2220000
b11 aaaab
0aaaac

#2230000
1aaaac

#2240000
b0 aaaab
0aaaac

#2250000
1aaaac

#2260000
b11 aaaab
0aaaac

#2270000
1aaaac

#2280000
b0 aaaab
0aaaac

#2290000
1aaaac

#2300000
b11 aaaab
0aaaac

#2310000
1aaaac

#2320000
b0 aaaab
0aaaac

#2330000
1aaaac

#2340000
b11 aaaab
0aaaac

#2350000
1aaaac

#2360000
b0 aaaab
0aaaac

#2370000
1aaaac

#2380000
b11 aaaab
0aaaac

#2390000
1aaaac

#2400000
b0 aaaab
0aaaac

#2410000
1aaaac

#2420000
b11 aaaab
0aaaac

#2430000
1aaaac

#2440000
b0 aaaab
0aaaac

#2450000
1aaaac

#2460000
b11 aaaab
0aaaac

#2470000
1aaaac

#2480000
b0 aaaab
0aaaac

#2490000
1aaaac

#2500000
b11 aaaab
0aaaac

#2510000
1aaaac

#2520000
b0 aaaab
0aaaac

#2530000
1aaaac

#2540000
b11 aaaab
0aaaac

#2550000
1aaaac

#2560000
b0 aaaab
0aaaac

#2570000
1aaaac

#2580000
b11 aaaab
0aaaac

#2590000
1aaaac

#2600000
b0 aaaab
0aaaac

#2610000
1aaaac

#2620000
b11 aaaab
0aaaac

#2630000
1aaaac

#2640000
b0 aaaab
0aaaac

#2650000
1aaaac

#2660000
b11 aaaab
0aaaac

#2670000
1aaaac

#2680000
b0 aaaab
0aaaac

#2690000
1aaaac

#2700000
b11 aaaab
0aaaac

#2710000
1aaaac

#2720000
b0 aaaab
0aaaac

#2730000
1aaaac

#2740000
b11 aaaab
0aaaac

#2750000
1aaaac

#2760000
b0 aaaab
0aaaac

#2770000
1aaaac

#2780000
b11 aaaab
0aaaac

#2790000
1aaaac

#2800000
b0 aaaab
0aaaac

#2810000
1aaaac

#2820000
b11 aaaab
0aaaac

#2830000
1aaaac

#2840000
b0 aaaab
0aaaac

#2850000
1aaaac

#2860000
b11 aaaab
0aaaac

#2870000
1aaaac

#2880000
b0 aaaab
0aaaac

#2890000
1aaaac

#2900000
b11 aaaab
0aaaac

#2910000
1aaaac

#2920000
b0 aaaab
0aaaac

#2930000
1aaaac

#2940000
b11 aaaab
0aaaac

#2950000
1aaaac

#2960000
b0 aaaab
0aaaac

#2970000
1aaaac

#2980000
b11 aaaab
0aaaac

#2990000
1aaaac

#3000000
b0 aaaab
0aaaac

#3010000
1aaaac

#3020000
b11 aaaab
0aaaac

#3030000
1aaaac

#3040000
b0 aaaab
0aaaac

#3050000
1aaaac

#3060000
b11 aaaab
0aaaac

#3070000
1aaaac

#3080000
b0 aaaab
0aaaac

#3090000
1aaaac

#3100000
b11 aaaab
0aaaac

#3110000
1aaaac

#3120000
b0 aaaab
0aaaac

#3130000
1aaaac

#3140000
b11 aaaab
0aaaac

#3150000
1aaaac

#3160000
b0 aaaab
0aaaac

#3170000
1aaaac

#3180000
b11 aaaab
0aaaac

#3190000
1aaaac

#3200000
b0 aaaab
0aaaac

#3210000
1aaaac

#3220000
b11 aaaab
0aaaac

#3230000
1aaaac

#3240000
b0 aaaab
0aaaac

#3250000
1aaaac

#3260000
b11 aaaab
0aaaac

#3270000
1aaaac

#3280000
b0 aaaab
0aaaac

#3290000
1aaaac

#3300000
b11 aaaab
0aaaac

#3310000
1aaaac

#3320000
b0 aaaab
0aaaac

#3330000
1aaaac

#3340000
b11 aaaab
0aaaac

#3350000
1aaaac

#3360000
b0 aaaab
0aaaac

#3370000
1aaaac

#3380000
b11 aaaab
0aaaac

#3390000
1aaaac

#3400000
b0 aaaab
0aaaac

#3410000
1aaaac

#3420000
b11 aaaab
0aaaac

#3430000
1aaaac

#3440000
b0 aaaab
0aaaac

#3450000
1aaaac

#3460000
b11 aaaab
0aaaac

#3470000
1aaaac

#3480000
b0 aaaab
0aaaac

#3490000
1aaaac

#3500000
b11 aaaab
0aaaac

#3510000
1aaaac

#3520000
b0 aaaab
0aaaac

#3530000
1aaaac

#3540000
b11 aaaab
0aaaac

#3550000
1aaaac

#3560000
b0 aaaab
0aaaac

#3570000
1aaaac

#3580000
b11 aaaab
0aaaac

#3590000
1aaaac

#3600000
b0 aaaab
0aaaac

#3610000
1aaaac

#3620000
b11 aaaab
0aaaac

#3630000
1aaaac

#3640000
b0 aaaab
0aaaac

#3650000
1aaaac

#3660000
b11 aaaab
0aaaac

#3670000
1aaaac

#3680000
b0 aaaab
0aaaac

#3690000
1aaaac

#3700000
b11 aaaab
0aaaac

#3710000
1aaaac

#3720000
b0 aaaab
0aaaac

#3730000
1aaaac

#3740000
b11 aaaab
0aaaac

#3750000
1aaaac

#3760000
b0 aaaab
0aaaac

#3770000
1aaaac

#3780000
b11 aaaab
0aaaac

#3790000
1aaaac

#3800000
b0 aaaab
0aaaac

#3810000
1aaaac

#3820000
b11 aaaab
0aaaac

#3830000
1aaaac

#3840000
b0 aaaab
0aaaac

#3850000
1aaaac

#3860000
b11 aaaab
0aaaac

#3870000
1aaaac

#3880000
b0 aaaab
0aaaac

#3890000
1aaaac

#3900000
b11 aaaab
0aaaac

#3910000
1aaaac

#3920000
b0 aaaab
0aaaac

#3930000
1aaaac

#3940000
b11 aaaab
0aaaac

#3950000
1aaaac

#3960000
b0 aaaab
0aaaac

#3970000
1aaaac

#3980000
b11 aaaab
0aaaac

#3990000
1aaaac

#4000000
b0 aaaab
0aaaac

#4010000
1aaaac

#4020000
b11 aaaab
0aaaac

#4030000
1aaaac

#4040000
b0 aaaab
0aaaac

#4050000
1aaaac

#4060000
b11 aaaab
0aaaac

#4070000
1aaaac

#4080000
b0 aaaab
0aaaac

#4090000
1aaaac

#4100000
b11 aaaab
0aaaac

#4110000
1aaaac

#4120000
b0 aaaab
0aaaac

#4130000
1aaaac

#4140000
b11 aaaab
0aaaac

#4150000
1aaaac

#4160000
b0 aaaab
0aaaac

#4170000
1aaaac

#4180000
b11 aaaab
0aaaac

#4190000
1aaaac

#4200000
b0 aaaab
0aaaac

#4210000
1aaaac

#4220000
b11 aaaab
0aaaac

#4230000
1aaaac

#4240000
b0 aaaab
0aaaac

#4250000
1aaaac

#4260000
b11 aaaab
0aaaac

#4270000
1aaaac

#4280000
b0 aaaab
0aaaac

#4290000
1aaaac

#4300000
b11 aaaab
0aaaac

#4310000
1aaaac

#4320000
b0 aaaab
0aaaac

#4330000
1aaaac

#4340000
b11 aaaab
0aaaac

#4350000
1aaaac

#4360000
b0 aaaab
0aaaac

#4370000
1aaaac

#4380000
b11 aaaab
0aaaac

#4390000
1aaaac

#4400000
b0 aaaab
0aaaac

#4410000
1aaaac

#4420000
b11 aaaab
0aaaac

#4430000
1aaaac

#4440000
b0 aaaab
0aaaac

#4450000
1aaaac

#4460000
b11 aaaab
0aaaac

#4470000
1aaaac

#4480000
b0 aaaab
0aaaac

#4490000
1aaaac

#4500000
b11 aaaab
0aaaac

#4510000
1aaaac

#4520000
b0 aaaab
0aaaac

#4530000
1aaaac

#4540000
b11 aaaab
0aaaac

#4550000
1aaaac

#4560000
b0 aaaab
0aaaac

#4570000
1aaaac

#4580000
b11 aaaab
0aaaac

#4590000
1aaaac

#4600000
b0 aaaab
0aaaac

#4610000
1aaaac

#4620000
b11 aaaab
0aaaac

#4630000
1aaaac

#4640000
b0 aaaab
0aaaac

#4650000
1aaaac

#4660000
b11 aaaab
0aaaac

#4670000
1aaaac

#4680000
b0 aaaab
0aaaac

#4690000
1aaaac

#4700000
b11 aaaab
0aaaac

#4710000
1aaaac

#4720000
b0 aaaab
0aaaac

#4730000
1aaaac

#4740000
b11 aaaab
0aaaac

#4750000
1aaaac

#4760000
b0 aaaab
0aaaac

#4770000
1aaaac

#4780000
b11 aaaab
0aaaac

#4790000
1aaaac

#4800000
b0 aaaab
0aaaac

#4810000
1aaaac

#4820000
b11 aaaab
0aaaac

#4830000
1aaaac

#4840000
b0 aaaab
0aaaac

#4850000
1aaaac

#4860000
b11 aaaab
0aaaac

#4870000
1aaaac

#4880000
b0 aaaab
0aaaac

#4890000
1aaaac

#4900000
b11 aaaab
0aaaac

#4910000
1aaaac

#4920000
b0 aaaab
0aaaac

#4930000
1aaaac

#4940000
b11 aaaab
0aaaac

#4950000
1aaaac

#4960000
b0 aaaab
0aaaac

#4970000
1aaaac

#4980000
b11 aaaab
0aaaac

#4990000
1aaaac

#5000000
b0 aaaab
0aaaac

#5010000
1aaaac

#5020000
b11 aaaab
0aaaac

#5030000
1aaaac

#5040000
b0 aaaab
0aaaac

#5050000
1aaaac

#5060000
b11 aaaab
0aaaac

#5070000
1aaaac

#5080000
b0 aaaab
0aaaac

#5090000
1aaaac

#5100000
b11 aaaab
0aaaac

#5110000
1aaaac

#5120000
b0 aaaab
0aaaac

#5130000
1aaaac

#5140000
b11 aaaab
0aaaac

#5150000
1aaaac

#5160000
b0 aaaab
0aaaac

#5170000
1aaaac

#5180000
b11 aaaab
0aaaac

#5190000
1aaaac

#5200000
b0 aaaab
0aaaac

#5210000
1aaaac

#5220000
b11 aaaab
0aaaac

#5230000
1aaaac

#5240000
b0 aaaab
0aaaac

#5250000
1aaaac

#5260000
b11 aaaab
0aaaac

#5270000
1aaaac

#5280000
b0 aaaab
0aaaac

#5290000
1aaaac

#5300000
b11 aaaab
0aaaac

#5310000
1aaaac

#5320000
b0 aaaab
0aaaac

#5330000
1aaaac

#5340000
b11 aaaab
0aaaac

#5350000
1aaaac

#5360000
b0 aaaab
0aaaac

#5370000
1aaaac

#5380000
b11 aaaab
0aaaac

#5390000
1aaaac

#5400000
b0 aaaab
0aaaac

#5410000
1aaaac

#5420000
b11 aaaab
0aaaac

#5430000
1aaaac

#5440000
b0 aaaab
0aaaac

#5450000
1aaaac

#5460000
b11 aaaab
0aaaac

#5470000
1aaaac

#5480000
b0 aaaab
0aaaac

#5490000
1aaaac

#5500000
b11 aaaab
0aaaac

#5510000
1aaaac

#5520000
b0 aaaab
0aaaac

#5530000
1aaaac

#5540000
b11 aaaab
0aaaac

#5550000
1aaaac

#5560000
b0 aaaab
0aaaac

#5570000
1aaaac

#5580000
b11 aaaab
0aaaac

#5590000
1aaaac

#5600000
b0 aaaab
0aaaac

#5610000
1aaaac

#5620000
b11 aaaab
0aaaac

#5630000
1aaaac

#5640000
b0 aaaab
0aaaac

#5650000
1aaaac

#5660000
b11 aaaab
0aaaac

#5670000
1aaaac

#5680000
b0 aaaab
0aaaac

#5690000
1aaaac

#5700000
b11 aaaab
0aaaac

#5710000
1aaaac

#5720000
b0 aaaab
0aaaac

#5730000
1aaaac

#5740000
b11 aaaab
0aaaac

#5750000
1aaaac

#5760000
b0 aaaab
0aaaac

#5770000
1aaaac

#5780000
b11 aaaab
0aaaac

#5790000
1aaaac

#5800000
b0 aaaab
0aaaac

#5810000
1aaaac

#5820000
b11 aaaab
0aaaac

#5830000
1aaaac

#5840000
b0 aaaab
0aaaac

#5850000
1aaaac

#5860000
b11 aaaab
0aaaac

#5870000
1aaaac

#5880000
b0 aaaab
0aaaac

#5890000
1aaaac

#5900000
b11 aaaab
0aaaac

#5910000
1aaaac

#5920000
b0 aaaab
0aaaac

#5930000
1aaaac

#5940000
b11 aaaab
0aaaac

#5950000
1aaaac

#5960000
b0 aaaab
0aaaac

#5970000
1aaaac

#5980000
b11 aaaab
0aaaac

#5990000
1aaaac

#6000000
b0 aaaab
0aaaac

#6010000
1aaaac

#6020000
b11 aaaab
0aaaac

#6030000
1aaaac

#6040000
b0 aaaab
0aaaac

#6050000
1aaaac

#6060000
b11 aaaab
0aaaac

#6070000
1aaaac

#6080000
b0 aaaab
0aaaac

#6090000
1aaaac

#6100000
b11 aaaab
0aaaac

#6110000
1aaaac

#6120000
b0 aaaab
0aaaac

#6130000
1aaaac

#6140000
b11 aaaab
0aaaac

#6150000
1aaaac

#6160000
b0 aaaab
0aaaac

#6170000
1aaaac

#6180000
b11 aaaab
0aaaac

#6190000
1aaaac

#6200000
b0 aaaab
0aaaac

#6210000
1aaaac

#6220000
b11 aaaab
0aaaac

#6230000
1aaaac

#6240000
b0 aaaab
0aaaac

#6250000
1aaaac

#6260000
b11 aaaab
0aaaac

#6270000
1aaaac

#6280000
b0 aaaab
0aaaac

#6290000
1aaaac

#6300000
b11 aaaab
0aaaac

#6310000
1aaaac

#6320000
b0 aaaab
0aaaac

#6330000
1aaaac

#6340000
b11 aaaab
0aaaac

#6350000
1aaaac

#6360000
b0 aaaab
0aaaac

#6370000
1aaaac

#6380000
b11 aaaab
0aaaac

#6390000
1aaaac

#6400000
b0 aaaab
0aaaac

#6410000
1aaaac

#6420000
b11 aaaab
0aaaac

#6430000
1aaaac

#6440000
b0 aaaab
0aaaac

#6450000
1aaaac

#6460000
b11 aaaab
0aaaac

#6470000
1aaaac

#6480000
b0 aaaab
0aaaac

#6490000
1aaaac

#6500000
b11 aaaab
0aaaac

#6510000
1aaaac

#6520000
b0 aaaab
0aaaac

#6530000
1aaaac

#6540000
b11 aaaab
0aaaac

#6550000
1aaaac

#6560000
b0 aaaab
0aaaac

#6570000
1aaaac

#6580000
b11 aaaab
0aaaac

#6590000
1aaaac

#6600000
b0 aaaab
0aaaac

#6610000
1aaaac

#6620000
b11 aaaab
0aaaac

#6630000
1aaaac

#6640000
b0 aaaab
0aaaac

#6650000
1aaaac

#6660000
b11 aaaab
0aaaac

#6670000
1aaaac

#6680000
b0 aaaab
0aaaac

#6690000
1aaaac

#6700000
b11 aaaab
0aaaac

#6710000
1aaaac

#6720000
b0 aaaab
0aaaac

#6730000
1aaaac

#6740000
b11 aaaab
0aaaac

#6750000
1aaaac

#6760000
b0 aaaab
0aaaac

#6770000
1aaaac

#6780000
b11 aaaab
0aaaac

#6790000
1aaaac

#6800000
b0 aaaab
0aaaac

#6810000
1aaaac

#6820000
b11 aaaab
0aaaac

#6830000
1aaaac

#6840000
b0 aaaab
0aaaac

#6850000
1aaaac

#6860000
b11 aaaab
0aaaac

#6870000
1aaaac

#6880000
b0 aaaab
0aaaac

#6890000
1aaaac

#6900000
b11 aaaab
0aaaac

#6910000
1aaaac

#6920000
b0 aaaab
0aaaac

#6930000
1aaaac

#6940000
b11 aaaab
0aaaac

#6950000
1aaaac

#6960000
b0 aaaab
0aaaac

#6970000
1aaaac

#6980000
b11 aaaab
0aaaac

#6990000
1aaaac

#7000000
b0 aaaab
0aaaac

#7010000
1aaaac

#7020000
b11 aaaab
0aaaac

#7030000
1aaaac

#7040000
b0 aaaab
0aaaac

#7050000
1aaaac

#7060000
b11 aaaab
0aaaac

#7070000
1aaaac

#7080000
b0 aaaab
0aaaac

#7090000
1aaaac

#7100000
b11 aaaab
0aaaac

#7110000
1aaaac

#7120000
b0 aaaab
0aaaac

#7130000
1aaaac

#7140000
b11 aaaab
0aaaac

#7150000
1aaaac

#7160000
b0 aaaab
0aaaac

#7170000
1aaaac

#7180000
b11 aaaab
0aaaac

#7190000
1aaaac

#7200000
b0 aaaab
0aaaac

#7210000
1aaaac

#7220000
b11 aaaab
0aaaac

#7230000
1aaaac

#7240000
b0 aaaab
0aaaac

#7250000
1aaaac

#7260000
b11 aaaab
0aaaac

#7270000
1aaaac

#7280000
b0 aaaab
0aaaac

#7290000
1aaaac

#7300000
b11 aaaab
0aaaac

#7310000
1aaaac

#7320000
b0 aaaab
0aaaac

#7330000
1aaaac

#7340000
b11 aaaab
0aaaac

#7350000
1aaaac

#7360000
b0 aaaab
0aaaac

#7370000
1aaaac

#7380000
b11 aaaab
0aaaac

#7390000
1aaaac

#7400000
b0 aaaab
0aaaac

#7410000
1aaaac

#7420000
b11 aaaab
0aaaac

#7430000
1aaaac

#7440000
b0 aaaab
0aaaac

#7450000
1aaaac

#7460000
b11 aaaab
0aaaac

#7470000
1aaaac

#7480000
b0 aaaab
0aaaac

#7490000
1aaaac

#7500000
b11 aaaab
0aaaac

#7510000
1aaaac

#7520000
b0 aaaab
0aaaac

#7530000
1aaaac

#7540000
b11 aaaab
0aaaac

#7550000
1aaaac

#7560000
b0 aaaab
0aaaac

#7570000
1aaaac

#7580000
b11 aaaab
0aaaac

#7590000
1aaaac

#7600000
b0 aaaab
0aaaac

#7610000
1aaaac

#7620000
b11 aaaab
0aaaac

#7630000
1aaaac

#7640000
b0 aaaab
0aaaac

#7650000
1aaaac

#7660000
b11 aaaab
0aaaac

#7670000
1aaaac

#7680000
b0 aaaab
0aaaac

#7690000
1aaaac

#7700000
b11 aaaab
0aaaac

#7710000
1aaaac

#7720000
b0 aaaab
0aaaac

#7730000
1aaaac

#7740000
b11 aaaab
0aaaac

#7750000
1aaaac

#7760000
b0 aaaab
0aaaac

#7770000
1aaaac

#7780000
b11 aaaab
0aaaac

#7790000
1aaaac

#7800000
b0 aaaab
0aaaac

#7810000
1aaaac

#7820000
b11 aaaab
0aaaac

#7830000
1aaaac

#7840000
b0 aaaab
0aaaac

#7850000
1aaaac

#7860000
b11 aaaab
0aaaac

#7870000
1aaaac

#7880000
b0 aaaab
0aaaac

#7890000
1aaaac

#7900000
b11 aaaab
0aaaac

#7910000
1aaaac

#7920000
b0 aaaab
0aaaac

#7930000
1aaaac

#7940000
b11 aaaab
0aaaac

#7950000
1aaaac

#7960000
b0 aaaab
0aaaac

#7970000
1aaaac

#7980000
b11 aaaab
0aaaac

#7990000
1aaaac

#8000000
b0 aaaab
0aaaac

#8010000
1aaaac

#8020000
b11 aaaab
0aaaac

#8030000
1aaaac

#8040000
b0 aaaab
0aaaac

#8050000
1aaaac

#8060000
b11 aaaab
0aaaac

#8070000
1aaaac

#8080000
b0 aaaab
0aaaac

#8090000
1aaaac

#8100000
b11 aaaab
0aaaac

#8110000
1aaaac

#8120000
b0 aaaab
0aaaac

#8130000
1aaaac

#8140000
b11 aaaab
0aaaac

#8150000
1aaaac

#8160000
b0 aaaab
0aaaac

#8170000
1aaaac

#8180000
b11 aaaab
0aaaac

#8190000
1aaaac

#8200000
b0 aaaab
0aaaac

#8210000
1aaaac

#8220000
b11 aaaab
0aaaac

#8230000
1aaaac

#8240000
b0 aaaab
0aaaac

#8250000
1aaaac

#8260000
b11 aaaab
0aaaac

#8270000
1aaaac

#8280000
b0 aaaab
0aaaac

#8290000
1aaaac

#8300000
b11 aaaab
0aaaac

#8310000
1aaaac

#8320000
b0 aaaab
0aaaac

#8330000
1aaaac

#8340000
b11 aaaab
0aaaac

#8350000
1aaaac

#8360000
b0 aaaab
0aaaac

#8370000
1aaaac

#8380000
b11 aaaab
0aaaac

#8390000
1aaaac

#8400000
b0 aaaab
0aaaac

#8410000
1aaaac

#8420000
b11 aaaab
0aaaac

#8430000
1aaaac

#8440000
b0 aaaab
0aaaac

#8450000
1aaaac

#8460000
b11 aaaab
0aaaac

#8470000
1aaaac

#8480000
b0 aaaab
0aaaac

#8490000
1aaaac

#8500000
b11 aaaab
0aaaac

#8510000
1aaaac

#8520000
b0 aaaab
0aaaac

#8530000
1aaaac

#8540000
b11 aaaab
0aaaac

#8550000
1aaaac

#8560000
b0 aaaab
0aaaac

#8570000
1aaaac

#8580000
b11 aaaab
0aaaac

#8590000
1aaaac

#8600000
b0 aaaab
0aaaac

#8610000
1aaaac

#8620000
b11 aaaab
0aaaac

#8630000
1aaaac

#8640000
b0 aaaab
0aaaac

#8650000
1aaaac

#8660000
b11 aaaab
0aaaac

#8670000
1aaaac

#8680000
b0 aaaab
0aaaac

#8690000
1aaaac

#8700000
b11 aaaab
0aaaac

#8710000
1aaaac

#8720000
b0 aaaab
0aaaac

#8730000
1aaaac

#8740000
b11 aaaab
0aaaac

#8750000
1aaaac

#8760000
b0 aaaab
0aaaac

#8770000
1aaaac

#8780000
b11 aaaab
0aaaac

#8790000
1aaaac

#8800000
b0 aaaab
0aaaac

#8810000
1aaaac

#8820000
b11 aaaab
0aaaac

#8830000
1aaaac

#8840000
b0 aaaab
0aaaac

#8850000
1aaaac

#8860000
b11 aaaab
0aaaac

#8870000
1aaaac

#8880000
b0 aaaab
0aaaac

#8890000
1aaaac

#8900000
b11 aaaab
0aaaac

#8910000
1aaaac

#8920000
b0 aaaab
0aaaac

#8930000
1aaaac

#8940000
b11 aaaab
0aaaac

#8950000
1aaaac

#8960000
b0 aaaab
0aaaac

#8970000
1aaaac

#8980000
b11 aaaab
0aaaac

#8990000
1aaaac

#9000000
b0 aaaab
0aaaac

#9010000
1aaaac

#9020000
b11 aaaab
0aaaac

#9030000
1aaaac

#9040000
b0 aaaab
0aaaac

#9050000
1aaaac

#9060000
b11 aaaab
0aaaac

#9070000
1aaaac

#9080000
b0 aaaab
0aaaac

#9090000
1aaaac

#9100000
b11 aaaab
0aaaac

#9110000
1aaaac

#9120000
b0 aaaab
0aaaac

#9130000
1aaaac

#9140000
b11 aaaab
0aaaac

#9150000
1aaaac

#9160000
b0 aaaab
0aaaac

#9170000
1aaaac

#9180000
b11 aaaab
0aaaac

#9190000
1aaaac

#9200000
b0 aaaab
0aaaac

#9210000
1aaaac

#9220000
b11 aaaab
0aaaac

#9230000
1aaaac

#9240000
b0 aaaab
0aaaac

#9250000
1aaaac

#9260000
b11 aaaab
0aaaac

#9270000
1aaaac

#9280000
b0 aaaab
0aaaac

#9290000
1aaaac

#9300000
b11 aaaab
0aaaac

#9310000
1aaaac

#9320000
b0 aaaab
0aaaac

#9330000
1aaaac

#9340000
b11 aaaab
0aaaac

#9350000
1aaaac

#9360000
b0 aaaab
0aaaac

#9370000
1aaaac

#9380000
b11 aaaab
0aaaac

#9390000
1aaaac

#9400000
b0 aaaab
0aaaac

#9410000
1aaaac

#9420000
b11 aaaab
0aaaac

#9430000
1aaaac

#9440000
b0 aaaab
0aaaac

#9450000
1aaaac

#9460000
b11 aaaab
0aaaac

#9470000
1aaaac

#9480000
b0 aaaab
0aaaac

#9490000
1aaaac

#9500000
b11 aaaab
0aaaac

#9510000
1aaaac

#9520000
b0 aaaab
0aaaac

#9530000
1aaaac

#9540000
b11 aaaab
0aaaac

#9550000
1aaaac

#9560000
b0 aaaab
0aaaac

#9570000
1aaaac

#9580000
b11 aaaab
0aaaac

#9590000
1aaaac

#9600000
b0 aaaab
0aaaac

#9610000
1aaaac

#9620000
b11 aaaab
0aaaac

#9630000
1aaaac

#9640000
b0 aaaab
0aaaac

#9650000
1aaaac

#9660000
b11 aaaab
0aaaac

#9670000
1aaaac

#9680000
b0 aaaab
0aaaac

#9690000
1aaaac

#9700000
b11 aaaab
0aaaac

#9710000
1aaaac

#9720000
b0 aaaab
0aaaac

#9730000
1aaaac

#9740000
b11 aaaab
0aaaac

#9750000
1aaaac

#9760000
b0 aaaab
0aaaac

#9770000
1aaaac

#9780000
b11 aaaab
0aaaac

#9790000
1aaaac

#9800000
b0 aaaab
0aaaac

#9810000
1aaaac

#9820000
b11 aaaab
0aaaac

#9830000
1aaaac

#9840000
b0 aaaab
0aaaac

#9850000
1aaaac

#9860000
b11 aaaab
0aaaac

#9870000
1aaaac

#9880000
b0 aaaab
0aaaac

#9890000
1aaaac

#9900000
b11 aaaab
0aaaac

#9910000
1aaaac

